tests/waves.vcd
$date
	Sat Mar 18 16:43:33 2023
$end
$version
	Icarus Verilog
$end
$timescale
	1ps
$end
$scope module dut_test $end
$var wire 1 ! CLK $end
$var wire 1 " RST_N $end
$var wire 1 # busy $end
$var wire 1 $ busy_D_IN $end
$var wire 8 % cfg_address [7:0] $end
$var wire 32 & cfg_data_in [31:0] $end
$var wire 1 ' cfg_en $end
$var wire 1 ( cfg_op $end
$var wire 1 ) cfg_rdy $end
$var wire 1 * din_en $end
$var wire 8 + din_value [7:0] $end
$var wire 1 , dout_en $end
$var wire 1 - dout_ff_FULL_N $end
$var wire 1 . len_en $end
$var wire 8 / len_value [7:0] $end
$var wire 1 0 programmed_length_EN $end
$var wire 1 1 normal_mode_RESET_N $end
$var wire 1 2 len_rdy $end
$var wire 8 3 dout_value [7:0] $end
$var wire 1 4 dout_rdy $end
$var wire 1 5 din_rdy $end
$var wire 32 6 cfg_data_out [31:0] $end
$scope module dut $end
$var wire 1 ! CLK $end
$var wire 1 7 \MUX_programmed_length$write_1__SEL_1 $end
$var wire 1 " RST_N $end
$var wire 1 8 \busy$D_IN $end
$var wire 1 9 \busy$EN $end
$var wire 8 : cfg_address [7:0] $end
$var wire 32 ; cfg_data_in [31:0] $end
$var wire 1 ' cfg_en $end
$var wire 1 ( cfg_op $end
$var wire 1 ) cfg_rdy $end
$var wire 8 < \current_count$D_IN [7:0] $end
$var wire 1 = \current_count$EN $end
$var wire 1 * din_en $end
$var wire 1 5 din_rdy $end
$var wire 8 > din_value [7:0] $end
$var wire 1 , dout_en $end
$var wire 1 ? \dout_ff$CLR $end
$var wire 1 @ \dout_ff$DEQ $end
$var wire 1 A \dout_ff$ENQ $end
$var wire 1 4 dout_rdy $end
$var wire 8 B dout_value [7:0] $end
$var wire 1 . len_en $end
$var wire 1 2 len_rdy $end
$var wire 8 C len_value [7:0] $end
$var wire 1 D \pause$EN $end
$var wire 1 E \programmed_length$EN $end
$var wire 1 F \sum$EN $end
$var wire 1 G \sw_override$EN $end
$var wire 1 H \w_sw_override$whas $end
$var wire 17 I x__h969 [16:0] $end
$var wire 1 J \sw_override$D_IN $end
$var wire 8 K \sum$D_IN [7:0] $end
$var wire 8 L \programmed_length$D_IN [7:0] $end
$var wire 1 M \pause$D_IN $end
$var wire 8 N next_count__h523 [7:0] $end
$var wire 1 O \dout_ff$FULL_N $end
$var wire 1 P \dout_ff$EMPTY_N $end
$var wire 8 Q \dout_ff$D_OUT [7:0] $end
$var wire 8 R \dout_ff$D_IN [7:0] $end
$var wire 1 S current_count_PLUS_1_EQ_programmed_length___d8 $end
$var wire 32 T cfg_data_out [31:0] $end
$var reg 32 U CASE_cfg_address_0_0_CONCAT_x69_4_0_CONCAT_sw__ETC__q1 [31:0] $end
$var reg 1 V busy $end
$var reg 8 W current_count [7:0] $end
$var reg 1 X pause $end
$var reg 8 Y programmed_length [7:0] $end
$var reg 8 Z sum [7:0] $end
$var reg 1 [ sw_override $end
$scope module dout_ff $end
$var wire 1 ! CLK $end
$var wire 1 ? CLR $end
$var wire 1 @ DEQ $end
$var wire 8 \ D_IN [7:0] $end
$var wire 1 P EMPTY_N $end
$var wire 1 A ENQ $end
$var wire 1 O FULL_N $end
$var wire 1 " RST $end
$var wire 1 ] d0d1 $end
$var wire 1 ^ d0di $end
$var wire 1 _ d0h $end
$var wire 1 ` d1di $end
$var wire 8 a D_OUT [7:0] $end
$var reg 8 b data0_reg [7:0] $end
$var reg 8 c data1_reg [7:0] $end
$var reg 1 d empty_reg $end
$var reg 1 e full_reg $end
$scope begin error_checks $end
$var reg 1 f deqerror $end
$var reg 1 g enqerror $end
$upscope $end
$upscope $end
$upscope $end
$upscope $end
$enddefinitions $end
#0
$dumpvars
0g
0f
1e
0d
b10101010 c
b10101010 b
b10101010 a
0`
1_
0^
0]
bx \
0[
b10101010 Z
b10101010 Y
0X
b10101010 W
0V
b10101010 U
b0x0x0x0x0 T
0S
bx R
b10101010 Q
0P
1O
b10101011 N
zM
bz L
bx K
zJ
b1010101010101010 I
xH
xG
xF
xE
xD
bz C
b10101010 B
0A
z@
0?
bz >
x=
b10101011 <
bz ;
bz :
x9
18
x7
b0x0x0x0x0 6
15
04
b10101010 3
02
11
z0
bz /
z.
1-
z,
bz +
z*
1)
z(
z'
bz &
bz %
z$
0#
1"
1!
$end
#1000
05
x8
b0 6
b0 T
b0 U
b0 Z
b0 Y
b1 <
b1 N
b0 I
b0 W
0"
#2500
0!
#5000
08
09
0E
0D
0G
0H
07
0=
0F
0'
0@
0,
0.
0*
1"
1!
#7500
0!
#10000
b11 L
1M
1J
1D
1G
1H
b11 &
b11 ;
b100 %
b100 :
1(
1'
1!
#12500
0!
#15000
0D
0G
0H
0'
b1 U
02
1[
1X
1!
#17500
0!
#20000
b0 U
b0 6
b0 T
b0 %
b0 :
0(
1'
1!
#22500
0!
#25000
1!
#27500
0!
#30000
1!
#31000
19
1E
b0 L
0M
0J
b0 &
b0 ;
b1000 %
b1000 :
1(
#32500
0!
#35000
09
0E
0'
1!
#37500
0!
#40000
b0 %
b0 :
0(
1'
1!
#42500
0!
#45000
1!
#47500
0!
#50000
1!
#51000
19
1E
b1000 %
b1000 :
1(
#52500
0!
#55000
09
0E
0'
1!
#57500
0!
#60000
b0 %
b0 :
0(
1'
1!
#62500
0!
#65000
1!
#67500
0!
#70000
1!
#71000
18
19
1E
b1010 L
1M
b1010 &
b1010 ;
b1000 %
b1000 :
1(
#72500
0!
#75000
0E
1=
1F
b0 K
b0 R
b0 \
b0 +
b0 >
1*
0'
15
b1010 U
1#
1V
b10000101000000000 I
b1010 Y
1!
#77500
0!
#80000
b10000101000000001 U
b10000101000000001 6
b10000101000000001 T
09
0=
0F
b0 %
b0 :
0(
1'
0*
b10 <
b10 N
b10000101000000001 I
b1 W
1!
#82500
0!
#85000
19
1=
1F
1*
1!
#87500
0!
#90000
09
0=
0F
0*
b10000101000000010 6
b10000101000000010 T
b10000101000000010 U
b11 <
b11 N
b10000101000000010 I
b10 W
1!
#92500
0!
#95000
19
1=
1F
1*
1!
#97500
0!
#100000
09
0=
0F
0*
b10000101000000011 6
b10000101000000011 T
b10000101000000011 U
b100 <
b100 N
b10000101000000011 I
b11 W
1!
#102500
0!
#105000
19
1=
1F
1*
1!
#107500
0!
#110000
09
0=
0F
0*
b10000101000000100 6
b10000101000000100 T
b10000101000000100 U
b101 <
b101 N
b10000101000000100 I
b100 W
1!
#112500
0!
#115000
19
1=
1F
1*
1!
#117500
0!
#120000
09
0=
0F
0*
b10000101000000101 6
b10000101000000101 T
b10000101000000101 U
b110 <
b110 N
b10000101000000101 I
b101 W
1!
#122500
0!
#125000
19
1=
1F
1*
1!
#127500
0!
#130000
09
0=
0F
0*
b10000101000000110 6
b10000101000000110 T
b10000101000000110 U
b111 <
b111 N
b10000101000000110 I
b110 W
1!
#132500
0!
#135000
19
1=
1F
1*
1!
#137500
0!
#140000
09
0=
0F
0*
b10000101000000111 6
b10000101000000111 T
b10000101000000111 U
b1000 <
b1000 N
b10000101000000111 I
b111 W
1!
#142500
0!
#145000
19
1=
1F
1*
1!
#147500
0!
#150000
09
0=
0F
0*
b10000101000001000 6
b10000101000001000 T
b10000101000001000 U
b1001 <
b1001 N
b10000101000001000 I
b1000 W
1!
#152500
0!
#155000
19
1=
1F
1*
1!
#157500
0!
#160000
09
0*
1_
0^
08
b10000101000001001 6
b10000101000001001 T
0F
0=
0A
b10000101000001001 U
1S
b1010 <
b1010 N
b10000101000001001 I
b1001 W
1!
#162500
0!
#165000
0_
1^
19
1A
1*
1!
#167500
0!
#170000
09
1@
1,
0*
1_
0^
05
18
b101000000000 6
b101000000000 T
0F
0=
0A
b101000000000 U
14
1P
1d
b0 3
b0 B
b0 Q
b0 a
b0 b
0#
0V
0S
b1 <
b1 N
b101000000000 I
b0 W
1!
#172500
0!
#175000
04
0P
0d
1!
#177000
19
1E
b0 L
0M
b1010 U
b0 6
b0 T
b0 &
b0 ;
b1000 %
b1000 :
1(
0@
0,
#177500
0!
#180000
0E
1=
1F
1*
0'
15
08
b0 U
1#
1V
b10000000000000000 I
b0 Y
1!
#182500
0!
#185000
b1 6
b1 T
b1 U
09
0=
0F
b0 %
b0 :
0(
1'
0*
05
0#
0V
b10 <
b10 N
b1 I
b1 W
1!
#187500
0!
#190000
1!
#192500
0!
#195000
1!
#197000
18
19
1E
b101 L
1J
b0 U
b0 6
b0 T
b101 &
b101 ;
b1000 %
b1000 :
1(
#197500
0!
#200000
0E
1=
1F
1*
0'
15
b101 U
1#
1V
b10000010100000001 I
b101 Y
1!
#202500
0!
#205000
09
0=
0F
0*
b11 <
b11 N
b10000010100000010 I
b10 W
1!
#207500
0!
#210000
19
1=
1F
1*
1!
#212500
0!
#215000
09
0=
0F
0*
b100 <
b100 N
b10000010100000011 I
b11 W
1!
#217500
0!
#220000
19
1=
1F
1*
1!
#222500
0!
#225000
09
0*
1_
0^
08
0F
0=
0A
1S
b101 <
b101 N
b10000010100000100 I
b100 W
1!
#227500
0!
#230000
0_
1^
19
1A
1*
1!
#232500
0!
#235000
09
1@
1,
0*
1_
0^
05
18
0F
0=
0A
14
1P
1d
0#
0V
0S
b1 <
b1 N
b10100000000 I
b0 W
1!
