tests/waves.vcd
$date
	Wed Mar 22 18:36:28 2023
$end
$version
	Icarus Verilog
$end
$timescale
	1ps
$end
$scope module dut_test $end
$var wire 1 ! CLK $end
$var wire 1 " RST_N $end
$var wire 8 # cfg_address [7:0] $end
$var wire 32 $ cfg_data_in [31:0] $end
$var wire 1 % cfg_en $end
$var wire 1 & cfg_op $end
$var wire 1 ' cfg_rdy $end
$var wire 1 ( din_en $end
$var wire 8 ) din_value [7:0] $end
$var wire 1 * dout_en $end
$var wire 1 + dout_ff_FULL_N $end
$var wire 1 , len_en $end
$var wire 8 - len_value [7:0] $end
$var wire 1 . len_rdy $end
$var wire 8 / dout_value [7:0] $end
$var wire 1 0 dout_rdy $end
$var wire 1 1 din_rdy $end
$var wire 32 2 cfg_data_out [31:0] $end
$scope module dut $end
$var wire 1 ! CLK $end
$var wire 1 3 \MUX_programmed_length$write_1__SEL_1 $end
$var wire 1 " RST_N $end
$var wire 1 4 \busy$D_IN $end
$var wire 1 5 \busy$EN $end
$var wire 8 6 cfg_address [7:0] $end
$var wire 32 7 cfg_data_in [31:0] $end
$var wire 1 % cfg_en $end
$var wire 1 & cfg_op $end
$var wire 1 ' cfg_rdy $end
$var wire 8 8 \current_count$D_IN [7:0] $end
$var wire 1 9 \current_count$EN $end
$var wire 1 ( din_en $end
$var wire 1 1 din_rdy $end
$var wire 8 : din_value [7:0] $end
$var wire 1 * dout_en $end
$var wire 1 ; \dout_ff$CLR $end
$var wire 1 < \dout_ff$DEQ $end
$var wire 1 = \dout_ff$ENQ $end
$var wire 1 0 dout_rdy $end
$var wire 8 > dout_value [7:0] $end
$var wire 1 , len_en $end
$var wire 1 . len_rdy $end
$var wire 8 ? len_value [7:0] $end
$var wire 1 @ \pause$EN $end
$var wire 1 A \programmed_length$EN $end
$var wire 1 B \sum$EN $end
$var wire 1 C \sw_override$EN $end
$var wire 1 D \w_sw_override$whas $end
$var wire 17 E x__h969 [16:0] $end
$var wire 1 F \sw_override$D_IN $end
$var wire 8 G \sum$D_IN [7:0] $end
$var wire 8 H \programmed_length$D_IN [7:0] $end
$var wire 1 I \pause$D_IN $end
$var wire 8 J next_count__h523 [7:0] $end
$var wire 1 K \dout_ff$FULL_N $end
$var wire 1 L \dout_ff$EMPTY_N $end
$var wire 8 M \dout_ff$D_OUT [7:0] $end
$var wire 8 N \dout_ff$D_IN [7:0] $end
$var wire 1 O current_count_PLUS_1_EQ_programmed_length___d8 $end
$var wire 32 P cfg_data_out [31:0] $end
$var reg 32 Q CASE_cfg_address_0_0_CONCAT_x69_4_0_CONCAT_sw__ETC__q1 [31:0] $end
$var reg 1 R busy $end
$var reg 8 S current_count [7:0] $end
$var reg 1 T pause $end
$var reg 8 U programmed_length [7:0] $end
$var reg 1 V start_din $end
$var reg 8 W sum [7:0] $end
$var reg 1 X sw_override $end
$scope module dout_ff $end
$var wire 1 ! CLK $end
$var wire 1 ; CLR $end
$var wire 1 < DEQ $end
$var wire 8 Y D_IN [7:0] $end
$var wire 1 L EMPTY_N $end
$var wire 1 = ENQ $end
$var wire 1 K FULL_N $end
$var wire 1 " RST $end
$var wire 1 Z d0d1 $end
$var wire 1 [ d0di $end
$var wire 1 \ d0h $end
$var wire 1 ] d1di $end
$var wire 8 ^ D_OUT [7:0] $end
$var reg 8 _ data0_reg [7:0] $end
$var reg 8 ` data1_reg [7:0] $end
$var reg 1 a empty_reg $end
$var reg 1 b full_reg $end
$scope begin error_checks $end
$var reg 1 c deqerror $end
$var reg 1 d enqerror $end
$upscope $end
$upscope $end
$upscope $end
$upscope $end
$enddefinitions $end
#0
$dumpvars
0d
0c
1b
0a
b10101010 `
b10101010 _
b10101010 ^
0]
1\
0[
0Z
bx Y
0X
b10101010 W
1V
b10101010 U
0T
b10101010 S
0R
b10101010 Q
b0x0x0x0x0 P
0O
bx N
b10101010 M
0L
1K
b10101011 J
zI
bz H
bx G
zF
b1010101010101010 E
0D
0C
0B
0A
0@
bz ?
b10101010 >
0=
0<
0;
bz :
09
b10101011 8
bz 7
bz 6
05
14
03
b0x0x0x0x0 2
11
00
b10101010 /
0.
bz -
0,
1+
0*
bz )
0(
1'
z&
0%
bz $
bz #
1"
1!
$end
#1000
b0 2
b0 P
01
04
b0 Q
b0 W
b0 U
b1 8
b1 J
b0 E
b0 S
0V
0"
#2500
0!
#5000
1"
1!
#7500
0!
#10000
b10 H
1I
0F
1@
1C
1D
b10 $
b10 7
b100 #
b100 6
1&
1%
1V
1!
#12500
0!
#15000
b1 H
1A
13
0@
0C
0D
b1 -
b1 ?
1,
0%
b10 Q
1.
1T
1!
#17500
0!
#20000
b10 H
0A
03
0,
0.
11
1O
b100000000 E
b1 U
1!
#22500
0!
#25000
1!
#27500
0!
#30000
0\
1[
b1 H
1@
1C
1D
0I
1F
1=
b1 $
b1 7
1%
b11110 G
b11110 N
b11110 Y
b11110 )
b11110 :
15
1(
1!
#32500
0!
#35000
0@
0C
0D
0=
1<
1*
0%
05
0(
1\
01
0[
0]
b1 Q
b11110 /
b11110 >
b11110 M
b11110 ^
b11110 _
10
1L
1a
1X
0T
0V
1!
#37500
0!
#40000
11
00
0L
0a
1V
1!
#42500
0!
0<
0*
#45000
0\
1[
b11 H
1@
1C
1D
1I
1=
b11 $
b11 7
1%
b11011 G
b11011 N
b11011 Y
b11011 )
b11011 :
15
1(
1!
#47500
0!
#50000
0@
0C
0D
0=
1<
1*
0%
05
0(
1\
01
0[
0]
b11 Q
10
1L
1a
b11011 /
b11011 >
b11011 M
b11011 ^
b11011 _
1T
0V
1!
#52500
0!
#55000
00
0L
0a
1!
#57500
0!
0<
0*
#60000
1A
b1000 H
0I
0F
b1 Q
b1000 $
b1000 7
b1000 #
b1000 6
1%
1!
#62500
0!
#65000
0A
0%
11
14
b1000 Q
1V
0O
b100000000000 E
b1000 U
1!
#67500
0!
#70000
1!
#72500
0!
#75000
19
1B
b11 G
b11 N
b11 Y
b11 )
b11 :
15
1(
1!
#77500
0!
#80000
09
0B
05
0(
1R
b110 G
b110 N
b110 Y
b11 W
b10 8
b10 J
b10000100000000001 E
b1 S
0V
1!
#82500
0!
#85000
19
1B
b10000100000000001 Q
b10000100000000001 2
b10000100000000001 P
b10010 G
b10010 N
b10010 Y
b1111 )
b1111 :
15
1(
b0 #
b0 6
0&
1%
1!
#87500
0!
#90000
09
0B
05
0(
0%
b10000100000000010 2
b10000100000000010 P
b10000100000000010 Q
b100001 G
b100001 N
b100001 Y
b10010 W
b11 8
b11 J
b10000100000000010 E
b10 S
1!
#92500
0!
#95000
19
1B
b101011 G
b101011 N
b101011 Y
b11001 )
b11001 :
15
1(
1%
1!
#97500
0!
#100000
09
0B
05
0(
0%
b10000100000000011 2
b10000100000000011 P
b10000100000000011 Q
b1000100 G
b1000100 N
b1000100 Y
b101011 W
b100 8
b100 J
b10000100000000011 E
b11 S
1!
#102500
0!
#105000
b1000 2
b1000 P
19
1B
b1000 Q
b101100 G
b101100 N
b101100 Y
b1 )
b1 :
15
1(
b1000 #
b1000 6
1%
1!
#107500
0!
#110000
09
0B
05
0(
0%
b101101 G
b101101 N
b101101 Y
b101100 W
b101 8
b101 J
b10000100000000100 E
b100 S
1!
#112500
0!
#115000
19
1B
b101110 G
b101110 N
b101110 Y
b10 )
b10 :
15
1(
1!
#117500
0!
#120000
b10000100000000101 2
b10000100000000101 P
b10000100000000101 Q
09
0B
b0 #
b0 6
1%
05
0(
b110000 G
b110000 N
b110000 Y
b101110 W
b110 8
b110 J
b10000100000000101 E
b101 S
1!
#122500
0!
#125000
19
1B
b101111 G
b101111 N
b101111 Y
b1 )
b1 :
15
1(
0%
1!
#127500
0!
#130000
09
0B
05
0(
b10000100000000110 2
b10000100000000110 P
b10000100000000110 Q
b110000 G
b110000 N
b110000 Y
b101111 W
b111 8
b111 J
b10000100000000110 E
b110 S
1!
#132500
0!
#135000
19
1B
b110001 G
b110001 N
b110001 Y
b10 )
b10 :
15
1(
1!
#137500
0!
#140000
b1000 #
b1000 6
1%
05
0(
1\
0[
b1000 2
b1000 P
0B
09
04
0=
b1000 Q
b110011 G
b110011 N
b110011 Y
b110001 W
1O
b1000 8
b1000 J
b10000100000000111 E
b111 S
1!
#142500
0!
#145000
0\
1[
1=
b110100 G
b110100 N
b110100 Y
b11 )
b11 :
15
1(
0%
1!
#147500
0!
#150000
0=
1<
1*
05
0(
01
1\
0[
0]
10
1L
1a
b110100 /
b110100 >
b110100 M
b110100 ^
b110100 _
b100000000111 E
0R
1!
#152500
0!
#155000
00
0L
0a
1!
#157500
0!
0<
0*
#160000
1A
b1001 H
1F
b0 2
b0 P
b1001 $
b1001 7
1&
1%
1!
#162500
0!
#165000
0A
0%
11
14
b1001 Q
1V
b1001 U
b11 G
b11 N
b11 Y
b0 W
0O
b1 8
b1 J
b100100000000 E
b0 S
1!
#167500
0!
#170000
1!
#172500
0!
#175000
19
1B
b1111 G
b1111 N
b1111 Y
b1111 )
b1111 :
15
1(
1!
#177500
0!
#180000
09
0B
05
0(
1R
b11110 G
b11110 N
b11110 Y
b1111 W
b10 8
b10 J
b10000100100000001 E
b1 S
0V
1!
#182500
0!
#185000
19
1B
b10000100100000001 Q
b10000100100000001 2
b10000100100000001 P
b100011 G
b100011 N
b100011 Y
b10100 )
b10100 :
15
1(
b0 #
b0 6
0&
1%
1!
#187500
0!
#190000
09
0B
05
0(
0%
b10000100100000010 2
b10000100100000010 P
b10000100100000010 Q
b110111 G
b110111 N
b110111 Y
b100011 W
b11 8
b11 J
b10000100100000010 E
b10 S
1!
#192500
0!
#195000
b11 2
b11 P
19
1B
b11 Q
b100101 G
b100101 N
b100101 Y
b10 )
b10 :
15
1(
b100 #
b100 6
1%
1!
#197500
0!
#200000
09
0B
05
0(
0%
b100111 G
b100111 N
b100111 Y
b100101 W
b100 8
b100 J
b10000100100000011 E
b11 S
1!
#202500
0!
#205000
b10000100100000011 2
b10000100100000011 P
19
1B
b10000100100000011 Q
b110101 G
b110101 N
b110101 Y
b10000 )
b10000 :
15
1(
b0 #
b0 6
1%
1!
#207500
0!
#210000
09
0B
05
0(
0%
b10000100100000100 2
b10000100100000100 P
b10000100100000100 Q
b1000101 G
b1000101 N
b1000101 Y
b110101 W
b101 8
b101 J
b10000100100000100 E
b100 S
1!
#212500
0!
#215000
b1001 2
b1001 P
19
1B
b1001 Q
b1010001 G
b1010001 N
b1010001 Y
b11100 )
b11100 :
15
1(
b1000 #
b1000 6
1%
1!
#217500
0!
#220000
09
0B
05
0(
0%
b1101101 G
b1101101 N
b1101101 Y
b1010001 W
b110 8
b110 J
b10000100100000101 E
b101 S
1!
#222500
0!
#225000
b10000100100000101 2
b10000100100000101 P
19
1B
b10000100100000101 Q
b1010110 G
b1010110 N
b1010110 Y
b101 )
b101 :
15
1(
b0 #
b0 6
1%
1!
#227500
0!
#230000
09
0B
05
0(
0%
b10000100100000110 2
b10000100100000110 P
b10000100100000110 Q
b1011011 G
b1011011 N
b1011011 Y
b1010110 W
b111 8
b111 J
b10000100100000110 E
b110 S
1!
#232500
0!
#235000
19
1B
b1100010 G
b1100010 N
b1100010 Y
b1100 )
b1100 :
15
1(
1!
#237500
0!
#240000
09
0B
05
0(
b10000100100000111 2
b10000100100000111 P
b10000100100000111 Q
b1101110 G
b1101110 N
b1101110 Y
b1100010 W
b1000 8
b1000 J
b10000100100000111 E
b111 S
1!
#242500
0!
#245000
b1001 2
b1001 P
19
1B
b1001 Q
b1111001 G
b1111001 N
b1111001 Y
b10111 )
b10111 :
15
1(
b1000 #
b1000 6
1%
1!
#247500
0!
#250000
05
0(
0%
1\
0[
0B
09
04
0=
b10010000 G
b10010000 N
b10010000 Y
b1111001 W
1O
b1001 8
b1001 J
b10000100100001000 E
b1000 S
1!
#252500
0!
#255000
0\
1[
1=
b1111011 G
b1111011 N
b1111011 Y
b10 )
b10 :
15
1(
1!
#257500
0!
#260000
0=
1<
1*
05
0(
01
1\
0[
0]
10
1L
1a
b1111011 /
b1111011 >
b1111011 M
b1111011 ^
b1111011 _
b100100001000 E
0R
1!
#262500
0!
#265000
00
0L
0a
1!
#267500
0!
0<
0*
#270000
1A
b111 H
1I
b0 2
b0 P
b111 $
b111 7
1&
1%
1!
#272500
0!
#275000
0A
0%
11
14
b111 Q
1V
b111 U
b10 G
b10 N
b10 Y
b0 W
0O
b1 8
b1 J
b11100000000 E
b0 S
1!
#277500
0!
#280000
1!
#282500
0!
#285000
19
1B
b101010 G
b101010 N
b101010 Y
b101010 )
b101010 :
15
1(
1!
#287500
0!
#290000
09
0B
05
0(
1R
b1010100 G
b1010100 N
b1010100 Y
b101010 W
b10 8
b10 J
b10000011100000001 E
b1 S
0V
1!
#292500
0!
#295000
b10 H
19
1B
0F
b11 Q
1@
1C
1D
b1010111 G
b1010111 N
b1010111 Y
b101101 )
b101101 :
15
1(
b10 $
b10 7
b100 #
b100 6
1%
1!
#297500
0!
#300000
0@
0C
0D
09
0B
05
0(
0%
b10 Q
0X
b10000100 G
b10000100 N
b10000100 Y
b1010111 W
b11 8
b11 J
b10000011100000010 E
b10 S
1!
#302500
0!
#305000
19
1B
b1110111 G
b1110111 N
b1110111 Y
b100000 )
b100000 :
15
1(
1!
#307500
0!
#310000
b10000011100000011 Q
b10000011100000011 2
b10000011100000011 P
09
0B
b0 #
b0 6
0&
1%
05
0(
b10010111 G
b10010111 N
b10010111 Y
b1110111 W
b100 8
b100 J
b10000011100000011 E
b11 S
1!
#312500
0!
#315000
19
1B
b10010011 G
b10010011 N
b10010011 Y
b11100 )
b11100 :
15
1(
0%
1!
#317500
0!
#320000
09
0B
1%
05
0(
b10000011100000100 2
b10000011100000100 P
b10000011100000100 Q
b10101111 G
b10101111 N
b10101111 Y
b10010011 W
b101 8
b101 J
b10000011100000100 E
b100 S
1!
#322500
0!
#325000
19
1B
b10111101 G
b10111101 N
b10111101 Y
b101010 )
b101010 :
15
1(
0%
1!
#327500
0!
#330000
09
0B
b1000 #
b1000 6
1%
05
0(
b111 2
b111 P
b111 Q
b11100111 G
b11100111 N
b11100111 Y
b10111101 W
b110 8
b110 J
b10000011100000101 E
b101 S
1!
#332500
0!
#335000
19
1B
b11001011 G
b11001011 N
b11001011 Y
b1110 )
b1110 :
15
1(
0%
1!
#337500
0!
#340000
1%
05
0(
1\
0[
0B
09
04
0=
b11011001 G
b11011001 N
b11011001 Y
b11001011 W
1O
b111 8
b111 J
b10000011100000110 E
b110 S
1!
#342500
0!
#345000
0\
1[
1=
b11011110 G
b11011110 N
b11011110 Y
b10011 )
b10011 :
15
1(
0%
1!
#347500
0!
#350000
0=
1<
1*
05
0(
1.
01
1\
0[
0]
10
1L
1a
b11011110 /
b11011110 >
b11011110 M
b11011110 ^
b11011110 _
b11100000110 E
0R
1!
#352500
0!
#355000
00
0L
0a
1!
#357500
0!
0<
0*
#360000
b110 H
1A
13
b110 -
b110 ?
1,
1!
#362500
0!
#365000
b10 H
0A
03
0,
0.
11
b110 2
b110 P
14
b110 Q
1V
b110 U
b10011 G
b10011 N
b10011 Y
b0 W
0O
b1 8
b1 J
b11000000000 E
b0 S
1!
#367500
0!
#370000
1!
#372500
0!
#375000
19
1B
b111 G
b111 N
b111 Y
b111 )
b111 :
15
1(
1!
#377500
0!
#380000
09
0B
05
0(
1R
b1110 G
b1110 N
b1110 Y
b111 W
b10 8
b10 J
b10000011000000001 E
b1 S
0V
1!
#382500
0!
#385000
19
1B
b1001010 G
b1001010 N
b1001010 Y
b1000011 )
b1000011 :
15
1(
1!
#387500
0!
#390000
09
0B
1%
05
0(
b10001101 G
b10001101 N
b10001101 Y
b1001010 W
b11 8
b11 J
b10000011000000010 E
b10 S
1!
#392500
0!
#395000
19
1B
b10000101 G
b10000101 N
b10000101 Y
b111011 )
b111011 :
15
1(
0%
1!
#397500
0!
#400000
09
0B
05
0(
b11000000 G
b11000000 N
b11000000 Y
b10000101 W
b100 8
b100 J
b10000011000000011 E
b11 S
1!
#402500
0!
#405000
19
1B
b10010001 G
b10010001 N
b10010001 Y
b1100 )
b1100 :
15
1(
1!
#407500
0!
#410000
b10 2
b10 P
b10 Q
09
0B
b100 #
b100 6
1%
05
0(
b10011101 G
b10011101 N
b10011101 Y
b10010001 W
b101 8
b101 J
b10000011000000100 E
b100 S
1!
#412500
0!
#415000
19
1B
b10110111 G
b10110111 N
b10110111 Y
b100110 )
b100110 :
15
1(
0%
1!
#417500
0!
#420000
05
0(
1\
0[
0B
09
04
0=
b11011101 G
b11011101 N
b11011101 Y
b10110111 W
1O
b110 8
b110 J
b10000011000000101 E
b101 S
1!
#422500
0!
#425000
0\
1[
1=
b11100101 G
b11100101 N
b11100101 Y
b101110 )
b101110 :
15
1(
1!
#427500
0!
#430000
0=
1<
1*
05
0(
1.
01
1\
0[
0]
10
1L
1a
b11100101 /
b11100101 >
b11100101 M
b11100101 ^
b11100101 _
b11000000101 E
0R
1!
#432500
0!
#435000
00
0L
0a
1!
#437500
0!
0<
0*
#440000
b110 H
1A
13
1,
1!
#442500
0!
#445000
b10 H
0A
03
0,
0.
11
14
1V
b101110 G
b101110 N
b101110 Y
b0 W
0O
b1 8
b1 J
b11000000000 E
b0 S
1!
#447500
0!
#450000
1!
#452500
0!
#455000
19
1B
b0 G
b0 N
b0 Y
b0 )
b0 :
15
1(
1!
#457500
0!
#460000
09
0B
05
0(
1R
b10 8
b10 J
b10000011000000001 E
b1 S
0V
1!
#462500
0!
#465000
19
1B
b101 G
b101 N
b101 Y
b101 )
b101 :
15
1(
1%
1!
#467500
0!
#470000
09
0B
05
0(
0%
b1010 G
b1010 N
b1010 Y
b101 W
b11 8
b11 J
b10000011000000010 E
b10 S
1!
#472500
0!
#475000
b10000011000000010 2
b10000011000000010 P
19
1B
b10000011000000010 Q
b110010 G
b110010 N
b110010 Y
b101101 )
b101101 :
15
1(
b0 #
b0 6
1%
1!
#477500
0!
#480000
09
0B
05
0(
0%
b10000011000000011 2
b10000011000000011 P
b10000011000000011 Q
b1011111 G
b1011111 N
b1011111 Y
b110010 W
b100 8
b100 J
b10000011000000011 E
b11 S
1!
#482500
0!
#485000
b110 2
b110 P
19
1B
b110 Q
b111111 G
b111111 N
b111111 Y
b1101 )
b1101 :
15
1(
b1000 #
b1000 6
1%
1!
#487500
0!
#490000
09
0B
05
0(
0%
b1001100 G
b1001100 N
b1001100 Y
b111111 W
b101 8
b101 J
b10000011000000100 E
b100 S
1!
#492500
0!
#495000
19
1B
b1000000 G
b1000000 N
b1000000 Y
b1 )
b1 :
15
1(
1!
#497500
0!
#500000
1%
05
0(
1\
0[
0B
09
04
0=
b1000001 G
b1000001 N
b1000001 Y
b1000000 W
1O
b110 8
b110 J
b10000011000000101 E
b101 S
1!
#502500
0!
#505000
0\
1[
1=
b1010010 G
b1010010 N
b1010010 Y
b10010 )
b10010 :
15
1(
0%
1!
#507500
0!
#510000
0=
1<
1*
05
0(
1.
01
1\
0[
0]
10
1L
1a
b1010010 /
b1010010 >
b1010010 M
b1010010 ^
b1010010 _
b11000000101 E
0R
1!
#512500
0!
#515000
00
0L
0a
1!
#517500
0!
0<
0*
#520000
b101 H
1A
13
b101 -
b101 ?
1,
1!
#522500
0!
#525000
b10 H
0A
03
0,
0.
11
b101 2
b101 P
14
b101 Q
1V
b101 U
b10010 G
b10010 N
b10010 Y
b0 W
0O
b1 8
b1 J
b10100000000 E
b0 S
1!
#527500
0!
#530000
1!
#532500
0!
#535000
19
1B
b100 G
b100 N
b100 Y
b100 )
b100 :
15
1(
1!
#537500
0!
#540000
09
0B
05
0(
1R
b1000 G
b1000 N
b1000 Y
b100 W
b10 8
b10 J
b10000010100000001 E
b1 S
0V
1!
#542500
0!
#545000
b10 2
b10 P
19
1B
b10 Q
b110 G
b110 N
b110 Y
b10 )
b10 :
15
1(
b100 #
b100 6
1%
1!
#547500
0!
#550000
09
0B
05
0(
0%
b1000 G
b1000 N
b1000 Y
b110 W
b11 8
b11 J
b10000010100000010 E
b10 S
1!
#552500
0!
#555000
b101 2
b101 P
19
1B
b101 Q
b1101 G
b1101 N
b1101 Y
b111 )
b111 :
15
1(
b1000 #
b1000 6
1%
1!
#557500
0!
#560000
09
0B
05
0(
0%
b10100 G
b10100 N
b10100 Y
b1101 W
b100 8
b100 J
b10000010100000011 E
b11 S
1!
#562500
0!
#565000
19
1B
b1101 G
b1101 N
b1101 Y
b0 )
b0 :
15
1(
1!
#567500
0!
#570000
b10000010100000100 2
b10000010100000100 P
b10000010100000100 Q
b0 #
b0 6
1%
05
0(
1\
0[
0B
09
04
0=
1O
b101 8
b101 J
b10000010100000100 E
b100 S
1!
#572500
0!
#575000
0\
1[
1=
b10010 G
b10010 N
b10010 Y
b101 )
b101 :
15
1(
0%
1!
#577500
0!
#580000
0=
1<
1*
05
0(
1.
01
1\
0[
b10100000100 2
b10100000100 P
0]
b10100000100 Q
10
1L
1a
b10010 /
b10010 >
b10010 M
b10010 ^
b10010 _
b10100000100 E
0R
1!
#582500
0!
#585000
00
0L
0a
1!
#587500
0!
0<
0*
#590000
b1 H
1A
13
b1 -
b1 ?
1,
1!
#592500
0!
#595000
b10 H
0A
03
0,
0.
11
b100000000 2
b100000000 P
b100000000 Q
1V
b1 U
b101 G
b101 N
b101 Y
b0 W
1O
b1 8
b1 J
b100000000 E
b0 S
1!
#597500
0!
#600000
1!
#602500
0!
#605000
0\
1[
b11 H
1F
b10 Q
1@
1C
1D
b0 2
b0 P
1=
b11 $
b11 7
b100 #
b100 6
1&
1%
b1101001 G
b1101001 N
b1101001 Y
b1101001 )
b1101001 :
15
1(
1!
#607500
0!
#610000
0@
0C
0D
0=
1<
1*
0%
05
0(
1\
01
0[
0]
b11 Q
10
1L
1a
b1101001 /
b1101001 >
b1101001 M
b1101001 ^
b1101001 _
1X
0V
1!
#612500
0!
#615000
00
0L
0a
1!
#617500
0!
0<
0*
#620000
1A
b110 H
0F
b1 Q
b110 $
b110 7
b1000 #
b1000 6
1%
1!
#622500
0!
#625000
0A
0%
11
14
b110 Q
1V
0O
b11000000000 E
b110 U
1!
#627500
0!
#630000
1!
#632500
0!
#635000
19
1B
b11001 G
b11001 N
b11001 Y
b11001 )
b11001 :
15
1(
1!
#637500
0!
#640000
09
0B
05
0(
1R
b110010 G
b110010 N
b110010 Y
b11001 W
b10 8
b10 J
b10000011000000001 E
b1 S
0V
1!
#642500
0!
#645000
19
1B
b110 2
b110 P
b1101111 G
b1101111 N
b1101111 Y
b1010110 )
b1010110 :
15
1(
0&
1%
1!
#647500
0!
#650000
09
0B
05
0(
0%
b11000101 G
b11000101 N
b11000101 Y
b1101111 W
b11 8
b11 J
b10000011000000010 E
b10 S
1!
#652500
0!
#655000
19
1B
b1110000 G
b1110000 N
b1110000 Y
b1 )
b1 :
15
1(
1!
#657500
0!
#660000
b11 2
b11 P
b11 Q
09
0B
b100 #
b100 6
1%
05
0(
b1110001 G
b1110001 N
b1110001 Y
b1110000 W
b100 8
b100 J
b10000011000000011 E
b11 S
1!
#662500
0!
#665000
19
1B
b1110101 G
b1110101 N
b1110101 Y
b101 )
b101 :
15
1(
0%
1!
#667500
0!
#670000
b10000011000000100 2
b10000011000000100 P
b10000011000000100 Q
09
0B
b0 #
b0 6
1%
05
0(
b1111010 G
b1111010 N
b1111010 Y
b1110101 W
b101 8
b101 J
b10000011000000100 E
b100 S
1!
#672500
0!
#675000
19
1B
b10100100 G
b10100100 N
b10100100 Y
b101111 )
b101111 :
15
1(
0%
1!
#677500
0!
#680000
05
0(
1\
0[
b10000011000000101 2
b10000011000000101 P
0B
09
04
0=
b10000011000000101 Q
b11010011 G
b11010011 N
b11010011 Y
b10100100 W
1O
b110 8
b110 J
b10000011000000101 E
b101 S
1!
#682500
0!
#685000
0\
1[
1=
b11010100 G
b11010100 N
b11010100 Y
b110000 )
b110000 :
15
1(
1!
#687500
0!
#690000
0=
1<
1*
05
0(
01
1\
0[
b11000000101 2
b11000000101 P
0]
b11000000101 Q
10
1L
1a
b11010100 /
b11010100 >
b11010100 M
b11010100 ^
b11010100 _
b11000000101 E
0R
1!
#692500
0!
#695000
00
0L
0a
1!
#697500
0!
0<
0*
#700000
1A
b100 H
0I
b110 Q
b0 2
b0 P
b100 $
b100 7
b1000 #
b1000 6
1&
1%
1!
#702500
0!
#705000
0A
0%
11
14
b100 Q
1V
b100 U
b110000 G
b110000 N
b110000 Y
b0 W
0O
b1 8
b1 J
b10000000000 E
b0 S
1!
#707500
0!
#710000
1!
#712500
0!
#715000
19
1B
b1110100 G
b1110100 N
b1110100 Y
b1110100 )
b1110100 :
15
1(
1!
#717500
0!
#720000
09
0B
05
0(
1R
b11101000 G
b11101000 N
b11101000 Y
b1110100 W
b10 8
b10 J
b10000010000000001 E
b1 S
0V
1!
#722500
0!
#725000
b10 H
19
1B
1I
b11 Q
1@
1C
1D
b10100011 G
b10100011 N
b10100011 Y
b101111 )
b101111 :
15
1(
b10 $
b10 7
b100 #
b100 6
1%
1!
#727500
0!
#730000
0@
0C
0D
09
0B
05
0(
0%
b10 Q
0X
b11010010 G
b11010010 N
b11010010 Y
b10100011 W
b11 8
b11 J
b10000010000000010 E
b10 S
1!
#732500
0!
#735000
19
1B
b10 2
b10 P
b11000111 G
b11000111 N
b11000111 Y
b100100 )
b100100 :
15
1(
0&
1%
1!
#737500
0!
#740000
05
0(
0%
1\
0[
0B
09
04
0=
b11101011 G
b11101011 N
b11101011 Y
b11000111 W
1O
b100 8
b100 J
b10000010000000011 E
b11 S
1!
#742500
0!
#745000
0\
1[
1=
b11101111 G
b11101111 N
b11101111 Y
b101000 )
b101000 :
15
1(
1!
#747500
0!
#750000
0=
1<
1*
05
0(
1.
01
1\
0[
0]
10
1L
1a
b11101111 /
b11101111 >
b11101111 M
b11101111 ^
b11101111 _
b10000000011 E
0R
1!
#752500
0!
#755000
00
0L
0a
1!
#757500
0!
0<
0*
#760000
b1 H
1A
13
1,
1!
#762500
0!
#765000
b10 H
0A
03
0,
0.
11
1V
b1 U
b101000 G
b101000 N
b101000 Y
b0 W
1O
b1 8
b1 J
b100000000 E
b0 S
1!
#767500
0!
#770000
1!
#772500
0!
#775000
0\
1[
b11 H
1@
1C
1D
1F
b0 2
b0 P
1=
b11 $
b11 7
1&
1%
b1111100 G
b1111100 N
b1111100 Y
b1111100 )
b1111100 :
15
1(
1!
#777500
0!
#780000
0@
0C
0D
0=
1<
1*
0%
05
0(
1\
01
0[
0]
b11 Q
10
1L
1a
b1111100 /
b1111100 >
b1111100 M
b1111100 ^
b1111100 _
1X
0V
1!
#782500
0!
#785000
00
0L
0a
1!
#787500
0!
0<
0*
#790000
1A
b101 H
0I
b1 Q
b101 $
b101 7
b1000 #
b1000 6
1%
1!
#792500
0!
#795000
0A
0%
11
14
b101 Q
1V
0O
b10100000000 E
b101 U
1!
#797500
0!
#800000
1!
#802500
0!
#805000
19
1B
b100 G
b100 N
b100 Y
b100 )
b100 :
15
1(
1!
#807500
0!
#810000
09
0B
05
0(
1R
b1000 G
b1000 N
b1000 Y
b100 W
b10 8
b10 J
b10000010100000001 E
b1 S
0V
1!
#812500
0!
#815000
19
1B
b10000010100000001 Q
b10000010100000001 2
b10000010100000001 P
b111 G
b111 N
b111 Y
b11 )
b11 :
15
1(
b0 #
b0 6
0&
1%
1!
#817500
0!
#820000
09
0B
05
0(
0%
b10000010100000010 2
b10000010100000010 P
b10000010100000010 Q
b1010 G
b1010 N
b1010 Y
b111 W
b11 8
b11 J
b10000010100000010 E
b10 S
1!
#822500
0!
#825000
19
1B
15
1(
1!
#827500
0!
#830000
09
0B
05
0(
b10000010100000011 2
b10000010100000011 P
b10000010100000011 Q
b1101 G
b1101 N
b1101 Y
b1010 W
b100 8
b100 J
b10000010100000011 E
b11 S
1!
#832500
0!
#835000
19
1B
b1010 G
b1010 N
b1010 Y
b0 )
b0 :
15
1(
1!
#837500
0!
#840000
b100 #
b100 6
1%
05
0(
1\
0[
b11 2
b11 P
0B
09
04
0=
b11 Q
1O
b101 8
b101 J
b10000010100000100 E
b100 S
1!
#842500
0!
#845000
0\
1[
1=
b1011 G
b1011 N
b1011 Y
b1 )
b1 :
15
1(
0%
1!
#847500
0!
#850000
0=
1<
1*
05
0(
01
1\
0[
0]
10
1L
1a
b1011 /
b1011 >
b1011 M
b1011 ^
b1011 _
b10100000100 E
0R
1!
#852500
0!
#855000
00
0L
0a
1!
#857500
0!
0<
0*
#860000
1A
b0 H
0F
b101 Q
b0 2
b0 P
b0 $
b0 7
b1000 #
b1000 6
1&
1%
1!
#862500
0!
#865000
0A
0%
b0 Q
1V
b0 U
b1 G
b1 N
b1 Y
b0 W
0O
b1 8
b1 J
b0 E
b0 S
1!
#867500
0!
#870000
1!
#872500
0!
#875000
1A
b1000 H
b1000 $
b1000 7
1%
1!
#877500
0!
#880000
0A
0%
11
14
b1000 Q
b100000000000 E
b1000 U
1!
#882500
0!
#885000
1!
#887500
0!
#890000
19
1B
b1110 G
b1110 N
b1110 Y
b1110 )
b1110 :
15
1(
1!
#892500
0!
#895000
09
0B
05
0(
1R
0V
b11100 G
b11100 N
b11100 Y
b1110 W
b10 8
b10 J
b10000100000000001 E
b1 S
1!
#897500
0!
#900000
b10 H
19
1B
1I
b11 Q
1@
1C
1D
b11000 G
b11000 N
b11000 Y
b1010 )
b1010 :
15
1(
b10 $
b10 7
b100 #
b100 6
1%
1!
#902500
0!
#905000
0@
0C
0D
09
0B
05
0(
0%
b10 Q
0X
b100010 G
b100010 N
b100010 Y
b11000 W
b11 8
b11 J
b10000100000000010 E
b10 S
1!
#907500
0!
#910000
19
1B
b1000 Q
b1000 2
b1000 P
b11010 G
b11010 N
b11010 Y
b10 )
b10 :
15
1(
b1000 #
b1000 6
0&
1%
1!
#912500
0!
