tests/waves.vcd
$date
	Wed Mar 22 10:50:53 2023
$end
$version
	Icarus Verilog
$end
$timescale
	1ps
$end
$scope module dut_test $end
$var wire 1 ! CLK $end
$var wire 1 " RST_N $end
$var wire 8 # cfg_address [7:0] $end
$var wire 32 $ cfg_data_in [31:0] $end
$var wire 1 % cfg_en $end
$var wire 1 & cfg_op $end
$var wire 1 ' cfg_rdy $end
$var wire 1 ( din_en $end
$var wire 8 ) din_value [7:0] $end
$var wire 1 * dout_en $end
$var wire 1 + dout_ff_FULL_N $end
$var wire 1 , len_en $end
$var wire 8 - len_value [7:0] $end
$var wire 1 . len_rdy $end
$var wire 8 / dout_value [7:0] $end
$var wire 1 0 dout_rdy $end
$var wire 1 1 din_rdy $end
$var wire 32 2 cfg_data_out [31:0] $end
$scope module dut $end
$var wire 1 ! CLK $end
$var wire 1 3 \MUX_programmed_length$write_1__SEL_1 $end
$var wire 1 " RST_N $end
$var wire 1 4 \busy$D_IN $end
$var wire 1 5 \busy$EN $end
$var wire 8 6 cfg_address [7:0] $end
$var wire 32 7 cfg_data_in [31:0] $end
$var wire 1 % cfg_en $end
$var wire 1 & cfg_op $end
$var wire 1 ' cfg_rdy $end
$var wire 8 8 \current_count$D_IN [7:0] $end
$var wire 1 9 \current_count$EN $end
$var wire 1 ( din_en $end
$var wire 1 1 din_rdy $end
$var wire 8 : din_value [7:0] $end
$var wire 1 * dout_en $end
$var wire 1 ; \dout_ff$CLR $end
$var wire 1 < \dout_ff$DEQ $end
$var wire 1 = \dout_ff$ENQ $end
$var wire 1 0 dout_rdy $end
$var wire 8 > dout_value [7:0] $end
$var wire 1 , len_en $end
$var wire 1 . len_rdy $end
$var wire 8 ? len_value [7:0] $end
$var wire 1 @ \pause$EN $end
$var wire 1 A \programmed_length$EN $end
$var wire 1 B \sum$EN $end
$var wire 1 C \sw_override$EN $end
$var wire 1 D \w_sw_override$whas $end
$var wire 17 E x__h969 [16:0] $end
$var wire 1 F \sw_override$D_IN $end
$var wire 8 G \sum$D_IN [7:0] $end
$var wire 8 H \programmed_length$D_IN [7:0] $end
$var wire 1 I \pause$D_IN $end
$var wire 8 J next_count__h523 [7:0] $end
$var wire 1 K \dout_ff$FULL_N $end
$var wire 1 L \dout_ff$EMPTY_N $end
$var wire 8 M \dout_ff$D_OUT [7:0] $end
$var wire 8 N \dout_ff$D_IN [7:0] $end
$var wire 1 O current_count_PLUS_1_EQ_programmed_length___d8 $end
$var wire 32 P cfg_data_out [31:0] $end
$var reg 32 Q CASE_cfg_address_0_0_CONCAT_x69_4_0_CONCAT_sw__ETC__q1 [31:0] $end
$var reg 1 R busy $end
$var reg 8 S current_count [7:0] $end
$var reg 1 T pause $end
$var reg 8 U programmed_length [7:0] $end
$var reg 1 V start_din $end
$var reg 8 W sum [7:0] $end
$var reg 1 X sw_override $end
$scope module dout_ff $end
$var wire 1 ! CLK $end
$var wire 1 ; CLR $end
$var wire 1 < DEQ $end
$var wire 8 Y D_IN [7:0] $end
$var wire 1 L EMPTY_N $end
$var wire 1 = ENQ $end
$var wire 1 K FULL_N $end
$var wire 1 " RST $end
$var wire 1 Z d0d1 $end
$var wire 1 [ d0di $end
$var wire 1 \ d0h $end
$var wire 1 ] d1di $end
$var wire 8 ^ D_OUT [7:0] $end
$var reg 8 _ data0_reg [7:0] $end
$var reg 8 ` data1_reg [7:0] $end
$var reg 1 a empty_reg $end
$var reg 1 b full_reg $end
$scope begin error_checks $end
$var reg 1 c deqerror $end
$var reg 1 d enqerror $end
$upscope $end
$upscope $end
$upscope $end
$upscope $end
$enddefinitions $end
#0
$dumpvars
0d
0c
1b
0a
b10101010 `
b10101010 _
b10101010 ^
0]
1\
0[
0Z
bx Y
0X
b10101010 W
1V
b10101010 U
0T
b10101010 S
0R
b10101010 Q
b0x0x0x0x0 P
0O
bx N
b10101010 M
0L
1K
b10101011 J
zI
bz H
bx G
zF
b1010101010101010 E
xD
xC
xB
xA
x@
bz ?
b10101010 >
0=
z<
0;
bz :
x9
b10101011 8
bz 7
bz 6
z5
14
x3
b0x0x0x0x0 2
11
00
b10101010 /
0.
bz -
z,
1+
z*
bz )
z(
1'
z&
z%
bz $
bz #
1"
1!
$end
#1000
b0 2
b0 P
01
04
b0 Q
b0 W
b0 U
b1 8
b1 J
b0 E
b0 S
0V
0"
#2500
0!
#5000
0A
0@
0C
0D
03
09
0B
0%
0<
0*
0,
05
0(
1"
1!
#7500
0!
#10000
b10 H
1I
0F
1@
1C
1D
b10 $
b10 7
b100 #
b100 6
1&
1%
1V
1!
#12500
0!
#15000
b101 H
1A
13
0@
0C
0D
b101 -
b101 ?
1,
0%
b10 Q
1.
1T
1!
#17500
0!
#20000
b10 H
0A
03
0,
0.
11
14
b10100000000 E
b101 U
1!
#22500
0!
#25000
1!
#27500
0!
#30000
b11 H
1@
1C
1D
1F
19
1B
b11 $
b11 7
1%
b101010 G
b101010 N
b101010 Y
b101010 )
b101010 :
15
1(
1!
#32500
0!
#35000
0@
0C
0D
09
0B
0%
05
0(
b11 Q
1X
1R
0V
b1010100 G
b1010100 N
b1010100 Y
b101010 W
b10 8
b10 J
b10000010100000001 E
b1 S
1!
#37500
0!
#40000
19
1B
b111011 G
b111011 N
b111011 Y
b10001 )
b10001 :
15
1(
1!
#42500
0!
#45000
09
0B
05
0(
b1001100 G
b1001100 N
b1001100 Y
b111011 W
b11 8
b11 J
b10000010100000010 E
b10 S
1!
#47500
0!
#50000
19
1B
b111011 G
b111011 N
b111011 Y
b0 )
b0 :
15
1(
1!
#52500
0!
#55000
09
0B
05
0(
b100 8
b100 J
b10000010100000011 E
b11 S
1!
#57500
0!
#60000
19
1B
b1111100 G
b1111100 N
b1111100 Y
b1000001 )
b1000001 :
15
1(
1!
#62500
0!
#65000
05
0(
1\
0[
0B
09
04
0=
b10111101 G
b10111101 N
b10111101 Y
b1111100 W
1O
b101 8
b101 J
b10000010100000100 E
b100 S
1!
#67500
0!
#70000
0\
1[
1=
b10011000 G
b10011000 N
b10011000 Y
b11100 )
b11100 :
15
1(
1!
#72500
0!
#75000
0=
05
0(
01
1\
0[
0]
b10011000 /
b10011000 >
b10011000 M
b10011000 ^
b10011000 _
10
1L
1a
b10100000100 E
0R
1!
#77500
0!
#80000
1!
#82500
0!
#85000
1A
b1000 H
0I
0F
b101 Q
b1000 $
b1000 7
b1000 #
b1000 6
1%
1!
#87500
0!
#90000
0A
0%
11
14
b1000 Q
b1000 U
b11100 G
b11100 N
b11100 Y
b0 W
0O
b1 8
b1 J
b100000000000 E
b0 S
1V
1!
#92500
0!
#95000
1!
#97500
0!
#100000
b10 H
1I
b11 Q
1@
1C
1D
19
1B
b10 $
b10 7
b100 #
b100 6
1%
b10 G
b10 N
b10 Y
b10 )
b10 :
15
1(
1!
#102500
0!
#105000
0@
0C
0D
09
0B
0%
05
0(
b10 Q
0X
1R
0V
b100 G
b100 N
b100 Y
b10 W
b10 8
b10 J
b10000100000000001 E
b1 S
1!
#107500
0!
#110000
19
1B
b1001 G
b1001 N
b1001 Y
b111 )
b111 :
15
1(
1!
#112500
0!
#115000
09
0B
05
0(
b10000 G
b10000 N
b10000 Y
b1001 W
b11 8
b11 J
b10000100000000010 E
b10 S
1!
#117500
0!
#120000
19
1B
b1100 G
b1100 N
b1100 Y
b11 )
b11 :
15
1(
1!
#122500
0!
#125000
09
0B
05
0(
b1111 G
b1111 N
b1111 Y
b1100 W
b100 8
b100 J
b10000100000000011 E
b11 S
1!
#127500
0!
#130000
19
1B
b1101 G
b1101 N
b1101 Y
b1 )
b1 :
15
1(
1!
#132500
0!
#135000
09
0B
05
0(
b1110 G
b1110 N
b1110 Y
b1101 W
b101 8
b101 J
b10000100000000100 E
b100 S
1!
#137500
0!
#140000
19
1B
b10011 G
b10011 N
b10011 Y
b110 )
b110 :
15
1(
1!
#142500
0!
#145000
09
0B
05
0(
b11001 G
b11001 N
b11001 Y
b10011 W
b110 8
b110 J
b10000100000000101 E
b101 S
1!
#147500
0!
#150000
19
1B
b11110 G
b11110 N
b11110 Y
b1011 )
b1011 :
15
1(
1!
#152500
0!
#155000
09
0B
05
0(
b101001 G
b101001 N
b101001 Y
b11110 W
b111 8
b111 J
b10000100000000110 E
b110 S
1!
#157500
0!
#160000
19
1B
b11111 G
b11111 N
b11111 Y
b1 )
b1 :
15
1(
1!
#162500
0!
#165000
05
0(
0]
0B
09
04
0=
b100000 G
b100000 N
b100000 Y
b11111 W
1O
b1000 8
b1000 J
b10000100000000111 E
b111 S
1!
#167500
0!
#170000
1]
1=
b100010 G
b100010 N
b100010 Y
b11 )
b11 :
15
1(
1!
#172500
0!
#175000
0]
0=
05
0(
1.
01
b100010 `
0+
0K
0b
b100000000111 E
0R
1!
#177500
0!
#180000
1!
#182500
0!
#185000
0\
1Z
1<
1*
1!
#187500
0!
#190000
1\
0Z
1+
1K
1b
b100010 /
b100010 >
b100010 M
b100010 ^
b100010 _
1!
#192500
0!
0<
0*
#195000
1<
1*
1!
#197500
0!
#200000
00
0L
0a
1!
#202500
0!
0<
0*
#205000
b101 H
1A
13
1,
1!
#207500
0!
#210000
b10 H
0A
03
0,
0.
11
14
b101 U
b11 G
b11 N
b11 Y
b0 W
0O
b1 8
b1 J
b10100000000 E
b0 S
1V
1!
#212500
0!
#215000
1!
#217500
0!
#220000
b11 H
1@
1C
1D
1F
19
1B
b11 $
b11 7
1%
b100010 G
b100010 N
b100010 Y
b100010 )
b100010 :
15
1(
1!
#222500
0!
#225000
0@
0C
0D
09
0B
0%
05
0(
b11 Q
1X
1R
0V
b1000100 G
b1000100 N
b1000100 Y
b100010 W
b10 8
b10 J
b10000010100000001 E
b1 S
1!
#227500
0!
#230000
19
1B
b110010 G
b110010 N
b110010 Y
b10000 )
b10000 :
15
1(
1!
#232500
0!
#235000
09
0B
05
0(
b1000010 G
b1000010 N
b1000010 Y
b110010 W
b11 8
b11 J
b10000010100000010 E
b10 S
1!
#237500
0!
#240000
19
1B
b110100 G
b110100 N
b110100 Y
b10 )
b10 :
15
1(
1!
#242500
0!
#245000
09
0B
05
0(
b110110 G
b110110 N
b110110 Y
b110100 W
b100 8
b100 J
b10000010100000011 E
b11 S
1!
#247500
0!
#250000
19
1B
b1101010 G
b1101010 N
b1101010 Y
b110110 )
b110110 :
15
1(
1!
#252500
0!
#255000
05
0(
1\
0[
0B
09
04
0=
b10100000 G
b10100000 N
b10100000 Y
b1101010 W
1O
b101 8
b101 J
b10000010100000100 E
b100 S
1!
#257500
0!
#260000
0\
1[
1=
b10001100 G
b10001100 N
b10001100 Y
b100010 )
b100010 :
15
1(
1!
#262500
0!
#265000
0=
05
0(
01
1\
0[
0]
b10001100 /
b10001100 >
b10001100 M
b10001100 ^
b10001100 _
10
1L
1a
b10100000100 E
0R
1!
#267500
0!
#270000
1!
#272500
0!
#275000
1A
b110 H
0F
b101 Q
b110 $
b110 7
b1000 #
b1000 6
1%
1!
#277500
0!
#280000
0A
0%
11
14
b110 Q
b110 U
b100010 G
b100010 N
b100010 Y
b0 W
0O
b1 8
b1 J
b11000000000 E
b0 S
1V
1!
#282500
0!
#285000
1!
#287500
0!
#290000
b10 H
b11 Q
1@
1C
1D
19
1B
b10 $
b10 7
b100 #
b100 6
1%
b0 G
b0 N
b0 Y
b0 )
b0 :
15
1(
1!
#292500
0!
#295000
0@
0C
0D
09
0B
0%
05
0(
b10 Q
0X
1R
0V
b10 8
b10 J
b10000011000000001 E
b1 S
1!
#297500
0!
#300000
19
1B
b1011 G
b1011 N
b1011 Y
b1011 )
b1011 :
15
1(
1!
#302500
0!
#305000
09
0B
05
0(
b10110 G
b10110 N
b10110 Y
b1011 W
b11 8
b11 J
b10000011000000010 E
b10 S
1!
#307500
0!
#310000
19
1B
b1101 G
b1101 N
b1101 Y
b10 )
b10 :
15
1(
1!
#312500
0!
#315000
09
0B
05
0(
b1111 G
b1111 N
b1111 Y
b1101 W
b100 8
b100 J
b10000011000000011 E
b11 S
1!
#317500
0!
#320000
19
1B
b10011 G
b10011 N
b10011 Y
b110 )
b110 :
15
1(
1!
#322500
0!
#325000
09
0B
05
0(
b11001 G
b11001 N
b11001 Y
b10011 W
b101 8
b101 J
b10000011000000100 E
b100 S
1!
#327500
0!
#330000
19
1B
b10111 G
b10111 N
b10111 Y
b100 )
b100 :
15
1(
1!
#332500
0!
#335000
05
0(
0]
0B
09
04
0=
b11011 G
b11011 N
b11011 Y
b10111 W
1O
b110 8
b110 J
b10000011000000101 E
b101 S
1!
#337500
0!
#340000
1]
1=
b100001 G
b100001 N
b100001 Y
b1010 )
b1010 :
15
1(
1!
#342500
0!
#345000
0]
0=
05
0(
1.
01
b100001 `
0+
0K
0b
b11000000101 E
0R
1!
#347500
0!
#350000
1!
#352500
0!
#355000
0\
1Z
1<
1*
1!
#357500
0!
#360000
1\
0Z
1+
1K
1b
b100001 /
b100001 >
b100001 M
b100001 ^
b100001 _
1!
#362500
0!
0<
0*
#365000
1<
1*
1!
#367500
0!
#370000
00
0L
0a
1!
#372500
0!
0<
0*
#375000
b100 H
1A
13
b100 -
b100 ?
1,
1!
#377500
0!
#380000
b10 H
0A
03
0,
0.
11
14
b100 U
b1010 G
b1010 N
b1010 Y
b0 W
0O
b1 8
b1 J
b10000000000 E
b0 S
1V
1!
#382500
0!
#385000
1!
#387500
0!
#390000
19
1B
b100110 G
b100110 N
b100110 Y
b100110 )
b100110 :
15
1(
1!
#392500
0!
#395000
09
0B
05
0(
1R
0V
b1001100 G
b1001100 N
b1001100 Y
b100110 W
b10 8
b10 J
b10000010000000001 E
b1 S
1!
#397500
0!
#400000
19
1B
b101111 G
b101111 N
b101111 Y
b1001 )
b1001 :
15
1(
1!
#402500
0!
#405000
09
0B
05
0(
b111000 G
b111000 N
b111000 Y
b101111 W
b11 8
b11 J
b10000010000000010 E
b10 S
1!
#407500
0!
#410000
19
1B
b1000110 G
b1000110 N
b1000110 Y
b10111 )
b10111 :
15
1(
1!
#412500
0!
#415000
05
0(
1\
0[
0B
09
04
0=
b1011101 G
b1011101 N
b1011101 Y
b1000110 W
1O
b100 8
b100 J
b10000010000000011 E
b11 S
1!
#417500
0!
#420000
0\
1[
1=
b1000110 G
b1000110 N
b1000110 Y
b0 )
b0 :
15
1(
1!
#422500
0!
#425000
0=
05
0(
1.
01
1\
0[
0]
b1000110 /
b1000110 >
b1000110 M
b1000110 ^
b1000110 _
10
1L
1a
b10000000011 E
0R
1!
#427500
0!
#430000
1!
#432500
0!
#435000
b101 H
1A
13
b101 -
b101 ?
1,
1!
#437500
0!
#440000
b10 H
0A
03
0,
0.
11
14
b101 U
b0 G
b0 N
b0 Y
b0 W
0O
b1 8
b1 J
b10100000000 E
b0 S
1V
1!
#442500
0!
#445000
1!
#447500
0!
#450000
19
1B
b1 G
b1 N
b1 Y
b1 )
b1 :
15
1(
1!
#452500
0!
#455000
09
0B
05
0(
1R
0V
b10 G
b10 N
b10 Y
b1 W
b10 8
b10 J
b10000010100000001 E
b1 S
1!
#457500
0!
#460000
19
1B
b1100 G
b1100 N
b1100 Y
b1011 )
b1011 :
15
1(
1!
#462500
0!
#465000
09
0B
05
0(
b10111 G
b10111 N
b10111 Y
b1100 W
b11 8
b11 J
b10000010100000010 E
b10 S
1!
#467500
0!
#470000
19
1B
b1001101 G
b1001101 N
b1001101 Y
b1000001 )
b1000001 :
15
1(
1!
#472500
0!
#475000
09
0B
05
0(
b10001110 G
b10001110 N
b10001110 Y
b1001101 W
b100 8
b100 J
b10000010100000011 E
b11 S
1!
#477500
0!
#480000
19
1B
b1110010 G
b1110010 N
b1110010 Y
b100101 )
b100101 :
15
1(
1!
#482500
0!
#485000
05
0(
0]
0B
09
04
0=
b10010111 G
b10010111 N
b10010111 Y
b1110010 W
1O
b101 8
b101 J
b10000010100000100 E
b100 S
1!
#487500
0!
#490000
1]
1=
b10000101 G
b10000101 N
b10000101 Y
b10011 )
b10011 :
15
1(
1!
#492500
0!
#495000
0]
0=
05
0(
1.
01
b10000101 `
0+
0K
0b
b10100000100 E
0R
1!
#497500
0!
#500000
1!
#502500
0!
#505000
0\
1Z
1<
1*
1!
#507500
0!
#510000
1\
0Z
1+
1K
1b
b10000101 /
b10000101 >
b10000101 M
b10000101 ^
b10000101 _
1!
#512500
0!
0<
0*
#515000
1<
1*
1!
#517500
0!
#520000
00
0L
0a
1!
#522500
0!
0<
0*
#525000
b1001 H
1A
13
b1001 -
b1001 ?
1,
1!
#527500
0!
#530000
b10 H
0A
03
0,
0.
11
14
b1001 U
b10011 G
b10011 N
b10011 Y
b0 W
0O
b1 8
b1 J
b100100000000 E
b0 S
1V
1!
#532500
0!
#535000
1!
#537500
0!
#540000
b11 H
1@
1C
1D
1F
19
1B
b11 $
b11 7
1%
b100 G
b100 N
b100 Y
b100 )
b100 :
15
1(
1!
#542500
0!
#545000
0@
0C
0D
09
0B
0%
05
0(
b11 Q
1X
1R
0V
b1000 G
b1000 N
b1000 Y
b100 W
b10 8
b10 J
b10000100100000001 E
b1 S
1!
#547500
0!
#550000
19
1B
b11010 G
b11010 N
b11010 Y
b10110 )
b10110 :
15
1(
1!
#552500
0!
#555000
09
0B
05
0(
b110000 G
b110000 N
b110000 Y
b11010 W
b11 8
b11 J
b10000100100000010 E
b10 S
1!
#557500
0!
#560000
19
1B
b100110 G
b100110 N
b100110 Y
b1100 )
b1100 :
15
1(
1!
#562500
0!
#565000
09
0B
05
0(
b110010 G
b110010 N
b110010 Y
b100110 W
b100 8
b100 J
b10000100100000011 E
b11 S
1!
#567500
0!
#570000
19
1B
b1010111 G
b1010111 N
b1010111 Y
b110001 )
b110001 :
15
1(
1!
#572500
0!
#575000
09
0B
05
0(
b10001000 G
b10001000 N
b10001000 Y
b1010111 W
b101 8
b101 J
b10000100100000100 E
b100 S
1!
#577500
0!
#580000
19
1B
b1011110 G
b1011110 N
b1011110 Y
b111 )
b111 :
15
1(
1!
#582500
0!
#585000
09
0B
05
0(
b1100101 G
b1100101 N
b1100101 Y
b1011110 W
b110 8
b110 J
b10000100100000101 E
b101 S
1!
#587500
0!
#590000
19
1B
b10001000 G
b10001000 N
b10001000 Y
b101010 )
b101010 :
15
1(
1!
#592500
0!
#595000
09
0B
05
0(
b10110010 G
b10110010 N
b10110010 Y
b10001000 W
b111 8
b111 J
b10000100100000110 E
b110 S
1!
#597500
0!
#600000
19
1B
b10101101 G
b10101101 N
b10101101 Y
b100101 )
b100101 :
15
1(
1!
#602500
0!
#605000
09
0B
05
0(
b11010010 G
b11010010 N
b11010010 Y
b10101101 W
b1000 8
b1000 J
b10000100100000111 E
b111 S
1!
#607500
0!
#610000
19
1B
b10111101 G
b10111101 N
b10111101 Y
b10000 )
b10000 :
15
1(
1!
#612500
0!
#615000
05
0(
1\
0[
0B
09
04
0=
b11001101 G
b11001101 N
b11001101 Y
b10111101 W
1O
b1001 8
b1001 J
b10000100100001000 E
b1000 S
1!
#617500
0!
#620000
0\
1[
1=
b11011101 G
b11011101 N
b11011101 Y
b100000 )
b100000 :
15
1(
1!
#622500
0!
#625000
0=
05
0(
01
1\
0[
0]
b11011101 /
b11011101 >
b11011101 M
b11011101 ^
b11011101 _
10
1L
1a
b100100001000 E
0R
1!
#627500
0!
#630000
1!
#632500
0!
#635000
1A
b1000 H
0I
0F
b1001 Q
b1000 $
b1000 7
b1000 #
b1000 6
1%
1!
#637500
0!
#640000
0A
0%
11
14
b1000 Q
b1000 U
b100000 G
b100000 N
b100000 Y
b0 W
0O
b1 8
b1 J
b100000000000 E
b0 S
1V
1!
#642500
0!
#645000
1!
#647500
0!
#650000
b10 H
1I
b11 Q
1@
1C
1D
19
1B
b10 $
b10 7
b100 #
b100 6
1%
b0 G
b0 N
b0 Y
b0 )
b0 :
15
1(
1!
#652500
0!
#655000
0@
0C
0D
09
0B
0%
05
0(
b10 Q
0X
1R
0V
b10 8
b10 J
b10000100000000001 E
b1 S
1!
#657500
0!
#660000
19
1B
b1 G
b1 N
b1 Y
b1 )
b1 :
15
1(
1!
#662500
0!
#665000
09
0B
05
0(
b10 G
b10 N
b10 Y
b1 W
b11 8
b11 J
b10000100000000010 E
b10 S
1!
#667500
0!
#670000
19
1B
b1 G
b1 N
b1 Y
b0 )
b0 :
15
1(
1!
#672500
0!
#675000
09
0B
05
0(
b100 8
b100 J
b10000100000000011 E
b11 S
1!
#677500
0!
#680000
19
1B
b10 G
b10 N
b10 Y
b1 )
b1 :
15
1(
1!
#682500
0!
#685000
09
0B
05
0(
b11 G
b11 N
b11 Y
b10 W
b101 8
b101 J
b10000100000000100 E
b100 S
1!
#687500
0!
#690000
19
1B
b10 G
b10 N
b10 Y
b0 )
b0 :
15
1(
1!
#692500
0!
#695000
09
0B
05
0(
b110 8
b110 J
b10000100000000101 E
b101 S
1!
#697500
0!
#700000
19
1B
15
1(
1!
#702500
0!
#705000
09
0B
05
0(
b111 8
b111 J
b10000100000000110 E
b110 S
1!
#707500
0!
#710000
19
1B
15
1(
1!
#712500
0!
#715000
05
0(
0]
0B
09
04
0=
1O
b1000 8
b1000 J
b10000100000000111 E
b111 S
1!
#717500
0!
#720000
1]
1=
15
1(
1!
#722500
0!
#725000
0]
0=
05
0(
1.
01
b10 `
0+
0K
0b
b100000000111 E
0R
1!
#727500
0!
#730000
1!
#732500
0!
#735000
0\
1Z
1<
1*
1!
#737500
0!
#740000
1\
0Z
1+
1K
1b
b10 /
b10 >
b10 M
b10 ^
b10 _
1!
#742500
0!
0<
0*
#745000
1<
1*
1!
#747500
0!
#750000
00
0L
0a
1!
#752500
0!
0<
0*
#755000
1A
13
b10 -
b10 ?
1,
1!
#757500
0!
#760000
0A
03
0,
0.
11
14
b10 U
b0 G
b0 N
b0 Y
b0 W
0O
b1 8
b1 J
b1000000000 E
b0 S
1V
1!
#762500
0!
#765000
1!
#767500
0!
#770000
b1 H
1@
1C
1D
0I
1F
19
1B
b1 $
b1 7
1%
b1011 G
b1011 N
b1011 Y
b1011 )
b1011 :
15
1(
1!
#772500
0!
#775000
0@
0C
0D
0%
05
0(
1\
0[
0B
09
04
0=
b1 Q
1X
0T
1R
0V
b10110 G
b10110 N
b10110 Y
b1011 W
1O
b10 8
b10 J
b10000001000000001 E
b1 S
1!
#777500
0!
#780000
0\
1[
1=
b111001 G
b111001 N
b111001 Y
b101110 )
b101110 :
15
1(
1!
#782500
0!
#785000
05
0(
1\
0[
0B
09
14
0=
b111001 /
b111001 >
b111001 M
b111001 ^
b111001 _
10
1L
1a
0R
b101110 G
b101110 N
b101110 Y
b0 W
0O
b1 8
b1 J
b1000000000 E
b0 S
1!
#787500
0!
#790000
1V
1!
#792500
0!
#795000
b11 H
1@
1C
1D
1I
19
1B
b11 $
b11 7
1%
b111 G
b111 N
b111 Y
b111 )
b111 :
15
1(
1!
#797500
0!
#800000
0@
0C
0D
0%
05
0(
0]
0B
09
04
0=
b11 Q
1T
1R
b1110 G
b1110 N
b1110 Y
b111 W
1O
b10 8
b10 J
b10000001000000001 E
b1 S
0V
1!
#802500
0!
#805000
1]
1=
b1000 G
b1000 N
b1000 Y
b1 )
b1 :
15
1(
1!
#807500
0!
#810000
0]
0=
05
0(
01
0+
0K
0b
b1000 `
b1000000001 E
0R
1!
#812500
0!
#815000
1!
#817500
0!
#820000
0\
1Z
1<
1*
1!
#822500
0!
#825000
1\
0Z
b1000 /
b1000 >
b1000 M
b1000 ^
b1000 _
1+
1K
1b
1!
#827500
0!
0<
0*
#830000
1<
1*
1!
#832500
0!
#835000
00
0L
0a
1!
#837500
0!
0<
0*
#840000
1A
b0 H
0I
0F
b10 Q
b0 $
b0 7
b1000 #
b1000 6
1%
1!
#842500
0!
#845000
0A
0%
b0 Q
1V
b0 U
b1 G
b1 N
b1 Y
b0 W
0O
b1 8
b1 J
b0 E
b0 S
1!
#847500
0!
#850000
1!
#852500
0!
#855000
b10 H
1I
b11 Q
1@
1C
1D
b10 $
b10 7
b100 #
b100 6
1%
1!
#857500
0!
#860000
0@
0C
0D
0%
1.
b10 Q
0X
1!
#862500
0!
#865000
1!
#867500
0!
#870000
b111 H
1A
13
b111 -
b111 ?
1,
1!
#872500
0!
#875000
b10 H
0A
03
0,
0.
11
14
b11100000000 E
b111 U
1!
#877500
0!
#880000
1!
#882500
0!
#885000
b1 H
1@
1C
1D
0I
1F
19
1B
b1 $
b1 7
1%
b11011 G
b11011 N
b11011 Y
b11011 )
b11011 :
15
1(
1!
#887500
0!
#890000
0@
0C
0D
09
0B
0%
05
0(
b1 Q
1X
0T
1R
b110110 G
b110110 N
b110110 Y
b11011 W
b10 8
b10 J
b10000011100000001 E
b1 S
0V
1!
#892500
0!
#895000
19
1B
b101111 G
b101111 N
b101111 Y
b10100 )
b10100 :
15
1(
1!
#897500
0!
#900000
09
0B
05
0(
b1000011 G
b1000011 N
b1000011 Y
b101111 W
b11 8
b11 J
b10000011100000010 E
b10 S
1!
#902500
0!
#905000
19
1B
b110110 G
b110110 N
b110110 Y
b111 )
b111 :
15
1(
1!
#907500
0!
#910000
09
0B
05
0(
b111101 G
b111101 N
b111101 Y
b110110 W
b100 8
b100 J
b10000011100000011 E
b11 S
1!
#912500
0!
#915000
19
1B
b10100111 G
b10100111 N
b10100111 Y
b1110001 )
b1110001 :
15
1(
1!
#917500
0!
#920000
09
0B
05
0(
b11000 G
b11000 N
b11000 Y
b10100111 W
b101 8
b101 J
b10000011100000100 E
b100 S
1!
#922500
0!
#925000
19
1B
b10101011 G
b10101011 N
b10101011 Y
b100 )
b100 :
15
1(
1!
#927500
0!
#930000
09
0B
05
0(
b10101111 G
b10101111 N
b10101111 Y
b10101011 W
b110 8
b110 J
b10000011100000101 E
b101 S
1!
#932500
0!
#935000
19
1B
b11000110 G
b11000110 N
b11000110 Y
b11011 )
b11011 :
15
1(
1!
#937500
0!
#940000
05
0(
1\
0[
0B
09
04
0=
b11100001 G
b11100001 N
b11100001 Y
b11000110 W
1O
b111 8
b111 J
b10000011100000110 E
b110 S
1!
#942500
0!
#945000
0\
1[
1=
b11011011 G
b11011011 N
b11011011 Y
b10101 )
b10101 :
15
1(
1!
#947500
0!
#950000
05
0(
1\
0[
0B
09
14
0=
10
1L
1a
b11011011 /
b11011011 >
b11011011 M
b11011011 ^
b11011011 _
0R
b10101 G
b10101 N
b10101 Y
b0 W
0O
b1 8
b1 J
b11100000000 E
b0 S
1!
#952500
0!
#955000
1V
1!
#957500
0!
#960000
b11 H
1@
1C
1D
1I
19
1B
b11 $
b11 7
1%
b100 G
b100 N
b100 Y
b100 )
b100 :
15
1(
1!
#962500
0!
#965000
0@
0C
0D
09
0B
0%
05
0(
b11 Q
1T
1R
0V
b1000 G
b1000 N
b1000 Y
b100 W
b10 8
b10 J
b10000011100000001 E
b1 S
1!
#967500
0!
#970000
19
1B
b100 G
b100 N
b100 Y
b0 )
b0 :
15
1(
1!
#972500
0!
#975000
09
0B
05
0(
b11 8
b11 J
b10000011100000010 E
b10 S
1!
#977500
0!
#980000
19
1B
b111 G
b111 N
b111 Y
b11 )
b11 :
15
1(
1!
#982500
0!
#985000
09
0B
05
0(
b1010 G
b1010 N
b1010 Y
b111 W
b100 8
b100 J
b10000011100000011 E
b11 S
1!
#987500
0!
#990000
19
1B
b1001 G
b1001 N
b1001 Y
b10 )
b10 :
15
1(
1!
#992500
0!
#995000
09
0B
05
0(
b1011 G
b1011 N
b1011 Y
b1001 W
b101 8
b101 J
b10000011100000100 E
b100 S
1!
#997500
0!
#1000000
19
1B
b1100 G
b1100 N
b1100 Y
b11 )
b11 :
15
1(
1!
#1002500
0!
#1005000
09
0B
05
0(
b1111 G
b1111 N
b1111 Y
b1100 W
b110 8
b110 J
b10000011100000101 E
b101 S
1!
#1007500
0!
#1010000
19
1B
15
1(
1!
#1012500
0!
#1015000
05
0(
0]
0B
09
04
0=
b10010 G
b10010 N
b10010 Y
b1111 W
1O
b111 8
b111 J
b10000011100000110 E
b110 S
1!
#1017500
0!
#1020000
1]
1=
b10000 G
b10000 N
b10000 Y
b1 )
b1 :
15
1(
1!
#1022500
0!
#1025000
0]
0=
05
0(
01
b10000 `
0+
0K
0b
b11100000110 E
0R
1!
#1027500
0!
#1030000
1!
#1032500
0!
#1035000
0\
1Z
1<
1*
1!
#1037500
0!
#1040000
1\
0Z
1+
1K
1b
b10000 /
b10000 >
b10000 M
b10000 ^
b10000 _
1!
#1042500
0!
0<
0*
#1045000
1<
1*
1!
#1047500
0!
#1050000
00
0L
0a
1!
#1052500
0!
0<
0*
#1055000
1A
b111 Q
b1000 #
b1000 6
1%
1!
#1057500
0!
#1060000
0A
0%
11
14
b11 Q
b11 U
b1 G
b1 N
b1 Y
b0 W
0O
b1 8
b1 J
b1100000000 E
b0 S
1V
1!
#1062500
0!
#1065000
1!
#1067500
0!
#1070000
b10 H
0F
1@
1C
1D
19
1B
b10 $
b10 7
b100 #
b100 6
1%
b10101011 G
b10101011 N
b10101011 Y
b10101011 )
b10101011 :
15
1(
1!
#1072500
0!
#1075000
0@
0C
0D
09
0B
0%
05
0(
b10 Q
0X
1R
0V
b1010110 G
b1010110 N
b1010110 Y
b10101011 W
b10 8
b10 J
b10000001100000001 E
b1 S
1!
#1077500
0!
#1080000
19
1B
b10110000 G
b10110000 N
b10110000 Y
b101 )
b101 :
15
1(
1!
#1082500
0!
#1085000
05
0(
1\
0[
0B
09
04
0=
b10110101 G
b10110101 N
b10110101 Y
b10110000 W
1O
b11 8
b11 J
b10000001100000010 E
b10 S
1!
#1087500
0!
#1090000
0\
1[
1=
b11100101 G
b11100101 N
b11100101 Y
b110101 )
b110101 :
15
1(
1!
#1092500
0!
