tests/waves.vcd
$date
	Sun Mar 26 22:15:05 2023
$end
$version
	Icarus Verilog
$end
$timescale
	1ps
$end
$scope module dut_test $end
$var wire 1 ! CLK $end
$var wire 1 " RST_N $end
$var wire 8 # cfg_address [7:0] $end
$var wire 32 $ cfg_data_in [31:0] $end
$var wire 1 % cfg_en $end
$var wire 1 & cfg_op $end
$var wire 1 ' cfg_rdy $end
$var wire 1 ( din_en $end
$var wire 8 ) din_value [7:0] $end
$var wire 1 * dout_en $end
$var wire 1 + dout_ff_FULL_N $end
$var wire 1 , len_en $end
$var wire 8 - len_value [7:0] $end
$var wire 1 . len_rdy $end
$var wire 8 / dout_value [7:0] $end
$var wire 1 0 dout_rdy $end
$var wire 1 1 din_rdy $end
$var wire 32 2 cfg_data_out [31:0] $end
$scope module dut $end
$var wire 1 ! CLK $end
$var wire 1 3 \MUX_programmed_length$write_1__SEL_1 $end
$var wire 1 " RST_N $end
$var wire 1 4 \busy$D_IN $end
$var wire 1 5 \busy$EN $end
$var wire 8 6 cfg_address [7:0] $end
$var wire 32 7 cfg_data_in [31:0] $end
$var wire 1 % cfg_en $end
$var wire 1 & cfg_op $end
$var wire 1 ' cfg_rdy $end
$var wire 8 8 \current_count$D_IN [7:0] $end
$var wire 1 9 \current_count$EN $end
$var wire 1 ( din_en $end
$var wire 1 1 din_rdy $end
$var wire 8 : din_value [7:0] $end
$var wire 1 * dout_en $end
$var wire 1 ; \dout_ff$CLR $end
$var wire 1 < \dout_ff$DEQ $end
$var wire 1 = \dout_ff$ENQ $end
$var wire 1 0 dout_rdy $end
$var wire 8 > dout_value [7:0] $end
$var wire 1 , len_en $end
$var wire 1 . len_rdy $end
$var wire 8 ? len_value [7:0] $end
$var wire 1 @ \pause$EN $end
$var wire 1 A \programmed_length$EN $end
$var wire 1 B \sum$EN $end
$var wire 1 C \sw_override$EN $end
$var wire 1 D \w_sw_override$whas $end
$var wire 17 E x__h969 [16:0] $end
$var wire 1 F \sw_override$D_IN $end
$var wire 8 G \sum$D_IN [7:0] $end
$var wire 8 H \programmed_length$D_IN [7:0] $end
$var wire 1 I \pause$D_IN $end
$var wire 8 J next_count__h523 [7:0] $end
$var wire 1 K \dout_ff$FULL_N $end
$var wire 1 L \dout_ff$EMPTY_N $end
$var wire 8 M \dout_ff$D_OUT [7:0] $end
$var wire 8 N \dout_ff$D_IN [7:0] $end
$var wire 1 O current_count_PLUS_1_EQ_programmed_length___d8 $end
$var wire 32 P cfg_data_out [31:0] $end
$var reg 32 Q CASE_cfg_address_0_0_CONCAT_x69_4_0_CONCAT_sw__ETC__q1 [31:0] $end
$var reg 1 R busy $end
$var reg 8 S current_count [7:0] $end
$var reg 1 T pause $end
$var reg 8 U programmed_length [7:0] $end
$var reg 1 V start_din $end
$var reg 8 W sum [7:0] $end
$var reg 1 X sw_override $end
$scope module dout_ff $end
$var wire 1 ! CLK $end
$var wire 1 ; CLR $end
$var wire 1 < DEQ $end
$var wire 8 Y D_IN [7:0] $end
$var wire 1 L EMPTY_N $end
$var wire 1 = ENQ $end
$var wire 1 K FULL_N $end
$var wire 1 " RST $end
$var wire 1 Z d0d1 $end
$var wire 1 [ d0di $end
$var wire 1 \ d0h $end
$var wire 1 ] d1di $end
$var wire 8 ^ D_OUT [7:0] $end
$var reg 8 _ data0_reg [7:0] $end
$var reg 8 ` data1_reg [7:0] $end
$var reg 1 a empty_reg $end
$var reg 1 b full_reg $end
$scope begin error_checks $end
$var reg 1 c deqerror $end
$var reg 1 d enqerror $end
$upscope $end
$upscope $end
$upscope $end
$upscope $end
$enddefinitions $end
#0
$dumpvars
0d
0c
1b
0a
b10101010 `
b10101010 _
b10101010 ^
0]
1\
0[
0Z
bx Y
0X
b10101010 W
1V
b10101010 U
0T
b10101010 S
0R
b10101010 Q
b0x0x0x0x0 P
0O
bx N
b10101010 M
0L
1K
b10101011 J
zI
bz H
bx G
zF
b1010101010101010 E
xD
xC
xB
xA
x@
bz ?
b10101010 >
0=
z<
0;
bz :
x9
b10101011 8
bz 7
bz 6
z5
14
x3
b0x0x0x0x0 2
11
00
b10101010 /
0.
bz -
z,
1+
z*
bz )
z(
1'
z&
z%
bz $
bz #
1"
1!
$end
#1000
b0 2
b0 P
01
04
b0 Q
b0 W
b0 U
b1 8
b1 J
b0 E
b0 S
0V
0"
#2500
0!
#5000
0A
0@
0C
0D
03
09
0B
0%
0<
0*
0,
05
0(
1"
1!
#7500
b10 H
1I
0F
1@
1C
1D
0!
b10 $
b10 7
b100 #
b100 6
1&
1%
#10000
b10 Q
1.
1T
1V
1!
#12500
b11 H
1A
13
0@
0C
0D
0!
b11 -
b11 ?
1,
0%
#15000
0.
11
14
b1100000000 E
b11 U
1!
#17500
b10 H
0A
03
0!
0,
#20000
1!
#22500
19
1B
0!
b101100 G
b101100 N
b101100 Y
b101100 )
b101100 :
15
1(
#25000
1R
0V
b1011000 G
b1011000 N
b1011000 Y
b101100 W
b10 8
b10 J
b10000001100000001 E
b1 S
1!
#27500
0!
b1100001 G
b1100001 N
b1100001 Y
b110101 )
b110101 :
#30000
0\
1[
0B
09
04
1=
b10010110 G
b10010110 N
b10010110 Y
b1100001 W
1O
b11 8
b11 J
b10000001100000010 E
b10 S
1!
#32500
b11 H
1@
1C
1D
1F
0!
b11 $
b11 7
1%
b1100100 G
b1100100 N
b1100100 Y
b11 )
b11 :
#35000
1<
1*
01
0\
1[
1]
b11 Q
b1100100 /
b1100100 >
b1100100 M
b1100100 ^
b1100100 _
10
1L
1a
1X
b1100000010 E
0R
1!
#37500
0[
1A
1\
b1000 H
0]
0I
0F
0@
0C
0D
0=
0!
b1000 $
b1000 7
b1000 #
b1000 6
05
0(
#40000
11
14
b1000 Q
00
0L
0a
b1000 U
b11 G
b11 N
b11 Y
b0 W
0O
b1 8
b1 J
b100000000000 E
b0 S
1V
1!
#42500
0A
0!
0%
0<
0*
#45000
1!
#47500
19
1B
0!
b0 G
b0 N
b0 Y
b0 )
b0 :
15
1(
#50000
1R
b10 8
b10 J
b10000100000000001 E
b1 S
0V
1!
#52500
0!
b1 G
b1 N
b1 Y
b1 )
b1 :
#55000
b10 G
b10 N
b10 Y
b1 W
b11 8
b11 J
b10000100000000010 E
b10 S
1!
#57500
b10 H
1I
b11 Q
1@
1C
1D
0!
b10 $
b10 7
b100 #
b100 6
1%
b1 G
b1 N
b1 Y
b0 )
b0 :
#60000
b10 Q
0X
b100 8
b100 J
b10000100000000011 E
b11 S
1!
#62500
0@
0C
0D
0!
0%
#65000
b101 8
b101 J
b10000100000000100 E
b100 S
1!
#67500
0!
b10 G
b10 N
b10 Y
b1 )
b1 :
#70000
b11 G
b11 N
b11 Y
b10 W
b110 8
b110 J
b10000100000000101 E
b101 S
1!
#72500
b1000 Q
b1000 2
b1000 P
0!
b1000 #
b1000 6
0&
1%
b10 G
b10 N
b10 Y
b0 )
b0 :
#75000
b111 8
b111 J
b10000100000000110 E
b110 S
1!
#77500
0!
0%
b11 G
b11 N
b11 Y
b1 )
b1 :
#80000
0\
1[
0B
09
04
1=
b100 G
b100 N
b100 Y
b11 W
1O
b1000 8
b1000 J
b10000100000000111 E
b111 S
1!
#82500
0!
b11 G
b11 N
b11 Y
b0 )
b0 :
#85000
1<
1*
1.
01
0\
1[
1]
b11 /
b11 >
b11 M
b11 ^
b11 _
10
1L
1a
b100000000111 E
0R
1!
#87500
0[
b1001 H
1A
1\
13
0]
0=
0!
b1001 -
b1001 ?
1,
05
0(
#90000
0.
11
b1001 2
b1001 P
14
b1001 Q
00
0L
0a
b1001 U
b0 G
b0 N
b0 Y
b0 W
0O
b1 8
b1 J
b100100000000 E
b0 S
1V
1!
#92500
b10 H
0A
03
0!
0,
0<
0*
#95000
1!
#97500
19
1B
0!
15
1(
#100000
1R
b10 8
b10 J
b10000100100000001 E
b1 S
0V
1!
#102500
0!
#105000
b11 8
b11 J
b10000100100000010 E
b10 S
1!
#107500
b11 H
1F
b10 Q
1@
1C
1D
b0 2
b0 P
0!
b11 $
b11 7
b100 #
b100 6
1&
1%
b1 G
b1 N
b1 Y
b1 )
b1 :
#110000
b11 Q
1X
b10 G
b10 N
b10 Y
b1 W
b100 8
b100 J
b10000100100000011 E
b11 S
1!
#112500
0@
0C
0D
0!
0%
b1 G
b1 N
b1 Y
b0 )
b0 :
#115000
b101 8
b101 J
b10000100100000100 E
b100 S
1!
#117500
0!
b10 G
b10 N
b10 Y
b1 )
b1 :
#120000
b11 G
b11 N
b11 Y
b10 W
b110 8
b110 J
b10000100100000101 E
b101 S
1!
#122500
b10000100100000101 Q
b10000100100000101 2
b10000100100000101 P
0!
b0 #
b0 6
0&
1%
b10 G
b10 N
b10 Y
b0 )
b0 :
#125000
b10000100100000110 2
b10000100100000110 P
b10000100100000110 Q
b111 8
b111 J
b10000100100000110 E
b110 S
1!
#127500
0!
0%
b100 G
b100 N
b100 Y
b10 )
b10 :
#130000
b10000100100000111 2
b10000100100000111 P
b10000100100000111 Q
b110 G
b110 N
b110 Y
b100 W
b1000 8
b1000 J
b10000100100000111 E
b111 S
1!
#132500
b1001 2
b1001 P
b1001 Q
0!
b1000 #
b1000 6
1%
b100 G
b100 N
b100 Y
b0 )
b0 :
#135000
0\
1[
0B
09
04
1=
1O
b1001 8
b1001 J
b10000100100001000 E
b1000 S
1!
#137500
0!
0%
#140000
1<
1*
01
0\
1[
1]
10
1L
1a
b100 /
b100 >
b100 M
b100 ^
b100 _
b100100001000 E
0R
1!
#142500
1A
0[
1\
b110 H
0]
0F
b0 2
b0 P
0=
0!
b110 $
b110 7
1&
1%
05
0(
#145000
11
14
b110 Q
00
0L
0a
1V
b110 U
b0 G
b0 N
b0 Y
b0 W
0O
b1 8
b1 J
b11000000000 E
b0 S
1!
#147500
0A
0!
0%
0<
0*
#150000
1!
#152500
19
1B
0!
b10100001 G
b10100001 N
b10100001 Y
b10100001 )
b10100001 :
15
1(
#155000
1R
0V
b1000010 G
b1000010 N
b1000010 Y
b10100001 W
b10 8
b10 J
b10000011000000001 E
b1 S
1!
#157500
0!
b10101100 G
b10101100 N
b10101100 Y
b1011 )
b1011 :
#160000
b10110111 G
b10110111 N
b10110111 Y
b10101100 W
b11 8
b11 J
b10000011000000010 E
b10 S
1!
#162500
b11 Q
b11 2
b11 P
0!
b100 #
b100 6
0&
1%
b10110010 G
b10110010 N
b10110010 Y
b110 )
b110 :
#165000
b10111000 G
b10111000 N
b10111000 Y
b10110010 W
b100 8
b100 J
b10000011000000011 E
b11 S
1!
#167500
0!
0%
b10110110 G
b10110110 N
b10110110 Y
b100 )
b100 :
#170000
b10111010 G
b10111010 N
b10111010 Y
b10110110 W
b101 8
b101 J
b10000011000000100 E
b100 S
1!
#172500
0!
b10111111 G
b10111111 N
b10111111 Y
b1001 )
b1001 :
#175000
0\
1[
0B
09
04
1=
b11001000 G
b11001000 N
b11001000 Y
b10111111 W
1O
b110 8
b110 J
b10000011000000101 E
b101 S
1!
#177500
0!
b11000000 G
b11000000 N
b11000000 Y
b1 )
b1 :
#180000
1<
1*
01
0\
1[
1]
10
1L
1a
b11000000 /
b11000000 >
b11000000 M
b11000000 ^
b11000000 _
b11000000101 E
0R
1!
#182500
0[
1A
1\
b100 H
0]
0I
b110 Q
b0 2
b0 P
0=
0!
b100 $
b100 7
b1000 #
b1000 6
1&
1%
05
0(
#185000
11
14
b100 Q
00
0L
0a
1V
b100 U
b1 G
b1 N
b1 Y
b0 W
0O
b1 8
b1 J
b10000000000 E
b0 S
1!
#187500
0A
0!
0%
0<
0*
#190000
1!
#192500
19
1B
0!
b10010 G
b10010 N
b10010 Y
b10010 )
b10010 :
15
1(
#195000
1R
0V
b100100 G
b100100 N
b100100 Y
b10010 W
b10 8
b10 J
b10000010000000001 E
b1 S
1!
#197500
0!
b11000 G
b11000 N
b11000 Y
b110 )
b110 :
#200000
b11110 G
b11110 N
b11110 Y
b11000 W
b11 8
b11 J
b10000010000000010 E
b10 S
1!
#202500
0!
b111111 G
b111111 N
b111111 Y
b100111 )
b100111 :
#205000
0\
1[
0B
09
04
1=
b1100110 G
b1100110 N
b1100110 Y
b111111 W
1O
b100 8
b100 J
b10000010000000011 E
b11 S
1!
#207500
0!
b1110000 G
b1110000 N
b1110000 Y
b110001 )
b110001 :
#210000
1<
1*
01
0\
1[
1]
10
1L
1a
b1110000 /
b1110000 >
b1110000 M
b1110000 ^
b1110000 _
b10000000011 E
0R
1!
#212500
1A
0[
1\
0]
0=
0!
1%
05
0(
#215000
11
14
00
0L
0a
1V
b110001 G
b110001 N
b110001 Y
b0 W
0O
b1 8
b1 J
b10000000000 E
b0 S
1!
#217500
0A
0!
0%
0<
0*
#220000
1!
#222500
19
1B
0!
b0 G
b0 N
b0 Y
b0 )
b0 :
15
1(
#225000
1R
0V
b10 8
b10 J
b10000010000000001 E
b1 S
1!
#227500
0!
b10 G
b10 N
b10 Y
b10 )
b10 :
#230000
b100 G
b100 N
b100 Y
b10 W
b11 8
b11 J
b10000010000000010 E
b10 S
1!
#232500
b10 H
1I
b11 Q
1@
1C
1D
0!
b10 $
b10 7
b100 #
b100 6
1%
#235000
0\
1[
0B
09
04
1=
b10 Q
0X
b110 G
b110 N
b110 Y
b100 W
1O
b100 8
b100 J
b10000010000000011 E
b11 S
1!
#237500
0@
0C
0D
0!
0%
b100 G
b100 N
b100 Y
b0 )
b0 :
#240000
1<
1*
1.
01
0\
1[
1]
10
1L
1a
b100 /
b100 >
b100 M
b100 ^
b100 _
b10000000011 E
0R
1!
#242500
0[
b0 H
1A
1\
13
0]
0=
0!
b0 -
b0 ?
1,
05
0(
#245000
00
0L
0a
1V
b0 U
b0 G
b0 N
b0 Y
b0 W
0O
b1 8
b1 J
b0 E
b0 S
1!
#247500
b10 H
0A
03
0!
0,
0<
0*
#250000
1!
#252500
b100 H
1A
13
0!
b100 -
b100 ?
1,
#255000
0.
11
14
b10000000000 E
b100 U
1!
#257500
b10 H
0A
03
0!
0,
#260000
1!
#262500
19
1B
0!
b100 G
b100 N
b100 Y
b100 )
b100 :
15
1(
#265000
1R
0V
b1000 G
b1000 N
b1000 Y
b100 W
b10 8
b10 J
b10000010000000001 E
b1 S
1!
#267500
0!
b1001001 G
b1001001 N
b1001001 Y
b1000101 )
b1000101 :
#270000
b10001110 G
b10001110 N
b10001110 Y
b1001001 W
b11 8
b11 J
b10000010000000010 E
b10 S
1!
#272500
b11 H
1@
1C
1D
1F
0!
b11 $
b11 7
1%
b1001100 G
b1001100 N
b1001100 Y
b11 )
b11 :
#275000
0\
1[
0B
09
04
1=
b11 Q
1X
b1001111 G
b1001111 N
b1001111 Y
b1001100 W
1O
b100 8
b100 J
b10000010000000011 E
b11 S
1!
#277500
0@
0C
0D
0!
0%
b10011101 G
b10011101 N
b10011101 Y
b1010001 )
b1010001 :
#280000
1<
1*
01
0\
1[
1]
10
1L
1a
b10011101 /
b10011101 >
b10011101 M
b10011101 ^
b10011101 _
b10000000011 E
0R
1!
#282500
0[
1A
1\
b110 H
0]
0F
b100 Q
0=
0!
b110 $
b110 7
b1000 #
b1000 6
1%
05
0(
#285000
11
14
b110 Q
00
0L
0a
1V
b110 U
b1010001 G
b1010001 N
b1010001 Y
b0 W
0O
b1 8
b1 J
b11000000000 E
b0 S
1!
#287500
0A
0!
0%
0<
0*
#290000
1!
#292500
19
1B
0!
b1001010 G
b1001010 N
b1001010 Y
b1001010 )
b1001010 :
15
1(
#295000
1R
0V
b10010100 G
b10010100 N
b10010100 Y
b1001010 W
b10 8
b10 J
b10000011000000001 E
b1 S
1!
#297500
0!
b1010011 G
b1010011 N
b1010011 Y
b1001 )
b1001 :
#300000
b1011100 G
b1011100 N
b1011100 Y
b1010011 W
b11 8
b11 J
b10000011000000010 E
b10 S
1!
#302500
b10 H
b11 Q
1@
1C
1D
0!
b10 $
b10 7
b100 #
b100 6
1%
b1101010 G
b1101010 N
b1101010 Y
b10111 )
b10111 :
#305000
b10 Q
0X
b10000001 G
b10000001 N
b10000001 Y
b1101010 W
b100 8
b100 J
b10000011000000011 E
b11 S
1!
#307500
0@
0C
0D
0!
0%
b10001011 G
b10001011 N
b10001011 Y
b100001 )
b100001 :
#310000
b10101100 G
b10101100 N
b10101100 Y
b10001011 W
b101 8
b101 J
b10000011000000100 E
b100 S
1!
#312500
b10 2
b10 P
0!
0&
1%
b11011001 G
b11011001 N
b11011001 Y
b1001110 )
b1001110 :
#315000
0\
1[
0B
09
04
1=
b100111 G
b100111 N
b100111 Y
b11011001 W
1O
b110 8
b110 J
b10000011000000101 E
b101 S
1!
#317500
0!
0%
b11111000 G
b11111000 N
b11111000 Y
b11111 )
b11111 :
#320000
1<
1*
1.
01
0\
1[
1]
10
1L
1a
b11111000 /
b11111000 >
b11111000 M
b11111000 ^
b11111000 _
b11000000101 E
0R
1!
#322500
0[
b100 H
1A
1\
13
0]
0=
0!
1,
05
0(
#325000
0.
11
14
00
0L
0a
1V
b100 U
b11111 G
b11111 N
b11111 Y
b0 W
0O
b1 8
b1 J
b10000000000 E
b0 S
1!
#327500
b10 H
0A
03
0!
0,
0<
0*
#330000
1!
#332500
19
1B
0!
b100101 G
b100101 N
b100101 Y
b100101 )
b100101 :
15
1(
#335000
1R
0V
b1001010 G
b1001010 N
b1001010 Y
b100101 W
b10 8
b10 J
b10000010000000001 E
b1 S
1!
#337500
0!
b1000010 G
b1000010 N
b1000010 Y
b11101 )
b11101 :
#340000
b1011111 G
b1011111 N
b1011111 Y
b1000010 W
b11 8
b11 J
b10000010000000010 E
b10 S
1!
#342500
b11 H
1@
1C
1D
1F
b0 2
b0 P
0!
b11 $
b11 7
1&
1%
b1011010 G
b1011010 N
b1011010 Y
b11000 )
b11000 :
#345000
0\
1[
0B
09
04
1=
b11 Q
1X
b1110010 G
b1110010 N
b1110010 Y
b1011010 W
1O
b100 8
b100 J
b10000010000000011 E
b11 S
1!
#347500
0@
0C
0D
0!
0%
b11000111 G
b11000111 N
b11000111 Y
b1101101 )
b1101101 :
#350000
1<
1*
01
0\
1[
1]
10
1L
1a
b11000111 /
b11000111 >
b11000111 M
b11000111 ^
b11000111 _
b10000000011 E
0R
1!
#352500
0[
1A
1\
b1000 H
0]
0I
0F
b100 Q
0=
0!
b1000 $
b1000 7
b1000 #
b1000 6
1%
05
0(
#355000
11
14
b1000 Q
00
0L
0a
1V
b1000 U
b1101101 G
b1101101 N
b1101101 Y
b0 W
0O
b1 8
b1 J
b100000000000 E
b0 S
1!
#357500
0A
0!
0%
0<
0*
#360000
1!
#362500
19
1B
0!
b10 G
b10 N
b10 Y
b10 )
b10 :
15
1(
#365000
1R
0V
b100 G
b100 N
b100 Y
b10 W
b10 8
b10 J
b10000100000000001 E
b1 S
1!
#367500
0!
b1110 G
b1110 N
b1110 Y
b1100 )
b1100 :
#370000
b11010 G
b11010 N
b11010 Y
b1110 W
b11 8
b11 J
b10000100000000010 E
b10 S
1!
#372500
b0 H
b11 Q
1@
1C
1D
0!
b0 $
b0 7
b100 #
b100 6
1%
b10101 G
b10101 N
b10101 Y
b111 )
b111 :
#375000
b0 Q
0X
0T
b11100 G
b11100 N
b11100 Y
b10101 W
b100 8
b100 J
b10000100000000011 E
b11 S
1!
#377500
0@
0C
0D
0!
0%
b11111 G
b11111 N
b11111 Y
b1010 )
b1010 :
#380000
b101001 G
b101001 N
b101001 Y
b11111 W
b101 8
b101 J
b10000100000000100 E
b100 S
1!
#382500
b10000100000000100 2
b10000100000000100 P
b10000100000000100 Q
0!
b0 #
b0 6
0&
1%
b1111100 G
b1111100 N
b1111100 Y
b1011101 )
b1011101 :
#385000
b10000100000000101 2
b10000100000000101 P
b10000100000000101 Q
b11011001 G
b11011001 N
b11011001 Y
b1111100 W
b110 8
b110 J
b10000100000000101 E
b101 S
1!
#387500
0!
0%
b10001000 G
b10001000 N
b10001000 Y
b1100 )
b1100 :
#390000
b10000100000000110 2
b10000100000000110 P
b10000100000000110 Q
b10010100 G
b10010100 N
b10010100 Y
b10001000 W
b111 8
b111 J
b10000100000000110 E
b110 S
1!
#392500
0!
1%
b10100001 G
b10100001 N
b10100001 Y
b11001 )
b11001 :
#395000
0\
1[
b10000100000000111 2
b10000100000000111 P
0B
09
04
1=
b10000100000000111 Q
b10111010 G
b10111010 N
b10111010 Y
b10100001 W
1O
b1000 8
b1000 J
b10000100000000111 E
b111 S
1!
#397500
0!
0%
b10110100 G
b10110100 N
b10110100 Y
b10011 )
b10011 :
#400000
1<
1*
01
0\
1[
b100000000111 2
b100000000111 P
1]
b100000000111 Q
10
1L
1a
b10110100 /
b10110100 >
b10110100 M
b10110100 ^
b10110100 _
b100000000111 E
0R
1!
#402500
0[
1\
0]
0=
0!
05
0(
#405000
19
1B
b10 )
b10 :
15
1(
11
b100000000000 2
b100000000000 P
14
b100000000000 Q
00
0L
0a
1V
b10 G
b10 N
b10 Y
b0 W
0O
b1 8
b1 J
b100000000000 E
b0 S
1!
#407500
0!
0<
0*
#410000
b10000100000000001 2
b10000100000000001 P
b10000100000000001 Q
1R
b100 G
b100 N
b100 Y
b10 W
b10 8
b10 J
b10000100000000001 E
b1 S
0V
1!
#412500
0!
b11 G
b11 N
b11 Y
b1 )
b1 :
#415000
b10000100000000010 2
b10000100000000010 P
b10000100000000010 Q
b100 G
b100 N
b100 Y
b11 W
b11 8
b11 J
b10000100000000010 E
b10 S
1!
#417500
b11 H
1I
1F
b0 Q
1@
1C
1D
b0 2
b0 P
0!
b11 $
b11 7
b100 #
b100 6
1&
1%
b1000 G
b1000 N
b1000 Y
b101 )
b101 :
#420000
b11 Q
1X
1T
b1101 G
b1101 N
b1101 Y
b1000 W
b100 8
b100 J
b10000100000000011 E
b11 S
1!
#422500
0@
0C
0D
0!
0%
b1000 G
b1000 N
b1000 Y
b0 )
b0 :
#425000
b101 8
b101 J
b10000100000000100 E
b100 S
1!
#427500
b1000 Q
b1000 2
b1000 P
0!
b1000 #
b1000 6
0&
1%
b1010 G
b1010 N
b1010 Y
b10 )
b10 :
#430000
b1100 G
b1100 N
b1100 Y
b1010 W
b110 8
b110 J
b10000100000000101 E
b101 S
1!
#432500
0!
0%
b1011 G
b1011 N
b1011 Y
b1 )
b1 :
#435000
b1100 G
b1100 N
b1100 Y
b1011 W
b111 8
b111 J
b10000100000000110 E
b110 S
1!
#437500
0!
#440000
0\
1[
0B
09
04
1=
b1101 G
b1101 N
b1101 Y
b1100 W
1O
b1000 8
b1000 J
b10000100000000111 E
b111 S
1!
#442500
0!
b10010 G
b10010 N
b10010 Y
b110 )
b110 :
#445000
1<
1*
01
0\
1[
1]
b10010 /
b10010 >
b10010 M
b10010 ^
b10010 _
10
1L
1a
b100000000111 E
0R
1!
#447500
1A
0[
1\
0]
b0 2
b0 P
0=
0!
1&
1%
05
0(
#450000
11
14
b11 Q
00
0L
0a
b11 U
b110 G
b110 N
b110 Y
b0 W
0O
b1 8
b1 J
b1100000000 E
b0 S
1V
1!
#452500
0A
0!
0%
0<
0*
#455000
1!
#457500
19
1B
0!
b0 G
b0 N
b0 Y
b0 )
b0 :
15
1(
#460000
1R
b10 8
b10 J
b10000001100000001 E
b1 S
0V
1!
#462500
0!
b10 G
b10 N
b10 Y
b10 )
b10 :
#465000
0\
1[
0B
09
04
1=
b100 G
b100 N
b100 Y
b10 W
1O
b11 8
b11 J
b10000001100000010 E
b10 S
1!
#467500
0!
#470000
1<
1*
01
0\
1[
1]
10
1L
1a
b100 /
b100 >
b100 M
b100 ^
b100 _
b1100000010 E
0R
1!
#472500
1A
0[
1\
b1000 H
0]
0I
0F
0=
0!
b1000 $
b1000 7
1%
05
0(
#475000
11
14
b1000 Q
00
0L
0a
1V
b1000 U
b10 G
b10 N
b10 Y
b0 W
0O
b1 8
b1 J
b100000000000 E
b0 S
1!
#477500
0A
0!
0%
0<
0*
#480000
1!
#482500
19
1B
0!
b0 G
b0 N
b0 Y
b0 )
b0 :
15
1(
#485000
1R
0V
b10 8
b10 J
b10000100000000001 E
b1 S
1!
#487500
0!
b1 G
b1 N
b1 Y
b1 )
b1 :
#490000
b10 G
b10 N
b10 Y
b1 W
b11 8
b11 J
b10000100000000010 E
b10 S
1!
#492500
b10 H
1I
b11 Q
1@
1C
1D
0!
b10 $
b10 7
b100 #
b100 6
1%
b10110 G
b10110 N
b10110 Y
b10101 )
b10101 :
#495000
b10 Q
0X
b101011 G
b101011 N
b101011 Y
b10110 W
b100 8
b100 J
b10000100000000011 E
b11 S
1!
#497500
0@
0C
0D
0!
0%
b11010 G
b11010 N
b11010 Y
b100 )
b100 :
#500000
b11110 G
b11110 N
b11110 Y
b11010 W
b101 8
b101 J
b10000100000000100 E
b100 S
1!
#502500
b1000 Q
b1000 2
b1000 P
0!
b1000 #
b1000 6
0&
1%
b100100 G
b100100 N
b100100 Y
b1010 )
b1010 :
#505000
b101110 G
b101110 N
b101110 Y
b100100 W
b110 8
b110 J
b10000100000000101 E
b101 S
1!
#507500
0!
0%
b100110 G
b100110 N
b100110 Y
b10 )
b10 :
#510000
b101000 G
b101000 N
b101000 Y
b100110 W
b111 8
b111 J
b10000100000000110 E
b110 S
1!
#512500
b10000100000000110 2
b10000100000000110 P
b10000100000000110 Q
0!
b0 #
b0 6
1%
b100110 G
b100110 N
b100110 Y
b0 )
b0 :
#515000
0\
1[
b10000100000000111 2
b10000100000000111 P
0B
09
04
1=
b10000100000000111 Q
1O
b1000 8
b1000 J
b10000100000000111 E
b111 S
1!
#517500
0!
0%
b110001 G
b110001 N
b110001 Y
b1011 )
b1011 :
#520000
1<
1*
1.
01
0\
1[
b100000000111 2
b100000000111 P
1]
b100000000111 Q
10
1L
1a
b110001 /
b110001 >
b110001 M
b110001 ^
b110001 _
b100000000111 E
0R
1!
#522500
0[
b11 H
1A
1\
13
0]
0=
0!
b11 -
b11 ?
1,
05
0(
#525000
0.
11
b1100000000 2
b1100000000 P
14
b1100000000 Q
00
0L
0a
1V
b11 U
b1011 G
b1011 N
b1011 Y
b0 W
0O
b1 8
b1 J
b1100000000 E
b0 S
1!
#527500
b10 H
0A
03
0!
0,
0<
0*
#530000
1!
#532500
19
1B
0!
b100010 G
b100010 N
b100010 Y
b100010 )
b100010 :
15
1(
#535000
b10000001100000001 2
b10000001100000001 P
b10000001100000001 Q
1R
0V
b1000100 G
b1000100 N
b1000100 Y
b100010 W
b10 8
b10 J
b10000001100000001 E
b1 S
1!
#537500
0!
b101110 G
b101110 N
b101110 Y
b1100 )
b1100 :
#540000
0\
1[
b10000001100000010 2
b10000001100000010 P
0B
09
04
1=
b10000001100000010 Q
b111010 G
b111010 N
b111010 Y
b101110 W
1O
b11 8
b11 J
b10000001100000010 E
b10 S
1!
#542500
0!
b1111001 G
b1111001 N
b1111001 Y
b1001011 )
b1001011 :
#545000
1<
1*
1.
01
0\
1[
b1100000010 2
b1100000010 P
1]
b1100000010 Q
b1111001 /
b1111001 >
b1111001 M
b1111001 ^
b1111001 _
10
1L
1a
b1100000010 E
0R
1!
#547500
0[
b1 H
1A
1\
13
0]
0=
0!
b1 -
b1 ?
1,
05
0(
#550000
0.
11
b100000000 2
b100000000 P
b100000000 Q
00
0L
0a
b1 U
b1001011 G
b1001011 N
b1001011 Y
b0 W
1O
b1 8
b1 J
b100000000 E
b0 S
1V
1!
#552500
b10 H
0A
03
0!
0,
0<
0*
#555000
1!
#557500
0\
1[
1=
0!
b10010100 G
b10010100 N
b10010100 Y
b10010100 )
b10010100 :
15
1(
#560000
1<
1*
1.
0\
01
1[
1]
10
1L
1a
b10010100 /
b10010100 >
b10010100 M
b10010100 ^
b10010100 _
0V
1!
#562500
0[
b1001 H
1A
1\
13
0]
0=
0!
b1001 -
b1001 ?
1,
05
0(
#565000
0.
11
b100100000000 2
b100100000000 P
14
b100100000000 Q
00
0L
0a
1V
0O
b100100000000 E
b1001 U
1!
#567500
b10 H
0A
03
0!
0,
0<
0*
#570000
1!
#572500
19
1B
0!
b10 G
b10 N
b10 Y
b10 )
b10 :
15
1(
#575000
b10000100100000001 2
b10000100100000001 P
b10000100100000001 Q
1R
0V
b100 G
b100 N
b100 Y
b10 W
b10 8
b10 J
b10000100100000001 E
b1 S
1!
#577500
0!
b111 G
b111 N
b111 Y
b101 )
b101 :
#580000
b10000100100000010 2
b10000100100000010 P
b10000100100000010 Q
b1100 G
b1100 N
b1100 Y
b111 W
b11 8
b11 J
b10000100100000010 E
b10 S
1!
#582500
b11 H
1F
b10 Q
1@
1C
1D
b0 2
b0 P
0!
b11 $
b11 7
b100 #
b100 6
1&
1%
b1110 G
b1110 N
b1110 Y
b111 )
b111 :
#585000
b11 Q
1X
b10101 G
b10101 N
b10101 Y
b1110 W
b100 8
b100 J
b10000100100000011 E
b11 S
1!
#587500
0@
0C
0D
0!
0%
b10111 G
b10111 N
b10111 Y
b1001 )
b1001 :
#590000
b100000 G
b100000 N
b100000 Y
b10111 W
b101 8
b101 J
b10000100100000100 E
b100 S
1!
#592500
0!
b11010 G
b11010 N
b11010 Y
b11 )
b11 :
#595000
b11101 G
b11101 N
b11101 Y
b11010 W
b110 8
b110 J
b10000100100000101 E
b101 S
1!
#597500
b1001 Q
b1001 2
b1001 P
0!
b1000 #
b1000 6
0&
1%
b100011 G
b100011 N
b100011 Y
b1001 )
b1001 :
#600000
b101100 G
b101100 N
b101100 Y
b100011 W
b111 8
b111 J
b10000100100000110 E
b110 S
1!
#602500
0!
0%
#605000
b110101 G
b110101 N
b110101 Y
b101100 W
b1000 8
b1000 J
b10000100100000111 E
b111 S
1!
#607500
b10000100100000111 2
b10000100100000111 P
b10000100100000111 Q
0!
b0 #
b0 6
1%
b110010 G
b110010 N
b110010 Y
b110 )
b110 :
