tests/waves.vcd
$date
	Tue Mar 21 00:44:27 2023
$end
$version
	Icarus Verilog
$end
$timescale
	1ps
$end
$scope module dut_test $end
$var wire 1 ! CLK $end
$var wire 1 " RST_N $end
$var wire 1 # busy $end
$var wire 1 $ busy_D_IN $end
$var wire 8 % cfg_address [7:0] $end
$var wire 32 & cfg_data_in [31:0] $end
$var wire 1 ' cfg_en $end
$var wire 1 ( cfg_op $end
$var wire 1 ) cfg_rdy $end
$var wire 1 * din_en $end
$var wire 8 + din_value [7:0] $end
$var wire 1 , dout_en $end
$var wire 1 - dout_ff_FULL_N $end
$var wire 1 . len_en $end
$var wire 8 / len_value [7:0] $end
$var wire 1 0 programmed_length_EN $end
$var wire 1 1 normal_mode_RESET_N $end
$var wire 1 2 len_rdy $end
$var wire 8 3 dout_value [7:0] $end
$var wire 1 4 dout_rdy $end
$var wire 1 5 din_rdy $end
$var wire 32 6 cfg_data_out [31:0] $end
$scope module dut $end
$var wire 1 ! CLK $end
$var wire 1 7 \MUX_programmed_length$write_1__SEL_1 $end
$var wire 1 " RST_N $end
$var wire 1 8 \busy$D_IN $end
$var wire 1 9 \busy$EN $end
$var wire 8 : cfg_address [7:0] $end
$var wire 32 ; cfg_data_in [31:0] $end
$var wire 1 ' cfg_en $end
$var wire 1 ( cfg_op $end
$var wire 1 ) cfg_rdy $end
$var wire 8 < \current_count$D_IN [7:0] $end
$var wire 1 = \current_count$EN $end
$var wire 1 * din_en $end
$var wire 1 5 din_rdy $end
$var wire 8 > din_value [7:0] $end
$var wire 1 , dout_en $end
$var wire 1 ? \dout_ff$CLR $end
$var wire 1 @ \dout_ff$DEQ $end
$var wire 1 A \dout_ff$ENQ $end
$var wire 1 4 dout_rdy $end
$var wire 8 B dout_value [7:0] $end
$var wire 1 . len_en $end
$var wire 1 2 len_rdy $end
$var wire 8 C len_value [7:0] $end
$var wire 1 D \pause$EN $end
$var wire 1 E \programmed_length$EN $end
$var wire 1 F \sum$EN $end
$var wire 1 G \sw_override$EN $end
$var wire 1 H \w_sw_override$whas $end
$var wire 17 I x__h969 [16:0] $end
$var wire 1 J \sw_override$D_IN $end
$var wire 8 K \sum$D_IN [7:0] $end
$var wire 8 L \programmed_length$D_IN [7:0] $end
$var wire 1 M \pause$D_IN $end
$var wire 8 N next_count__h523 [7:0] $end
$var wire 1 O \dout_ff$FULL_N $end
$var wire 1 P \dout_ff$EMPTY_N $end
$var wire 8 Q \dout_ff$D_OUT [7:0] $end
$var wire 8 R \dout_ff$D_IN [7:0] $end
$var wire 1 S current_count_PLUS_1_EQ_programmed_length___d8 $end
$var wire 32 T cfg_data_out [31:0] $end
$var reg 32 U CASE_cfg_address_0_0_CONCAT_x69_4_0_CONCAT_sw__ETC__q1 [31:0] $end
$var reg 1 V busy $end
$var reg 8 W current_count [7:0] $end
$var reg 1 X pause $end
$var reg 8 Y programmed_length [7:0] $end
$var reg 8 Z sum [7:0] $end
$var reg 1 [ sw_override $end
$scope module dout_ff $end
$var wire 1 ! CLK $end
$var wire 1 ? CLR $end
$var wire 1 @ DEQ $end
$var wire 8 \ D_IN [7:0] $end
$var wire 1 P EMPTY_N $end
$var wire 1 A ENQ $end
$var wire 1 O FULL_N $end
$var wire 1 " RST $end
$var wire 1 ] d0d1 $end
$var wire 1 ^ d0di $end
$var wire 1 _ d0h $end
$var wire 1 ` d1di $end
$var wire 8 a D_OUT [7:0] $end
$var reg 8 b data0_reg [7:0] $end
$var reg 8 c data1_reg [7:0] $end
$var reg 1 d empty_reg $end
$var reg 1 e full_reg $end
$scope begin error_checks $end
$var reg 1 f deqerror $end
$var reg 1 g enqerror $end
$upscope $end
$upscope $end
$upscope $end
$upscope $end
$enddefinitions $end
#0
$dumpvars
0g
0f
1e
0d
b10101010 c
b10101010 b
b10101010 a
0`
1_
0^
0]
bx \
0[
b10101010 Z
b10101010 Y
0X
b10101010 W
0V
b10101010 U
b0x0x0x0x0 T
0S
bx R
b10101010 Q
0P
1O
b10101011 N
zM
bz L
bx K
zJ
b1010101010101010 I
xH
xG
xF
xE
xD
bz C
b10101010 B
0A
z@
0?
bz >
x=
b10101011 <
bz ;
bz :
x9
18
x7
b0x0x0x0x0 6
15
04
b10101010 3
02
11
z0
bz /
z.
1-
z,
bz +
z*
1)
z(
z'
bz &
bz %
z$
0#
1"
1!
$end
#1000
05
x8
b0 6
b0 T
b0 U
b0 Z
b0 Y
b1 <
b1 N
b0 I
b0 W
0"
#2500
0!
#5000
08
09
0E
0D
0G
0H
07
0=
0F
0'
0@
0,
0.
0*
1"
1!
#7500
0!
#10000
b11 L
1M
1J
1D
1G
1H
b11 &
b11 ;
b100 %
b100 :
1(
1'
1!
#12500
0!
#15000
0D
0G
0H
0'
b11 U
02
1[
1X
1!
#17500
0!
#20000
18
19
1E
b101 L
0M
b0 U
b101 &
b101 ;
b1000 %
b1000 :
1'
1!
#22500
0!
#25000
0E
1=
1F
b1100011 K
b1100011 R
b1100011 \
b1100011 +
b1100011 >
1*
0'
15
b101 U
1#
1V
b10000010100000000 I
b101 Y
1!
#27500
0!
#30000
b1 L
b11 U
1D
1G
1H
09
0=
0F
b1 &
b1 ;
b100 %
b100 :
1'
0*
b11000110 K
b11000110 R
b11000110 \
b1100011 Z
b10 <
b10 N
b10000010100000001 I
b1 W
1!
#32500
0!
#35000
0D
0G
0H
19
1=
1F
b1110000 K
b1110000 R
b1110000 \
b1101 +
b1101 >
1*
0'
b1 U
0X
1!
#37500
0!
#40000
09
0=
0F
0*
b1111101 K
b1111101 R
b1111101 \
b1110000 Z
b11 <
b11 N
b10000010100000010 I
b10 W
1!
#42500
0!
#45000
19
1=
1F
b1111111 K
b1111111 R
b1111111 \
b1111 +
b1111 >
1*
1!
#47500
0!
#50000
b1 6
b1 T
09
0=
0F
0(
1'
0*
b10001110 K
b10001110 R
b10001110 \
b1111111 Z
b100 <
b100 N
b10000010100000011 I
b11 W
1!
#52500
0!
#55000
19
1=
1F
b10101100 K
b10101100 R
b10101100 \
b101101 +
b101101 >
1*
0'
1!
#57500
0!
#60000
09
0*
1_
0^
08
0F
0=
0A
b11011001 K
b11011001 R
b11011001 \
b10101100 Z
1S
b101 <
b101 N
b10000010100000100 I
b100 W
1!
#62500
0!
#65000
0_
1^
19
1A
b10110110 K
b10110110 R
b10110110 \
b1010 +
b1010 >
1*
1!
#67500
0!
#70000
09
1@
1,
0*
1_
0^
18
0F
0=
0A
14
1P
1d
b10110110 3
b10110110 B
b10110110 Q
b10110110 a
b10110110 b
0#
0V
b1010 K
b1010 R
b1010 \
b0 Z
0S
b1 <
b1 N
b10100000000 I
b0 W
1!
#72500
0!
#75000
b10 L
1D
1G
1H
19
1=
1F
1M
0J
b0 6
b0 T
b10 K
b10 R
b10 \
b10 +
b10 >
1*
b10 &
b10 ;
1(
1'
04
0P
0d
1!
#77500
0!
0@
0,
#80000
0D
0G
0H
09
0=
0F
0*
0'
b10 U
0[
1X
1#
1V
b100 K
b100 R
b100 \
b10 Z
b10 <
b10 N
b10000010100000001 I
b1 W
1!
#82500
0!
#85000
19
1=
1F
b111100 K
b111100 R
b111100 \
b111010 +
b111010 >
1*
1!
#87500
0!
#90000
09
0=
0F
0*
b1110110 K
b1110110 R
b1110110 \
b111100 Z
b11 <
b11 N
b10000010100000010 I
b10 W
1!
#92500
0!
#95000
19
1=
1F
b1010000 K
b1010000 R
b1010000 \
b10100 +
b10100 >
1*
1!
#97500
0!
#100000
b10000010100000011 U
b10000010100000011 6
b10000010100000011 T
09
0=
0F
b0 %
b0 :
0(
1'
0*
b1100100 K
b1100100 R
b1100100 \
b1010000 Z
b100 <
b100 N
b10000010100000011 I
b11 W
1!
#102500
0!
#105000
19
1=
1F
b1010011 K
b1010011 R
b1010011 \
b11 +
b11 >
1*
0'
1!
#107500
0!
#110000
09
1'
0*
1_
0^
08
b10000010100000100 6
b10000010100000100 T
0F
0=
0A
b10000010100000100 U
b1010110 K
b1010110 R
b1010110 \
b1010011 Z
1S
b101 <
b101 N
b10000010100000100 I
b100 W
1!
#112500
0!
#115000
0_
1^
19
1A
b11110001 K
b11110001 R
b11110001 \
b10011110 +
b10011110 >
1*
0'
1!
#117500
0!
#120000
09
1@
1,
0*
12
1_
0^
05
18
b10100000000 6
b10100000000 T
0F
0=
0A
b10100000000 U
14
1P
1d
b11110001 3
b11110001 B
b11110001 Q
b11110001 a
b11110001 b
0#
0V
b10011110 K
b10011110 R
b10011110 \
b0 Z
0S
b1 <
b1 N
b10100000000 I
b0 W
1!
#122500
0!
#125000
19
1E
b1001 L
17
1J
b10 U
1D
1G
1H
b0 6
b0 T
b11 &
b11 ;
b100 %
b100 :
1(
1'
b1001 /
b1001 C
1.
04
0P
0d
1!
#127500
0!
0@
0,
#130000
0D
0G
0H
1=
1F
b110 K
b110 R
b110 \
b110 +
b110 >
1*
0'
0.
19
02
b11 L
0E
15
07
b11 U
1[
1#
1V
b10000100100000000 I
b1001 Y
1!
#132500
0!
#135000
09
0=
0F
0*
b1100 K
b1100 R
b1100 \
b110 Z
b10 <
b10 N
b10000100100000001 I
b1 W
1!
#137500
0!
#140000
19
1=
1F
b110 K
b110 R
b110 \
b0 +
b0 >
1*
1!
#142500
0!
#145000
09
0=
0F
0*
b11 <
b11 N
b10000100100000010 I
b10 W
1!
#147500
0!
#150000
19
1=
1F
b1001 U
b1001 6
b1001 T
b1000 K
b1000 R
b1000 \
b10 +
b10 >
1*
b1000 %
b1000 :
0(
1'
1!
#152500
0!
#155000
09
0=
0F
0*
0'
b1010 K
b1010 R
b1010 \
b1000 Z
b100 <
b100 N
b10000100100000011 I
b11 W
1!
#157500
0!
#160000
19
1=
1F
b1101 K
b1101 R
b1101 \
b101 +
b101 >
1*
1'
1!
#162500
0!
#165000
09
0=
0F
0*
0'
b10010 K
b10010 R
b10010 \
b1101 Z
b101 <
b101 N
b10000100100000100 I
b100 W
1!
#167500
0!
#170000
19
1=
1F
b10100 K
b10100 R
b10100 \
b111 +
b111 >
1*
1!
#172500
0!
#175000
b11 6
b11 T
b11 U
09
0=
0F
b100 %
b100 :
1'
0*
b11011 K
b11011 R
b11011 \
b10100 Z
b110 <
b110 N
b10000100100000101 I
b101 W
1!
#177500
0!
#180000
19
1=
1F
1*
0'
1!
#182500
0!
#185000
b1001 6
b1001 T
b1001 U
09
0=
0F
b1000 %
b1000 :
1'
0*
b100010 K
b100010 R
b100010 \
b11011 Z
b111 <
b111 N
b10000100100000110 I
b110 W
1!
#187500
0!
#190000
19
1=
1F
b11100 K
b11100 R
b11100 \
b1 +
b1 >
1*
0'
1!
#192500
0!
#195000
09
0=
0F
1'
0*
b11101 K
b11101 R
b11101 \
b11100 Z
b1000 <
b1000 N
b10000100100000111 I
b111 W
1!
#197500
0!
#200000
19
1=
1F
1*
0'
1!
#202500
0!
#205000
09
0*
1_
0^
08
0F
0=
0A
b11110 K
b11110 R
b11110 \
b11101 Z
1S
b1001 <
b1001 N
b10000100100001000 I
b1000 W
1!
#207500
0!
#210000
0_
1^
19
1A
b11101 K
b11101 R
b11101 \
b0 +
b0 >
1*
1!
#212500
0!
#215000
09
1@
1,
0*
1_
0^
05
18
0F
0=
0A
b11101 3
b11101 B
b11101 Q
b11101 a
b11101 b
14
1P
1d
0#
0V
b0 K
b0 R
b0 \
b0 Z
0S
b1 <
b1 N
b100100000000 I
b0 W
1!
#217500
0!
#220000
19
1E
b101 L
0M
b0 6
b0 T
b101 &
b101 ;
1(
1'
04
0P
0d
1!
#222500
0!
0@
0,
#225000
0E
1=
1F
1*
0'
15
b101 U
1#
1V
b10000010100000000 I
b101 Y
1!
#227500
0!
#230000
09
0=
0F
0*
b10 <
b10 N
b10000010100000001 I
b1 W
1!
#232500
0!
#235000
19
1=
1F
b100 K
b100 R
b100 \
b100 +
b100 >
1*
1!
#237500
0!
#240000
b101 6
b101 T
09
0=
0F
0(
1'
0*
b1000 K
b1000 R
b1000 \
b100 Z
b11 <
b11 N
b10000010100000010 I
b10 W
1!
#242500
0!
#245000
19
1=
1F
b110 K
b110 R
b110 \
b10 +
b10 >
1*
0'
1!
#247500
0!
#250000
b11 6
b11 T
b11 U
09
0=
0F
b100 %
b100 :
1'
0*
b1000 K
b1000 R
b1000 \
b110 Z
b100 <
b100 N
b10000010100000011 I
b11 W
1!
#252500
0!
#255000
19
1=
1F
b10001 K
b10001 R
b10001 \
b1011 +
b1011 >
1*
0'
1!
#257500
0!
#260000
09
0*
1_
0^
08
0F
0=
0A
b11100 K
b11100 R
b11100 \
b10001 Z
1S
b101 <
b101 N
b10000010100000100 I
b100 W
1!
#262500
0!
#265000
0_
1^
19
1A
b11001 K
b11001 R
b11001 \
b1000 +
b1000 >
1*
1!
#267500
0!
#270000
09
1@
1,
0*
1_
0^
05
18
0F
0=
0A
14
1P
1d
b11001 3
b11001 B
b11001 Q
b11001 a
b11001 b
0#
0V
b1000 K
b1000 R
b1000 \
b0 Z
0S
b1 <
b1 N
b10100000000 I
b0 W
1!
#272500
0!
#275000
19
1E
b1001 L
b101 U
b0 6
b0 T
b1001 &
b1001 ;
b1000 %
b1000 :
1(
1'
04
0P
0d
1!
#277500
0!
0@
0,
#280000
0E
1=
1F
b1001 K
b1001 R
b1001 \
b1001 +
b1001 >
1*
0'
15
b1001 U
1#
1V
b10000100100000000 I
b1001 Y
1!
#282500
0!
#285000
b10000100100000001 U
b10000100100000001 6
b10000100100000001 T
09
0=
0F
b0 %
b0 :
0(
1'
0*
b10010 K
b10010 R
b10010 \
b1001 Z
b10 <
b10 N
b10000100100000001 I
b1 W
1!
#287500
0!
#290000
19
1=
1F
b1100 K
b1100 R
b1100 \
b11 +
b11 >
1*
0'
1!
#292500
0!
#295000
09
0=
0F
0*
b10000100100000010 6
b10000100100000010 T
b10000100100000010 U
b1111 K
b1111 R
b1111 \
b1100 Z
b11 <
b11 N
b10000100100000010 I
b10 W
1!
#297500
0!
#300000
b11 6
b11 T
19
1=
1F
b11 U
b10000 K
b10000 R
b10000 \
b100 +
b100 >
1*
b100 %
b100 :
1'
1!
#302500
0!
#305000
09
0=
0F
0*
0'
b10100 K
b10100 R
b10100 \
b10000 Z
b100 <
b100 N
b10000100100000011 I
b11 W
1!
#307500
0!
#310000
19
1=
1F
b11111 K
b11111 R
b11111 \
b1111 +
b1111 >
1*
1'
1!
#312500
0!
#315000
09
0=
0F
0*
0'
b101110 K
b101110 R
b101110 \
b11111 Z
b101 <
b101 N
b10000100100000100 I
b100 W
1!
#317500
0!
#320000
19
1=
1F
b110001 K
b110001 R
b110001 \
b10010 +
b10010 >
1*
1!
#322500
0!
#325000
b1001 6
b1001 T
b1001 U
09
0=
0F
b1000 %
b1000 :
1'
0*
b1000011 K
b1000011 R
b1000011 \
b110001 Z
b110 <
b110 N
b10000100100000101 I
b101 W
1!
#327500
0!
#330000
19
1=
1F
b110100 K
b110100 R
b110100 \
b11 +
b11 >
1*
0'
1!
#332500
0!
#335000
09
0=
0F
0*
b110111 K
b110111 R
b110111 \
b110100 Z
b111 <
b111 N
b10000100100000110 I
b110 W
1!
#337500
0!
#340000
19
1=
1F
b1010110 K
b1010110 R
b1010110 \
b100010 +
b100010 >
1*
1!
#342500
0!
#345000
09
0=
0F
0*
b1111000 K
b1111000 R
b1111000 \
b1010110 Z
b1000 <
b1000 N
b10000100100000111 I
b111 W
1!
#347500
0!
#350000
b11 6
b11 T
19
1=
1F
b11 U
b1101011 K
b1101011 R
b1101011 \
b10101 +
b10101 >
1*
b100 %
b100 :
1'
1!
#352500
0!
#355000
09
0*
0'
1_
0^
08
0F
0=
0A
b10000000 K
b10000000 R
b10000000 \
b1101011 Z
1S
b1001 <
b1001 N
b10000100100001000 I
b1000 W
1!
#357500
0!
#360000
0_
1^
19
1A
b1111010 K
b1111010 R
b1111010 \
b1111 +
b1111 >
1*
1!
#362500
0!
#365000
09
1@
1,
0*
1_
0^
05
18
0F
0=
0A
b1111010 3
b1111010 B
b1111010 Q
b1111010 a
b1111010 b
14
1P
1d
0#
0V
b1111 K
b1111 R
b1111 \
b0 Z
0S
b1 <
b1 N
b100100000000 I
b0 W
1!
#367500
0!
#370000
19
1E
b1001 U
b0 6
b0 T
b1000 %
b1000 :
1(
1'
04
0P
0d
1!
#372500
0!
0@
0,
#375000
0E
1=
1F
b110 K
b110 R
b110 \
b110 +
b110 >
1*
0'
15
b10000100100000000 I
1#
1V
1!
#377500
0!
#380000
b10 L
1M
0J
b11 U
1D
1G
1H
09
0=
0F
b10 &
b10 ;
b100 %
b100 :
1'
0*
b1100 K
b1100 R
b1100 \
b110 Z
b10 <
b10 N
b10000100100000001 I
b1 W
1!
#382500
0!
#385000
0D
0G
0H
19
1=
1F
b1001 K
b1001 R
b1001 \
b11 +
b11 >
1*
0'
b10 U
0[
1!
#387500
0!
#390000
b10 6
b10 T
09
0=
0F
0(
1'
0*
b1100 K
b1100 R
b1100 \
b1001 Z
b11 <
b11 N
b10000100100000010 I
b10 W
1!
#392500
0!
#395000
19
1=
1F
b11011 K
b11011 R
b11011 \
b10010 +
b10010 >
1*
0'
1!
#397500
0!
#400000
09
0=
0F
0*
b101101 K
b101101 R
b101101 \
b11011 Z
b100 <
b100 N
b10000100100000011 I
b11 W
1!
#402500
0!
#405000
19
1=
1F
b101001 K
b101001 R
b101001 \
b1110 +
b1110 >
1*
1!
#407500
0!
#410000
b1001 6
b1001 T
b1001 U
09
0=
0F
b1000 %
b1000 :
1'
0*
b110111 K
b110111 R
b110111 \
b101001 Z
b101 <
b101 N
b10000100100000100 I
b100 W
1!
#412500
0!
#415000
19
1=
1F
b101100 K
b101100 R
b101100 \
b11 +
b11 >
1*
0'
1!
#417500
0!
#420000
09
0=
0F
0*
b101111 K
b101111 R
b101111 \
b101100 Z
b110 <
b110 N
b10000100100000101 I
b101 W
1!
#422500
0!
#425000
19
1=
1F
b101101 K
b101101 R
b101101 \
b1 +
b1 >
1*
1!
#427500
0!
#430000
b10 6
b10 T
b10 U
09
0=
0F
b100 %
b100 :
1'
0*
b101110 K
b101110 R
b101110 \
b101101 Z
b111 <
b111 N
b10000100100000110 I
b110 W
1!
#432500
0!
#435000
19
1=
1F
b110100 K
b110100 R
b110100 \
b111 +
b111 >
1*
0'
1!
#437500
0!
#440000
b10000100100000111 6
b10000100100000111 T
b10000100100000111 U
09
0=
0F
b0 %
b0 :
1'
0*
b111011 K
b111011 R
b111011 \
b110100 Z
b1000 <
b1000 N
b10000100100000111 I
b111 W
1!
#442500
0!
#445000
19
1=
1F
b111001 K
b111001 R
b111001 \
b101 +
b101 >
1*
0'
1!
#447500
0!
#450000
09
0*
1_
0^
08
b10000100100001000 6
b10000100100001000 T
0F
0=
0A
b10000100100001000 U
b111110 K
b111110 R
b111110 \
b111001 Z
1S
b1001 <
b1001 N
b10000100100001000 I
b1000 W
1!
#452500
0!
#455000
0_
1^
19
1A
b1010010 K
b1010010 R
b1010010 \
b11001 +
b11001 >
1*
1!
#457500
0!
#460000
09
1@
1,
0*
12
1_
0^
05
18
b100100000000 6
b100100000000 T
0F
0=
0A
b100100000000 U
14
1P
1d
b1010010 3
b1010010 B
b1010010 Q
b1010010 a
b1010010 b
0#
0V
b11001 K
b11001 R
b11001 \
b0 Z
0S
b1 <
b1 N
b100100000000 I
b0 W
1!
#462500
0!
#465000
19
1E
b101 L
17
1J
b10 U
1D
1G
1H
b0 6
b0 T
b11 &
b11 ;
b100 %
b100 :
1(
1'
b101 /
b101 C
1.
04
0P
0d
1!
#467500
0!
0@
0,
#470000
0D
0G
0H
1=
1F
b0 K
b0 R
b0 \
b0 +
b0 >
1*
0'
0.
19
02
b11 L
0E
15
07
b11 U
1[
1#
1V
b10000010100000000 I
b101 Y
1!
#472500
0!
#475000
09
0=
0F
0*
b10 <
b10 N
b10000010100000001 I
b1 W
1!
#477500
0!
#480000
19
1=
1F
b1 K
b1 R
b1 \
b1 +
b1 >
1*
1!
#482500
0!
#485000
b10000010100000010 U
b10000010100000010 6
b10000010100000010 T
09
0=
0F
b0 %
b0 :
0(
1'
0*
b10 K
b10 R
b10 \
b1 Z
b11 <
b11 N
b10000010100000010 I
b10 W
1!
#487500
0!
#490000
19
1=
1F
b1 K
b1 R
b1 \
b0 +
b0 >
1*
0'
1!
#492500
0!
#495000
09
0=
0F
b100 %
b100 :
1'
0*
b11 6
b11 T
b11 U
b100 <
b100 N
b10000010100000011 I
b11 W
1!
#497500
0!
#500000
19
1=
1F
b11 K
b11 R
b11 \
b10 +
b10 >
1*
0'
1!
#502500
0!
#505000
09
0*
1_
0^
08
0F
0=
0A
b101 K
b101 R
b101 \
b11 Z
1S
b101 <
b101 N
b10000010100000100 I
b100 W
1!
#507500
0!
#510000
0_
1^
19
1A
b11 K
b11 R
b11 \
b0 +
b0 >
1*
1!
#512500
0!
#515000
09
1@
1,
0*
1_
0^
05
18
0F
0=
0A
b11 3
b11 B
b11 Q
b11 a
b11 b
14
1P
1d
0#
0V
b0 K
b0 R
b0 \
b0 Z
0S
b1 <
b1 N
b10100000000 I
b0 W
1!
#517500
0!
#520000
19
1E
b111 L
b101 U
b0 6
b0 T
b111 &
b111 ;
b1000 %
b1000 :
1(
1'
04
0P
0d
1!
#522500
0!
0@
0,
#525000
0E
1=
1F
b10101 K
b10101 R
b10101 \
b10101 +
b10101 >
1*
0'
15
b111 U
1#
1V
b10000011100000000 I
b111 Y
1!
#527500
0!
#530000
09
0=
0F
0*
b101010 K
b101010 R
b101010 \
b10101 Z
b10 <
b10 N
b10000011100000001 I
b1 W
1!
#532500
0!
#535000
19
1=
1F
b10000011100000001 U
b10000011100000001 6
b10000011100000001 T
b110111 K
b110111 R
b110111 \
b100010 +
b100010 >
1*
b0 %
b0 :
0(
1'
1!
#537500
0!
#540000
09
0=
0F
0*
0'
b10000011100000010 6
b10000011100000010 T
b10000011100000010 U
b1011001 K
b1011001 R
b1011001 \
b110111 Z
b11 <
b11 N
b10000011100000010 I
b10 W
1!
#542500
0!
#545000
19
1=
1F
b1000001 K
b1000001 R
b1000001 \
b1010 +
b1010 >
1*
1!
#547500
0!
#550000
09
0=
0F
b1000 %
b1000 :
1'
0*
b111 6
b111 T
b111 U
b1001011 K
b1001011 R
b1001011 \
b1000001 Z
b100 <
b100 N
b10000011100000011 I
b11 W
1!
#552500
0!
#555000
19
1=
1F
b1011011 K
b1011011 R
b1011011 \
b11010 +
b11010 >
1*
0'
1!
#557500
0!
#560000
09
0=
0F
1'
0*
b1110101 K
b1110101 R
b1110101 \
b1011011 Z
b101 <
b101 N
b10000011100000100 I
b100 W
1!
#562500
0!
#565000
19
1=
1F
b11010010 K
b11010010 R
b11010010 \
b1110111 +
b1110111 >
1*
0'
1!
#567500
0!
#570000
b10000011100000101 6
b10000011100000101 T
b10000011100000101 U
09
0=
0F
b0 %
b0 :
1'
0*
b1001001 K
b1001001 R
b1001001 \
b11010010 Z
b110 <
b110 N
b10000011100000101 I
b101 W
1!
#572500
0!
#575000
19
1=
1F
b11011001 K
b11011001 R
b11011001 \
b111 +
b111 >
1*
0'
1!
#577500
0!
#580000
09
b1000 %
b1000 :
1'
0*
1_
0^
08
b111 6
b111 T
0F
0=
0A
b111 U
b11100000 K
b11100000 R
b11100000 \
b11011001 Z
1S
b111 <
b111 N
b10000011100000110 I
b110 W
1!
#582500
0!
#585000
0_
1^
19
1A
b11100110 K
b11100110 R
b11100110 \
b1101 +
b1101 >
1*
0'
1!
#587500
0!
#590000
09
1@
1,
0*
1_
0^
05
18
0F
0=
0A
14
1P
1d
b11100110 3
b11100110 B
b11100110 Q
b11100110 a
b11100110 b
0#
0V
b1101 K
b1101 R
b1101 \
b0 Z
0S
b1 <
b1 N
b11100000000 I
b0 W
1!
#592500
0!
#595000
19
1E
b101 L
0M
b0 6
b0 T
b101 &
b101 ;
1(
1'
04
0P
0d
1!
#597500
0!
0@
0,
#600000
0E
1=
1F
b101100 K
b101100 R
b101100 \
b101100 +
b101100 >
1*
0'
15
b101 U
1#
1V
b10000010100000000 I
b101 Y
1!
#602500
0!
#605000
09
0=
0F
0*
b1011000 K
b1011000 R
b1011000 \
b101100 Z
b10 <
b10 N
b10000010100000001 I
b1 W
1!
#607500
0!
#610000
19
1=
1F
b101 6
b101 T
b1001101 K
b1001101 R
b1001101 \
b100001 +
b100001 >
1*
0(
1'
1!
#612500
0!
#615000
09
0=
0F
0*
0'
b1101110 K
b1101110 R
b1101110 \
b1001101 Z
b11 <
b11 N
b10000010100000010 I
b10 W
1!
#617500
0!
#620000
19
1=
1F
1*
1!
#622500
0!
#625000
b11 6
b11 T
b11 U
09
0=
0F
b100 %
b100 :
1'
0*
b10001111 K
b10001111 R
b10001111 \
b1101110 Z
b100 <
b100 N
b10000010100000011 I
b11 W
1!
#627500
0!
#630000
19
1=
1F
b1110100 K
b1110100 R
b1110100 \
b110 +
b110 >
1*
0'
1!
#632500
0!
#635000
09
1'
0*
1_
0^
08
0F
0=
0A
b1111010 K
b1111010 R
b1111010 \
b1110100 Z
1S
b101 <
b101 N
b10000010100000100 I
b100 W
1!
#637500
0!
#640000
0_
1^
19
1A
b10010000 K
b10010000 R
b10010000 \
b11100 +
b11100 >
1*
0'
1!
#642500
0!
#645000
09
1@
1,
0*
1_
0^
05
18
0F
0=
0A
b10010000 3
b10010000 B
b10010000 Q
b10010000 a
b10010000 b
14
1P
1d
0#
0V
b11100 K
b11100 R
b11100 \
b0 Z
0S
b1 <
b1 N
b10100000000 I
b0 W
1!
#647500
0!
#650000
19
1E
b101 U
b0 6
b0 T
b1000 %
b1000 :
1(
1'
04
0P
0d
1!
#652500
0!
0@
0,
#655000
0E
1=
1F
b110 K
b110 R
b110 \
b110 +
b110 >
1*
0'
15
b10000010100000000 I
1#
1V
1!
#657500
0!
#660000
09
0=
0F
0*
b1100 K
b1100 R
b1100 \
b110 Z
b10 <
b10 N
b10000010100000001 I
b1 W
1!
#662500
0!
#665000
19
1=
1F
b10000010100000001 U
b10000010100000001 6
b10000010100000001 T
b10101 K
b10101 R
b10101 \
b1111 +
b1111 >
1*
b0 %
b0 :
0(
1'
1!
#667500
0!
#670000
09
0=
0F
0*
0'
b10000010100000010 6
b10000010100000010 T
b10000010100000010 U
b100100 K
b100100 R
b100100 \
b10101 Z
b11 <
b11 N
b10000010100000010 I
b10 W
1!
#672500
0!
#675000
19
1=
1F
b10101 K
b10101 R
b10101 \
b0 +
b0 >
1*
1!
#677500
0!
#680000
09
0=
0F
0*
b10000010100000011 6
b10000010100000011 T
b10000010100000011 U
b100 <
b100 N
b10000010100000011 I
b11 W
1!
#682500
0!
#685000
b101 6
b101 T
19
1=
1F
b101 U
b101001 K
b101001 R
b101001 \
b10100 +
b10100 >
1*
b1000 %
b1000 :
1'
1!
#687500
0!
#690000
09
0*
0'
1_
0^
08
0F
0=
0A
b111101 K
b111101 R
b111101 \
b101001 Z
1S
b101 <
b101 N
b10000010100000100 I
b100 W
1!
#692500
0!
#695000
0_
1^
19
1A
b1101011 K
b1101011 R
b1101011 \
b1000010 +
b1000010 >
1*
1!
#697500
0!
#700000
09
1@
1,
0*
1_
0^
05
18
0F
0=
0A
14
1P
1d
b1101011 3
b1101011 B
b1101011 Q
b1101011 a
b1101011 b
0#
0V
b1000010 K
b1000010 R
b1000010 \
b0 Z
0S
b1 <
b1 N
b10100000000 I
b0 W
1!
#702500
0!
#705000
19
1E
b10 L
1M
0J
b0 6
b0 T
b10 &
b10 ;
1(
1'
04
0P
0d
1!
#707500
0!
0@
0,
#710000
0E
1=
1F
b1000101 K
b1000101 R
b1000101 \
b1000101 +
b1000101 >
1*
0'
15
b10 U
1#
1V
b10000001000000000 I
b10 Y
1!
#712500
0!
#715000
b11 U
1D
1G
1H
09
b100 %
b100 :
1'
0*
1_
0^
08
0F
0=
0A
b10001010 K
b10001010 R
b10001010 \
b1000101 Z
1S
b10 <
b10 N
b10000001000000001 I
b1 W
1!
#717500
0!
#720000
0_
1^
0D
0G
0H
19
1A
b10100100 K
b10100100 R
b10100100 \
b1011111 +
b1011111 >
1*
0'
b10 U
0[
1!
#722500
0!
#725000
09
1@
1,
0*
12
1_
0^
05
18
0F
0=
0A
b10100100 3
b10100100 B
b10100100 Q
b10100100 a
b10100100 b
14
1P
1d
0#
0V
b1011111 K
b1011111 R
b1011111 \
b0 Z
0S
b1 <
b1 N
b1000000000 I
b0 W
1!
#727500
0!
#730000
19
b1 L
1E
17
b10 6
b10 T
b1000 %
b1000 :
0(
1'
b1 /
b1 C
1.
04
0P
0d
1!
#732500
0!
0@
0,
#735000
0_
1^
1A
b11111000 K
b11111000 R
b11111000 \
b11111000 +
b11111000 >
1*
0'
0.
08
02
19
b10 L
0E
15
b1 6
b1 T
07
b1 U
1#
1V
1S
b10000000100000000 I
b1 Y
1!
#737500
0!
#740000
09
0A
1@
1,
0*
1_
12
0^
05
0`
14
1P
1d
b11111000 3
b11111000 B
b11111000 Q
b11111000 a
b11111000 b
b100000000 I
0#
0V
1!
#742500
0!
#745000
18
19
1E
b1 L
17
1J
b10 U
1D
1G
1H
b0 6
b0 T
b11 &
b11 ;
b100 %
b100 :
1(
1'
1.
04
0P
0d
1!
#747500
0!
0@
0,
#750000
0_
1^
0D
0G
0H
1A
b11000 K
b11000 R
b11000 \
b11000 +
b11000 >
1*
0'
0.
08
19
02
b11 L
0E
15
07
b11 U
1[
b10000000100000000 I
1#
1V
1!
#752500
0!
#755000
09
0A
1@
1,
0*
1_
0^
05
0`
b11000 3
b11000 B
b11000 Q
b11000 a
b11000 b
14
1P
1d
b100000000 I
0#
0V
1!
#757500
0!
#760000
18
19
1E
b1000 L
0M
0J
b1 U
b1000 &
b1000 ;
b1000 %
b1000 :
1'
04
0P
0d
1!
#762500
0!
0@
0,
