tests/waves.vcd
$date
	Mon Mar 20 22:34:44 2023
$end
$version
	Icarus Verilog
$end
$timescale
	1ps
$end
$scope module dut_test $end
$var wire 1 ! CLK $end
$var wire 1 " RST_N $end
$var wire 1 # busy $end
$var wire 1 $ busy_D_IN $end
$var wire 8 % cfg_address [7:0] $end
$var wire 32 & cfg_data_in [31:0] $end
$var wire 1 ' cfg_en $end
$var wire 1 ( cfg_op $end
$var wire 1 ) cfg_rdy $end
$var wire 1 * din_en $end
$var wire 8 + din_value [7:0] $end
$var wire 1 , dout_en $end
$var wire 1 - dout_ff_FULL_N $end
$var wire 1 . len_en $end
$var wire 8 / len_value [7:0] $end
$var wire 1 0 programmed_length_EN $end
$var wire 1 1 normal_mode_RESET_N $end
$var wire 1 2 len_rdy $end
$var wire 8 3 dout_value [7:0] $end
$var wire 1 4 dout_rdy $end
$var wire 1 5 din_rdy $end
$var wire 32 6 cfg_data_out [31:0] $end
$scope module dut $end
$var wire 1 ! CLK $end
$var wire 1 7 \MUX_programmed_length$write_1__SEL_1 $end
$var wire 1 " RST_N $end
$var wire 1 8 \busy$D_IN $end
$var wire 1 9 \busy$EN $end
$var wire 8 : cfg_address [7:0] $end
$var wire 32 ; cfg_data_in [31:0] $end
$var wire 1 ' cfg_en $end
$var wire 1 ( cfg_op $end
$var wire 1 ) cfg_rdy $end
$var wire 8 < \current_count$D_IN [7:0] $end
$var wire 1 = \current_count$EN $end
$var wire 1 * din_en $end
$var wire 1 5 din_rdy $end
$var wire 8 > din_value [7:0] $end
$var wire 1 , dout_en $end
$var wire 1 ? \dout_ff$CLR $end
$var wire 1 @ \dout_ff$DEQ $end
$var wire 1 A \dout_ff$ENQ $end
$var wire 1 4 dout_rdy $end
$var wire 8 B dout_value [7:0] $end
$var wire 1 . len_en $end
$var wire 1 2 len_rdy $end
$var wire 8 C len_value [7:0] $end
$var wire 1 D \pause$EN $end
$var wire 1 E \programmed_length$EN $end
$var wire 1 F \sum$EN $end
$var wire 1 G \sw_override$EN $end
$var wire 1 H \w_sw_override$whas $end
$var wire 17 I x__h969 [16:0] $end
$var wire 1 J \sw_override$D_IN $end
$var wire 8 K \sum$D_IN [7:0] $end
$var wire 8 L \programmed_length$D_IN [7:0] $end
$var wire 1 M \pause$D_IN $end
$var wire 8 N next_count__h523 [7:0] $end
$var wire 1 O \dout_ff$FULL_N $end
$var wire 1 P \dout_ff$EMPTY_N $end
$var wire 8 Q \dout_ff$D_OUT [7:0] $end
$var wire 8 R \dout_ff$D_IN [7:0] $end
$var wire 1 S current_count_PLUS_1_EQ_programmed_length___d8 $end
$var wire 32 T cfg_data_out [31:0] $end
$var reg 32 U CASE_cfg_address_0_0_CONCAT_x69_4_0_CONCAT_sw__ETC__q1 [31:0] $end
$var reg 1 V busy $end
$var reg 8 W current_count [7:0] $end
$var reg 1 X pause $end
$var reg 8 Y programmed_length [7:0] $end
$var reg 8 Z sum [7:0] $end
$var reg 1 [ sw_override $end
$scope module dout_ff $end
$var wire 1 ! CLK $end
$var wire 1 ? CLR $end
$var wire 1 @ DEQ $end
$var wire 8 \ D_IN [7:0] $end
$var wire 1 P EMPTY_N $end
$var wire 1 A ENQ $end
$var wire 1 O FULL_N $end
$var wire 1 " RST $end
$var wire 1 ] d0d1 $end
$var wire 1 ^ d0di $end
$var wire 1 _ d0h $end
$var wire 1 ` d1di $end
$var wire 8 a D_OUT [7:0] $end
$var reg 8 b data0_reg [7:0] $end
$var reg 8 c data1_reg [7:0] $end
$var reg 1 d empty_reg $end
$var reg 1 e full_reg $end
$scope begin error_checks $end
$var reg 1 f deqerror $end
$var reg 1 g enqerror $end
$upscope $end
$upscope $end
$upscope $end
$upscope $end
$enddefinitions $end
#0
$dumpvars
0g
0f
1e
0d
b10101010 c
b10101010 b
b10101010 a
0`
1_
0^
0]
bx \
0[
b10101010 Z
b10101010 Y
0X
b10101010 W
0V
b10101010 U
b0x0x0x0x0 T
0S
bx R
b10101010 Q
0P
1O
b10101011 N
zM
bz L
bx K
zJ
b1010101010101010 I
xH
xG
xF
xE
xD
bz C
b10101010 B
0A
z@
0?
bz >
x=
b10101011 <
bz ;
bz :
x9
18
x7
b0x0x0x0x0 6
15
04
b10101010 3
02
11
z0
bz /
z.
1-
z,
bz +
z*
1)
z(
z'
bz &
bz %
z$
0#
1"
1!
$end
#1000
05
x8
b0 6
b0 T
b0 U
b0 Z
b0 Y
b1 <
b1 N
b0 I
b0 W
0"
#2500
0!
#5000
08
09
0E
0D
0G
0H
07
0=
0F
0'
0@
0,
0.
0*
1"
1!
#7500
0!
#10000
b11 L
1M
1J
1D
1G
1H
b11 &
b11 ;
b100 %
b100 :
1(
1'
1!
#12500
0!
#15000
0D
0G
0H
0'
b11 U
02
1[
1X
1!
#17500
0!
#20000
18
19
1E
b1000 L
0M
0J
b0 U
b1000 &
b1000 ;
b1000 %
b1000 :
1'
1!
#22500
0!
#25000
0E
1=
1F
b1 K
b1 R
b1 \
b1 +
b1 >
1*
0'
15
b1000 U
1#
1V
b10000100000000000 I
b1000 Y
1!
#27500
0!
#30000
09
0=
0F
0*
b10 K
b10 R
b10 \
b1 Z
b10 <
b10 N
b10000100000000001 I
b1 W
1!
#32500
0!
#35000
19
1=
1F
b10000100000000001 U
b10000100000000001 6
b10000100000000001 T
1*
b0 %
b0 :
0(
1'
1!
#37500
0!
#40000
09
0=
0F
0*
0'
b10000100000000010 6
b10000100000000010 T
b10000100000000010 U
b11 K
b11 R
b11 \
b10 Z
b11 <
b11 N
b10000100000000010 I
b10 W
1!
#42500
0!
#45000
19
1=
1F
1*
1'
1!
#47500
0!
#50000
09
0=
0F
0*
0'
b10000100000000011 6
b10000100000000011 T
b10000100000000011 U
b100 K
b100 R
b100 \
b11 Z
b100 <
b100 N
b10000100000000011 I
b11 W
1!
#52500
0!
#55000
19
1=
1F
b111 K
b111 R
b111 \
b100 +
b100 >
1*
1!
#57500
0!
#60000
09
0=
0F
0*
b10000100000000100 6
b10000100000000100 T
b10000100000000100 U
b1011 K
b1011 R
b1011 \
b111 Z
b101 <
b101 N
b10000100000000100 I
b100 W
1!
#62500
0!
#65000
19
1=
1F
b1001 K
b1001 R
b1001 \
b10 +
b10 >
1*
1!
#67500
0!
#70000
09
0=
0F
b1000 %
b1000 :
1'
0*
b1000 6
b1000 T
b1000 U
b1011 K
b1011 R
b1011 \
b1001 Z
b110 <
b110 N
b10000100000000101 I
b101 W
1!
#72500
0!
#75000
19
1=
1F
b1100 K
b1100 R
b1100 \
b11 +
b11 >
1*
0'
1!
#77500
0!
#80000
b11 6
b11 T
b11 U
09
0=
0F
b100 %
b100 :
1'
0*
b1111 K
b1111 R
b1111 \
b1100 Z
b111 <
b111 N
b10000100000000110 I
b110 W
1!
#82500
0!
#85000
19
1=
1F
b1110 K
b1110 R
b1110 \
b10 +
b10 >
1*
0'
1!
#87500
0!
#90000
b10000100000000111 6
b10000100000000111 T
b10000100000000111 U
09
b0 %
b0 :
1'
0*
1_
0^
08
0F
0=
0A
b10000 K
b10000 R
b10000 \
b1110 Z
1S
b1000 <
b1000 N
b10000100000000111 I
b111 W
1!
#92500
0!
#95000
0_
1^
19
1A
b1110 K
b1110 R
b1110 \
b0 +
b0 >
1*
0'
1!
#97500
0!
#100000
09
1@
1,
0*
1_
0^
05
18
b100000000000 6
b100000000000 T
0F
0=
0A
b100000000000 U
14
1P
1d
b1110 3
b1110 B
b1110 Q
b1110 a
b1110 b
0#
0V
b0 K
b0 R
b0 \
b0 Z
0S
b1 <
b1 N
b100000000000 I
b0 W
1!
#102500
0!
#105000
19
1E
b11 L
1M
1J
b1000 U
b0 6
b0 T
b11 &
b11 ;
b1000 %
b1000 :
1(
1'
04
0P
0d
1!
#107500
0!
0@
0,
#110000
0E
1=
1F
b101100 K
b101100 R
b101100 \
b101100 +
b101100 >
1*
0'
15
b11 U
1#
1V
b10000001100000000 I
b11 Y
1!
#112500
0!
#115000
09
0=
0F
0*
b1011000 K
b1011000 R
b1011000 \
b101100 Z
b10 <
b10 N
b10000001100000001 I
b1 W
1!
#117500
0!
#120000
19
1=
1F
b101111 K
b101111 R
b101111 \
b11 +
b11 >
1*
1!
#122500
0!
#125000
b11 6
b11 T
09
b100 %
b100 :
0(
1'
0*
1_
0^
08
0F
0=
0A
b110010 K
b110010 R
b110010 \
b101111 Z
1S
b11 <
b11 N
b10000001100000010 I
b10 W
1!
#127500
0!
#130000
0_
1^
19
1A
b1111000 K
b1111000 R
b1111000 \
b1001001 +
b1001001 >
1*
0'
1!
#132500
0!
#135000
09
1@
1,
0*
1_
0^
05
18
0F
0=
0A
b1111000 3
b1111000 B
b1111000 Q
b1111000 a
b1111000 b
14
1P
1d
0#
0V
b1001001 K
b1001001 R
b1001001 \
b0 Z
0S
b1 <
b1 N
b1100000000 I
b0 W
1!
#137500
0!
#140000
19
1E
b100 L
0M
0J
b0 6
b0 T
b100 &
b100 ;
b1000 %
b1000 :
1(
1'
04
0P
0d
1!
#142500
0!
0@
0,
#145000
0E
1=
1F
b11101 K
b11101 R
b11101 \
b11101 +
b11101 >
1*
0'
15
b100 U
1#
1V
b10000010000000000 I
b100 Y
1!
#147500
0!
#150000
09
0=
0F
0*
b111010 K
b111010 R
b111010 \
b11101 Z
b10 <
b10 N
b10000010000000001 I
b1 W
1!
#152500
0!
#155000
19
1=
1F
b11 U
b11 6
b11 T
b111101 K
b111101 R
b111101 \
b100000 +
b100000 >
1*
b100 %
b100 :
0(
1'
1!
#157500
0!
#160000
09
0=
0F
0*
0'
b1011101 K
b1011101 R
b1011101 \
b111101 Z
b11 <
b11 N
b10000010000000010 I
b10 W
1!
#162500
0!
#165000
19
1=
1F
b1110000 K
b1110000 R
b1110000 \
b110011 +
b110011 >
1*
1!
#167500
0!
#170000
09
0*
1_
0^
08
0F
0=
0A
b10100011 K
b10100011 R
b10100011 \
b1110000 Z
1S
b100 <
b100 N
b10000010000000011 I
b11 W
1!
#172500
0!
#175000
0_
1^
19
1A
b1111010 K
b1111010 R
b1111010 \
b1010 +
b1010 >
1*
1!
#177500
0!
#180000
09
1@
1,
0*
1_
0^
05
18
0F
0=
0A
14
1P
1d
b1111010 3
b1111010 B
b1111010 Q
b1111010 a
b1111010 b
0#
0V
b1010 K
b1010 R
b1010 \
b0 Z
0S
b1 <
b1 N
b10000000000 I
b0 W
1!
#182500
0!
#185000
19
1E
b110 L
1M
b100 U
b0 6
b0 T
b110 &
b110 ;
b1000 %
b1000 :
1(
1'
04
0P
0d
1!
#187500
0!
0@
0,
#190000
0E
1=
1F
b111010 K
b111010 R
b111010 \
b111010 +
b111010 >
1*
0'
15
b110 U
1#
1V
b10000011000000000 I
b110 Y
1!
#192500
0!
#195000
b11 U
b11 6
b11 T
09
0=
0F
b100 %
b100 :
0(
1'
0*
b1110100 K
b1110100 R
b1110100 \
b111010 Z
b10 <
b10 N
b10000011000000001 I
b1 W
1!
#197500
0!
#200000
19
1=
1F
b10010000 K
b10010000 R
b10010000 \
b1010110 +
b1010110 >
1*
0'
1!
#202500
0!
#205000
b10000011000000010 6
b10000011000000010 T
b10000011000000010 U
09
0=
0F
b0 %
b0 :
1'
0*
b11100110 K
b11100110 R
b11100110 \
b10010000 Z
b11 <
b11 N
b10000011000000010 I
b10 W
1!
#207500
0!
#210000
19
1=
1F
b10100100 K
b10100100 R
b10100100 \
b10100 +
b10100 >
1*
0'
1!
#212500
0!
#215000
09
0=
0F
b100 %
b100 :
1'
0*
b11 6
b11 T
b11 U
b10111000 K
b10111000 R
b10111000 \
b10100100 Z
b100 <
b100 N
b10000011000000011 I
b11 W
1!
#217500
0!
#220000
19
1=
1F
b10101100 K
b10101100 R
b10101100 \
b1000 +
b1000 >
1*
0'
1!
#222500
0!
#225000
b10000011000000100 6
b10000011000000100 T
b10000011000000100 U
09
0=
0F
b0 %
b0 :
1'
0*
b10110100 K
b10110100 R
b10110100 \
b10101100 Z
b101 <
b101 N
b10000011000000100 I
b100 W
1!
#227500
0!
#230000
19
1=
1F
b10110010 K
b10110010 R
b10110010 \
b110 +
b110 >
1*
0'
1!
#232500
0!
#235000
09
1'
0*
1_
0^
08
b10000011000000101 6
b10000011000000101 T
0F
0=
0A
b10000011000000101 U
b10111000 K
b10111000 R
b10111000 \
b10110010 Z
1S
b110 <
b110 N
b10000011000000101 I
b101 W
1!
#237500
0!
#240000
0_
1^
19
1A
b11110001 K
b11110001 R
b11110001 \
b111111 +
b111111 >
1*
0'
1!
#242500
0!
#245000
09
1@
1,
0*
1_
0^
05
18
b11000000000 6
b11000000000 T
0F
0=
0A
b11000000000 U
b11110001 3
b11110001 B
b11110001 Q
b11110001 a
b11110001 b
14
1P
1d
0#
0V
b111111 K
b111111 R
b111111 \
b0 Z
0S
b1 <
b1 N
b11000000000 I
b0 W
1!
#247500
0!
#250000
19
1E
b10 L
b110 U
b0 6
b0 T
b10 &
b10 ;
b1000 %
b1000 :
1(
1'
04
0P
0d
1!
#252500
0!
0@
0,
#255000
0E
1=
1F
b1100 K
b1100 R
b1100 \
b1100 +
b1100 >
1*
0'
15
b10 U
1#
1V
b10000001000000000 I
b10 Y
1!
#257500
0!
#260000
b10 6
b10 T
09
0(
1'
0*
1_
0^
08
0F
0=
0A
b11000 K
b11000 R
b11000 \
b1100 Z
1S
b10 <
b10 N
b10000001000000001 I
b1 W
1!
#262500
0!
#265000
0_
1^
19
1A
b100100 K
b100100 R
b100100 \
b11000 +
b11000 >
1*
0'
1!
#267500
0!
#270000
09
1@
1,
0*
1_
0^
05
18
0F
0=
0A
14
1P
1d
b100100 3
b100100 B
b100100 Q
b100100 a
b100100 b
0#
0V
b11000 K
b11000 R
b11000 \
b0 Z
0S
b1 <
b1 N
b1000000000 I
b0 W
1!
