tests/waves.vcd
$date
	Tue Mar  7 17:32:04 2023
$end
$version
	Icarus Verilog
$end
$timescale
	1ps
$end
$scope module dut_test $end
$var wire 1 ! CLK $end
$var wire 1 " RST_N $end
$var wire 8 # cfg_address [7:0] $end
$var wire 32 $ cfg_data_in [31:0] $end
$var wire 1 % cfg_en $end
$var wire 1 & cfg_op $end
$var wire 1 ' cfg_rdy $end
$var wire 1 ( din_en $end
$var wire 8 ) din_value [7:0] $end
$var wire 1 * dout_en $end
$var wire 1 + len_en $end
$var wire 8 , len_value [7:0] $end
$var wire 1 - len_rdy $end
$var wire 8 . dout_value [7:0] $end
$var wire 1 / dout_rdy $end
$var wire 1 0 din_rdy $end
$var wire 32 1 cfg_data_out [31:0] $end
$scope module dut $end
$var wire 1 ! CLK $end
$var wire 1 2 \MUX_programmed_length$write_1__SEL_1 $end
$var wire 1 " RST_N $end
$var wire 1 3 \busy$D_IN $end
$var wire 1 4 \busy$EN $end
$var wire 8 5 cfg_address [7:0] $end
$var wire 32 6 cfg_data_in [31:0] $end
$var wire 1 % cfg_en $end
$var wire 1 & cfg_op $end
$var wire 1 ' cfg_rdy $end
$var wire 8 7 \current_count$D_IN [7:0] $end
$var wire 1 8 \current_count$EN $end
$var wire 1 ( din_en $end
$var wire 1 0 din_rdy $end
$var wire 8 9 din_value [7:0] $end
$var wire 1 * dout_en $end
$var wire 1 : \dout_ff$CLR $end
$var wire 1 ; \dout_ff$DEQ $end
$var wire 1 < \dout_ff$ENQ $end
$var wire 1 / dout_rdy $end
$var wire 8 = dout_value [7:0] $end
$var wire 1 + len_en $end
$var wire 1 - len_rdy $end
$var wire 8 > len_value [7:0] $end
$var wire 1 ? \pause$EN $end
$var wire 1 @ \programmed_length$EN $end
$var wire 1 A \sum$EN $end
$var wire 1 B \sw_override$EN $end
$var wire 1 C \w_sw_override$whas $end
$var wire 17 D x__h969 [16:0] $end
$var wire 1 E \sw_override$D_IN $end
$var wire 8 F \sum$D_IN [7:0] $end
$var wire 8 G \programmed_length$D_IN [7:0] $end
$var wire 1 H \pause$D_IN $end
$var wire 8 I next_count__h523 [7:0] $end
$var wire 1 J \dout_ff$FULL_N $end
$var wire 1 K \dout_ff$EMPTY_N $end
$var wire 8 L \dout_ff$D_OUT [7:0] $end
$var wire 8 M \dout_ff$D_IN [7:0] $end
$var wire 1 N current_count_PLUS_1_EQ_programmed_length___d8 $end
$var wire 32 O cfg_data_out [31:0] $end
$var reg 32 P CASE_cfg_address_0_0_CONCAT_x69_4_0_CONCAT_sw__ETC__q1 [31:0] $end
$var reg 1 Q busy $end
$var reg 8 R current_count [7:0] $end
$var reg 1 S pause $end
$var reg 8 T programmed_length [7:0] $end
$var reg 8 U sum [7:0] $end
$var reg 1 V sw_override $end
$scope module dout_ff $end
$var wire 1 ! CLK $end
$var wire 1 : CLR $end
$var wire 1 ; DEQ $end
$var wire 8 W D_IN [7:0] $end
$var wire 1 K EMPTY_N $end
$var wire 1 < ENQ $end
$var wire 1 J FULL_N $end
$var wire 1 " RST $end
$var wire 1 X d0d1 $end
$var wire 1 Y d0di $end
$var wire 1 Z d0h $end
$var wire 1 [ d1di $end
$var wire 8 \ D_OUT [7:0] $end
$var reg 8 ] data0_reg [7:0] $end
$var reg 8 ^ data1_reg [7:0] $end
$var reg 1 _ empty_reg $end
$var reg 1 ` full_reg $end
$scope begin error_checks $end
$var reg 1 a deqerror $end
$var reg 1 b enqerror $end
$upscope $end
$upscope $end
$upscope $end
$upscope $end
$enddefinitions $end
#0
$dumpvars
0b
0a
1`
0_
b10101010 ^
b10101010 ]
b10101010 \
0[
1Z
0Y
0X
bx W
0V
b10101010 U
b10101010 T
0S
b10101010 R
0Q
b10101010 P
b0x0x0x0x0 O
0N
bx M
b10101010 L
0K
1J
b10101011 I
zH
bz G
bx F
zE
b1010101010101010 D
xC
xB
xA
x@
x?
bz >
b10101010 =
0<
z;
0:
bz 9
x8
b10101011 7
bz 6
bz 5
z4
13
x2
b0x0x0x0x0 1
10
0/
b10101010 .
1-
bz ,
z+
z*
bz )
z(
1'
z&
z%
bz $
bz #
1"
1!
$end
#1000
b0 1
b0 O
00
03
b0 P
b0 U
b0 T
b1 7
b1 I
b0 D
b0 R
0"
#2500
0!
#5000
0@
02
08
0A
0;
0*
0+
04
0(
1"
1!
#7500
0!
#10000
1!
#12500
0!
#15000
1!
#17500
0!
#20000
1!
#22500
0!
#25000
1!
#27500
0!
#30000
1!
#32500
0!
#35000
1!
#37500
0!
#40000
b101 G
1@
12
b101 ,
b101 >
1+
1!
#42500
0!
#45000
bz G
0@
02
18
1A
b11000 F
b11000 M
b11000 W
b11000 )
b11000 9
14
1(
0+
b0x0x 1
b0x0x O
10
13
b101 P
b10100000000 D
b101 T
1!
#47500
0!
#50000
08
0A
04
0(
0-
1Q
b110000 F
b110000 M
b110000 W
b11000 U
b10 7
b10 I
b10000010100000001 D
b1 R
1!
#52500
0!
#55000
1!
#57500
0!
#60000
1!
#62500
0!
#65000
1!
#67500
0!
#70000
1!
#72500
0!
#75000
1!
#77500
0!
#80000
1!
#82500
0!
#85000
1!
#87500
0!
#90000
1!
#92500
0!
#95000
1!
#97500
0!
#100000
1!
#102500
0!
#105000
1!
#107500
0!
#110000
1!
#112500
0!
#115000
1!
#117500
0!
#120000
1!
#122500
0!
#125000
1!
#127500
0!
#130000
1!
#132500
0!
#135000
1!
#137500
0!
#140000
1!
#142500
0!
#145000
1!
#147500
0!
#150000
18
1A
b11111 F
b11111 M
b11111 W
b111 )
b111 9
14
1(
1!
#152500
0!
#155000
08
0A
04
0(
b100110 F
b100110 M
b100110 W
b11111 U
b11 7
b11 I
b10000010100000010 D
b10 R
1!
#157500
0!
#160000
1!
#162500
0!
#165000
1!
#167500
0!
#170000
1!
#172500
0!
#175000
1!
#177500
0!
#180000
1!
#182500
0!
#185000
1!
#187500
0!
#190000
1!
#192500
0!
#195000
1!
#197500
0!
#200000
1!
#202500
0!
#205000
1!
#207500
0!
#210000
1!
#212500
0!
#215000
1!
#217500
0!
#220000
18
1A
b100000 F
b100000 M
b100000 W
b1 )
b1 9
14
1(
1!
#222500
0!
#225000
08
0A
04
0(
b100001 F
b100001 M
b100001 W
b100000 U
b100 7
b100 I
b10000010100000011 D
b11 R
1!
#227500
0!
#230000
1!
#232500
0!
#235000
1!
#237500
0!
#240000
1!
#242500
0!
#245000
1!
#247500
0!
#250000
1!
#252500
0!
#255000
1!
#257500
0!
#260000
1!
#262500
0!
#265000
1!
#267500
0!
#270000
18
1A
b100011 F
b100011 M
b100011 W
b11 )
b11 9
14
1(
1!
#272500
0!
#275000
04
0(
1Z
0Y
0A
08
03
0<
b100110 F
b100110 M
b100110 W
b100011 U
1N
b101 7
b101 I
b10000010100000100 D
b100 R
1!
#277500
0!
#280000
1!
#282500
0!
#285000
1!
#287500
0!
#290000
1!
#292500
0!
#295000
1!
#297500
0!
#300000
0Z
1Y
1<
b111001 F
b111001 M
b111001 W
b10110 )
b10110 9
14
1(
1!
#302500
0!
#305000
1;
1*
04
0(
1Z
0Y
1-
0A
08
13
0<
b111001 .
b111001 =
b111001 L
b111001 \
b111001 ]
1/
1K
1_
0Q
b10110 F
b10110 M
b10110 W
b0 U
0N
b1 7
b1 I
b10100000000 D
b0 R
1!
#307500
0!
#310000
18
1A
b10100 F
b10100 M
b10100 W
b10100 )
b10100 9
14
1(
0/
0K
0_
1!
#311000
0;
0*
#312500
0!
#315000
08
0A
04
0(
0-
1Q
b101000 F
b101000 M
b101000 W
b10100 U
b10 7
b10 I
b10000010100000001 D
b1 R
1!
#317500
0!
#320000
1!
#322500
0!
#325000
1!
#327500
0!
#330000
1!
#332500
0!
#335000
1!
#337500
0!
#340000
1!
#342500
0!
#345000
1!
#347500
0!
#350000
1!
#352500
0!
#355000
18
1A
b101101 F
b101101 M
b101101 W
b11001 )
b11001 9
14
1(
1!
#357500
0!
#360000
08
0A
04
0(
b1000110 F
b1000110 M
b1000110 W
b101101 U
b11 7
b11 I
b10000010100000010 D
b10 R
1!
#361000
18
1A
b111001 F
b111001 M
b111001 W
b1100 )
b1100 9
14
1(
#362500
0!
#365000
08
0A
04
0(
b1000101 F
b1000101 M
b1000101 W
b111001 U
b100 7
b100 I
b10000010100000011 D
b11 R
1!
#367500
0!
#370000
1!
#372500
0!
#375000
1!
#377500
0!
#380000
1!
#382500
0!
#385000
1!
#387500
0!
#390000
1!
#392500
0!
#395000
1!
#397500
0!
#400000
1!
#402500
0!
#405000
1!
#407500
0!
#410000
1!
#412500
0!
#415000
1!
#417500
0!
#420000
1!
#422500
0!
#425000
1!
#427500
0!
#430000
1!
#432500
0!
#435000
1!
#437500
0!
#440000
1!
#442500
0!
#445000
1!
#447500
0!
#450000
18
1A
b1010010 F
b1010010 M
b1010010 W
b11001 )
b11001 9
14
1(
1!
#452500
0!
#455000
04
0(
1Z
0Y
0A
08
03
0<
b1101011 F
b1101011 M
b1101011 W
b1010010 U
1N
b101 7
b101 I
b10000010100000100 D
b100 R
1!
#457500
0!
#460000
1!
#462500
0!
#465000
1!
#467500
0!
#470000
1!
#472500
0!
#475000
1!
#477500
0!
#480000
1!
#482500
0!
#485000
0Z
1Y
1<
b1101110 F
b1101110 M
b1101110 W
b11100 )
b11100 9
14
1(
1!
#487500
0!
#490000
1;
1*
04
0(
1Z
0Y
1-
0A
08
13
0<
1/
1K
1_
b1101110 .
b1101110 =
b1101110 L
b1101110 \
b1101110 ]
0Q
b11100 F
b11100 M
b11100 W
b0 U
0N
b1 7
b1 I
b10100000000 D
b0 R
1!
#492500
0!
#495000
0/
0K
0_
1!
#497000
0;
0*
#497500
0!
#500000
1!
#502500
0!
#505000
1!
#507500
0!
#510000
1!
#512500
0!
#515000
1!
#517500
0!
#520000
1!
#522500
0!
#525000
1!
#527500
0!
#530000
1!
#532500
0!
#535000
1!
#537500
0!
#540000
1!
#542500
0!
#545000
1!
#547500
0!
#550000
1!
#552500
0!
#555000
1!
#557500
0!
#560000
1!
#562500
0!
#565000
1!
#567500
0!
#570000
1!
#572500
0!
#575000
1!
#577500
0!
#580000
18
1A
b110 F
b110 M
b110 W
b110 )
b110 9
14
1(
1!
#582500
0!
#585000
08
0A
04
0(
0-
1Q
b1100 F
b1100 M
b1100 W
b110 U
b10 7
b10 I
b10000010100000001 D
b1 R
1!
#587500
0!
#590000
1!
#592500
0!
#595000
1!
#597500
0!
#600000
1!
#602500
0!
#605000
1!
#607500
0!
#610000
1!
#612500
0!
#615000
1!
#617500
0!
#620000
1!
#622500
0!
#625000
1!
#627500
0!
#630000
1!
#632500
0!
#635000
1!
#637500
0!
#640000
1!
#642500
0!
#645000
18
1A
b100101 F
b100101 M
b100101 W
b11111 )
b11111 9
14
1(
1!
#647500
0!
#650000
08
0A
04
0(
b1000100 F
b1000100 M
b1000100 W
b100101 U
b11 7
b11 I
b10000010100000010 D
b10 R
1!
#652500
0!
#655000
1!
#657500
0!
#660000
1!
#662500
0!
#665000
1!
#667500
0!
#670000
1!
#672500
0!
#675000
1!
#677500
0!
#680000
1!
#682500
0!
#685000
1!
#687500
0!
#690000
1!
#692500
0!
#695000
1!
#697500
0!
#700000
1!
#702500
0!
#705000
1!
#707500
0!
#710000
1!
#712500
0!
#715000
1!
#717500
0!
#720000
1!
#722500
0!
#725000
1!
#727500
0!
#730000
1!
#732500
0!
#735000
1!
#737500
0!
#740000
18
1A
b100101 F
b100101 M
b100101 W
b0 )
b0 9
14
1(
1!
#742500
0!
#745000
08
0A
04
0(
b100 7
b100 I
b10000010100000011 D
b11 R
1!
#747500
0!
#750000
1!
#752500
0!
#755000
1!
#757500
0!
#760000
1!
#762500
0!
#765000
1!
#767500
0!
#770000
1!
#772500
0!
#775000
1!
#777500
0!
#780000
1!
#782500
0!
#785000
1!
#787500
0!
#790000
1!
#792500
0!
#795000
1!
#797500
0!
#800000
1!
#802500
0!
#805000
1!
#807500
0!
#810000
1!
#812500
0!
#815000
1!
#817500
0!
#820000
18
1A
b1000001 F
b1000001 M
b1000001 W
b11100 )
b11100 9
14
1(
1!
#822500
0!
#825000
04
0(
1Z
0Y
0A
08
03
0<
b1011101 F
b1011101 M
b1011101 W
b1000001 U
1N
b101 7
b101 I
b10000010100000100 D
b100 R
1!
#827500
0!
#830000
1!
#832500
0!
#835000
1!
#837500
0!
#840000
1!
#842500
0!
#845000
1!
#847500
0!
#850000
1!
#852500
0!
#855000
0Z
1Y
1<
b1100000 F
b1100000 M
b1100000 W
b11111 )
b11111 9
14
1(
1!
#857500
0!
#860000
1;
1*
04
0(
1Z
0Y
1-
0A
08
13
0<
1/
1K
1_
b1100000 .
b1100000 =
b1100000 L
b1100000 \
b1100000 ]
0Q
b11111 F
b11111 M
b11111 W
b0 U
0N
b1 7
b1 I
b10100000000 D
b0 R
1!
#862500
0!
#865000
0/
0K
0_
1!
#867000
0;
0*
#867500
0!
#870000
1!
#872500
0!
#875000
18
1A
b101 F
b101 M
b101 W
b101 )
b101 9
14
1(
1!
#877500
0!
#880000
08
0A
04
0(
0-
1Q
b1010 F
b1010 M
b1010 W
b101 U
b10 7
b10 I
b10000010100000001 D
b1 R
1!
#882500
0!
#885000
1!
#887500
0!
#890000
1!
#892500
0!
#895000
1!
#897500
0!
#900000
1!
#902500
0!
#905000
1!
#907500
0!
#910000
1!
#912500
0!
#915000
1!
#917500
0!
#920000
1!
#922500
0!
#925000
1!
#927500
0!
#930000
1!
#932500
0!
#935000
1!
#937500
0!
#940000
1!
#942500
0!
#945000
1!
#947500
0!
#950000
1!
#952500
0!
#955000
1!
#957500
0!
#960000
1!
#962500
0!
#965000
1!
#967500
0!
#970000
18
1A
b10010 F
b10010 M
b10010 W
b1101 )
b1101 9
14
1(
1!
#972500
0!
#975000
08
0A
04
0(
b11111 F
b11111 M
b11111 W
b10010 U
b11 7
b11 I
b10000010100000010 D
b10 R
1!
#977500
0!
#980000
1!
#982500
0!
#985000
1!
#987500
0!
#990000
1!
#992500
0!
#995000
1!
#997500
0!
#1000000
1!
#1002500
0!
#1005000
1!
#1007500
0!
#1010000
1!
#1012500
0!
#1015000
1!
#1017500
0!
#1020000
1!
#1022500
0!
#1025000
1!
#1027500
0!
#1030000
1!
#1032500
0!
#1035000
18
1A
b11100 F
b11100 M
b11100 W
b1010 )
b1010 9
14
1(
1!
#1037500
0!
#1040000
08
0A
04
0(
b100110 F
b100110 M
b100110 W
b11100 U
b100 7
b100 I
b10000010100000011 D
b11 R
1!
#1042500
0!
#1045000
1!
#1047500
0!
#1050000
1!
#1052500
0!
#1055000
1!
#1057500
0!
#1060000
18
1A
b111001 F
b111001 M
b111001 W
b11101 )
b11101 9
14
1(
1!
#1062500
0!
#1065000
04
0(
1Z
0Y
0A
08
03
0<
b1010110 F
b1010110 M
b1010110 W
b111001 U
1N
b101 7
b101 I
b10000010100000100 D
b100 R
1!
#1067500
0!
#1070000
1!
#1072500
0!
#1075000
1!
#1077500
0!
#1080000
1!
#1082500
0!
#1085000
1!
#1087500
0!
#1090000
1!
#1092500
0!
#1095000
1!
#1097500
0!
#1100000
1!
#1102500
0!
#1105000
1!
#1107500
0!
#1110000
1!
#1112500
0!
#1115000
0Z
1Y
1<
b1001101 F
b1001101 M
b1001101 W
b10100 )
b10100 9
14
1(
1!
#1117500
0!
#1120000
1;
1*
04
0(
1Z
0Y
1-
0A
08
13
0<
1/
1K
1_
b1001101 .
b1001101 =
b1001101 L
b1001101 \
b1001101 ]
0Q
b10100 F
b10100 M
b10100 W
b0 U
0N
b1 7
b1 I
b10100000000 D
b0 R
1!
#1122500
0!
#1125000
0/
0K
0_
1!
#1127000
0;
0*
#1127500
0!
#1130000
1!
#1132500
0!
#1135000
1!
#1137500
0!
#1140000
1!
#1142500
0!
#1145000
1!
#1147500
0!
#1150000
1!
#1152500
0!
#1155000
1!
#1157500
0!
#1160000
1!
#1162500
0!
#1165000
1!
#1167500
0!
#1170000
18
1A
b1100 F
b1100 M
b1100 W
b1100 )
b1100 9
14
1(
1!
#1172500
0!
#1175000
08
0A
04
0(
0-
1Q
b11000 F
b11000 M
b11000 W
b1100 U
b10 7
b10 I
b10000010100000001 D
b1 R
1!
#1177500
0!
#1180000
1!
#1182500
0!
#1185000
1!
#1187500
0!
#1190000
1!
#1192500
0!
#1195000
1!
#1197500
0!
#1200000
18
1A
b1100 F
b1100 M
b1100 W
b0 )
b0 9
14
1(
1!
#1202500
0!
#1205000
08
0A
04
0(
b11 7
b11 I
b10000010100000010 D
b10 R
1!
#1207500
0!
#1210000
1!
#1212500
0!
#1215000
1!
#1217500
0!
#1220000
1!
#1222500
0!
#1225000
1!
#1227500
0!
#1230000
1!
#1232500
0!
#1235000
1!
#1237500
0!
#1240000
1!
#1242500
0!
#1245000
1!
#1247500
0!
#1250000
1!
#1252500
0!
#1255000
18
1A
b10010 F
b10010 M
b10010 W
b110 )
b110 9
14
1(
1!
#1257500
0!
#1260000
08
0A
04
0(
b11000 F
b11000 M
b11000 W
b10010 U
b100 7
b100 I
b10000010100000011 D
b11 R
1!
#1262500
0!
#1265000
1!
#1267500
0!
#1270000
18
1A
b101000 F
b101000 M
b101000 W
b10110 )
b10110 9
14
1(
1!
#1272500
0!
#1275000
04
0(
1Z
0Y
0A
08
03
0<
b111110 F
b111110 M
b111110 W
b101000 U
1N
b101 7
b101 I
b10000010100000100 D
b100 R
1!
#1277000
0Z
1Y
1<
b1000100 F
b1000100 M
b1000100 W
b11100 )
b11100 9
14
1(
#1277500
0!
#1280000
1;
1*
04
0(
1Z
0Y
1-
0A
08
13
0<
1/
1K
1_
b1000100 .
b1000100 =
b1000100 L
b1000100 \
b1000100 ]
0Q
b11100 F
b11100 M
b11100 W
b0 U
0N
b1 7
b1 I
b10100000000 D
b0 R
1!
