tests/waves.vcd
$date
	Wed Mar 22 00:33:52 2023
$end
$version
	Icarus Verilog
$end
$timescale
	1ps
$end
$scope module dut_test $end
$var wire 1 ! CLK $end
$var wire 1 " RST_N $end
$var wire 1 # busy $end
$var wire 1 $ busy_D_IN $end
$var wire 8 % cfg_address [7:0] $end
$var wire 32 & cfg_data_in [31:0] $end
$var wire 1 ' cfg_en $end
$var wire 1 ( cfg_op $end
$var wire 1 ) cfg_rdy $end
$var wire 1 * din_en $end
$var wire 8 + din_value [7:0] $end
$var wire 1 , dout_en $end
$var wire 1 - dout_ff_FULL_N $end
$var wire 1 . len_en $end
$var wire 8 / len_value [7:0] $end
$var wire 1 0 programmed_length_EN $end
$var wire 1 1 normal_mode_RESET_N $end
$var wire 1 2 len_rdy $end
$var wire 8 3 dout_value [7:0] $end
$var wire 1 4 dout_rdy $end
$var wire 1 5 din_rdy $end
$var wire 32 6 cfg_data_out [31:0] $end
$scope module dut $end
$var wire 1 ! CLK $end
$var wire 1 7 \MUX_programmed_length$write_1__SEL_1 $end
$var wire 1 " RST_N $end
$var wire 1 8 \busy$D_IN $end
$var wire 1 9 \busy$EN $end
$var wire 8 : cfg_address [7:0] $end
$var wire 32 ; cfg_data_in [31:0] $end
$var wire 1 ' cfg_en $end
$var wire 1 ( cfg_op $end
$var wire 1 ) cfg_rdy $end
$var wire 8 < \current_count$D_IN [7:0] $end
$var wire 1 = \current_count$EN $end
$var wire 1 * din_en $end
$var wire 1 5 din_rdy $end
$var wire 8 > din_value [7:0] $end
$var wire 1 , dout_en $end
$var wire 1 ? \dout_ff$CLR $end
$var wire 1 @ \dout_ff$DEQ $end
$var wire 1 A \dout_ff$ENQ $end
$var wire 1 4 dout_rdy $end
$var wire 8 B dout_value [7:0] $end
$var wire 1 . len_en $end
$var wire 1 2 len_rdy $end
$var wire 8 C len_value [7:0] $end
$var wire 1 D \pause$EN $end
$var wire 1 E \programmed_length$EN $end
$var wire 1 F \sum$EN $end
$var wire 1 G \sw_override$EN $end
$var wire 1 H \w_sw_override$whas $end
$var wire 17 I x__h969 [16:0] $end
$var wire 1 J \sw_override$D_IN $end
$var wire 8 K \sum$D_IN [7:0] $end
$var wire 8 L \programmed_length$D_IN [7:0] $end
$var wire 1 M \pause$D_IN $end
$var wire 8 N next_count__h523 [7:0] $end
$var wire 1 O \dout_ff$FULL_N $end
$var wire 1 P \dout_ff$EMPTY_N $end
$var wire 8 Q \dout_ff$D_OUT [7:0] $end
$var wire 8 R \dout_ff$D_IN [7:0] $end
$var wire 1 S current_count_PLUS_1_EQ_programmed_length___d8 $end
$var wire 32 T cfg_data_out [31:0] $end
$var reg 32 U CASE_cfg_address_0_0_CONCAT_x69_4_0_CONCAT_sw__ETC__q1 [31:0] $end
$var reg 1 V busy $end
$var reg 8 W current_count [7:0] $end
$var reg 1 X pause $end
$var reg 8 Y programmed_length [7:0] $end
$var reg 8 Z sum [7:0] $end
$var reg 1 [ sw_override $end
$scope module dout_ff $end
$var wire 1 ! CLK $end
$var wire 1 ? CLR $end
$var wire 1 @ DEQ $end
$var wire 8 \ D_IN [7:0] $end
$var wire 1 P EMPTY_N $end
$var wire 1 A ENQ $end
$var wire 1 O FULL_N $end
$var wire 1 " RST $end
$var wire 1 ] d0d1 $end
$var wire 1 ^ d0di $end
$var wire 1 _ d0h $end
$var wire 1 ` d1di $end
$var wire 8 a D_OUT [7:0] $end
$var reg 8 b data0_reg [7:0] $end
$var reg 8 c data1_reg [7:0] $end
$var reg 1 d empty_reg $end
$var reg 1 e full_reg $end
$scope begin error_checks $end
$var reg 1 f deqerror $end
$var reg 1 g enqerror $end
$upscope $end
$upscope $end
$upscope $end
$upscope $end
$enddefinitions $end
#0
$dumpvars
0g
0f
1e
0d
b10101010 c
b10101010 b
b10101010 a
0`
1_
0^
0]
bx \
0[
b10101010 Z
b10101010 Y
0X
b10101010 W
0V
b10101010 U
b0x0x0x0x0 T
0S
bx R
b10101010 Q
0P
1O
b10101011 N
zM
bz L
bx K
zJ
b1010101010101010 I
xH
xG
xF
xE
xD
bz C
b10101010 B
0A
z@
0?
bz >
x=
b10101011 <
bz ;
bz :
z9
18
x7
b0x0x0x0x0 6
15
04
b10101010 3
02
11
z0
bz /
z.
1-
z,
bz +
z*
1)
z(
z'
bz &
bz %
z$
0#
1"
1!
$end
#1000
b0 6
b0 T
05
08
b0 U
b0 Z
b0 Y
b1 <
b1 N
b0 I
b0 W
0"
#2500
0!
#5000
0E
0D
0G
0H
07
0=
0F
0'
0@
0,
0.
09
0*
1"
1!
#7500
0!
#10000
b11 L
1M
1J
1D
1G
1H
b11 &
b11 ;
b100 %
b100 :
1(
1'
1!
#12500
0!
#15000
0D
0G
0H
0'
b11 U
02
1[
1X
1!
#17500
0!
#20000
1E
b101 L
0M
b0 U
b101 &
b101 ;
b1000 %
b1000 :
1'
1!
#22500
0!
#25000
0E
0'
15
18
b101 U
b10100000000 I
b101 Y
1!
#27500
0!
#30000
1!
#32500
0!
#35000
b10 L
1M
0J
b11 U
1D
1G
1H
1=
1F
b10 &
b10 ;
b100 %
b100 :
1'
b1010111 K
b1010111 R
b1010111 \
b1010111 +
b1010111 >
19
1*
1!
#37500
0!
#40000
0D
0G
0H
0=
0F
0'
09
0*
b10 U
0[
1#
1V
b10101110 K
b10101110 R
b10101110 \
b1010111 Z
b10 <
b10 N
b10000010100000001 I
b1 W
1!
#42500
0!
#45000
1=
1F
b1110100 K
b1110100 R
b1110100 \
b11101 +
b11101 >
19
1*
1!
#47500
0!
#50000
0=
0F
09
0*
b10010001 K
b10010001 R
b10010001 \
b1110100 Z
b11 <
b11 N
b10000010100000010 I
b10 W
1!
#52500
0!
#55000
1=
1F
b11000101 K
b11000101 R
b11000101 \
b1010001 +
b1010001 >
19
1*
1!
#57500
0!
#60000
0=
0F
09
0*
b10110 K
b10110 R
b10110 \
b11000101 Z
b100 <
b100 N
b10000010100000011 I
b11 W
1!
#62500
0!
#65000
1=
1F
b11010010 K
b11010010 R
b11010010 \
b1101 +
b1101 >
19
1*
1!
#67500
0!
#70000
09
0*
1_
0^
0F
0=
08
0A
b11011111 K
b11011111 R
b11011111 \
b11010010 Z
1S
b101 <
b101 N
b10000010100000100 I
b100 W
1!
#72500
0!
#75000
0_
1^
1A
b11100000 K
b11100000 R
b11100000 \
b1110 +
b1110 >
19
1*
1!
#77500
0!
#80000
0A
09
0*
1_
12
05
0^
0`
14
1P
1d
b11100000 3
b11100000 B
b11100000 Q
b11100000 a
b11100000 b
b10100000100 I
0#
0V
1!
#82500
0!
#85000
1!
#87500
0!
#90000
b11 L
1E
17
b11 /
b11 C
1.
1!
#92500
0!
#95000
b10 L
0E
07
0.
15
18
b11 Y
b1110 K
b1110 R
b1110 \
b0 Z
0S
b1 <
b1 N
b1100000000 I
b0 W
1!
#97500
0!
#100000
1!
#102500
0!
#105000
b0 L
1D
1G
1H
0M
1=
1F
b0 &
b0 ;
1'
b1000100 K
b1000100 R
b1000100 \
b1000100 +
b1000100 >
19
1*
1!
#107500
0!
#110000
0D
0G
0H
0=
0F
0'
09
0*
02
b0 U
0X
1#
1V
b10001000 K
b10001000 R
b10001000 \
b1000100 Z
b10 <
b10 N
b10000001100000001 I
b1 W
1!
#112500
0!
#115000
1=
1F
b1101101 K
b1101101 R
b1101101 \
b101001 +
b101001 >
19
1*
1!
#117500
0!
#120000
09
0*
0`
0F
0=
08
0A
b10010110 K
b10010110 R
b10010110 \
b1101101 Z
1S
b11 <
b11 N
b10000001100000010 I
b10 W
1!
#122500
0!
#125000
1`
1A
b10100101 K
b10100101 R
b10100101 \
b111000 +
b111000 >
19
1*
1!
#127500
0!
#130000
09
0*
05
0`
0F
0=
18
0A
0-
0O
0e
b10100101 c
0#
0V
b111000 K
b111000 R
b111000 \
b0 Z
0S
b1 <
b1 N
b1100000000 I
b0 W
1!
#132500
0!
#135000
1!
#137500
0!
#140000
0_
1]
1@
1,
1!
#142500
0!
#145000
1_
15
0]
b10100101 3
b10100101 B
b10100101 Q
b10100101 a
b10100101 b
1-
1O
1e
1!
#147500
0!
0@
0,
#150000
1@
1,
1!
#152500
0!
#155000
04
0P
0d
1!
#157500
0!
0@
0,
#160000
b11 L
1D
1G
1H
1M
1J
1=
1F
b11 &
b11 ;
1'
b10001111 K
b10001111 R
b10001111 \
b10001111 +
b10001111 >
19
1*
1!
#162500
0!
#165000
0D
0G
0H
0=
0F
0'
09
0*
02
b11 U
1[
1X
1#
1V
b11110 K
b11110 R
b11110 \
b10001111 Z
b10 <
b10 N
b10000001100000001 I
b1 W
1!
#167500
0!
#170000
1=
1F
b10111111 K
b10111111 R
b10111111 \
b110000 +
b110000 >
19
1*
1!
#172500
0!
#175000
09
0*
1_
0^
0F
0=
08
0A
b11101111 K
b11101111 R
b11101111 \
b10111111 Z
1S
b11 <
b11 N
b10000001100000010 I
b10 W
1!
#177500
0!
#180000
0_
1^
1A
b11010011 K
b11010011 R
b11010011 \
b10100 +
b10100 >
19
1*
1!
#182500
0!
#185000
0A
09
0*
1_
05
0^
0`
b11010011 3
b11010011 B
b11010011 Q
b11010011 a
b11010011 b
14
1P
1d
b1100000010 I
0#
0V
1!
#187500
0!
#190000
1!
#192500
0!
#195000
1E
b100 L
0M
0J
b100 &
b100 ;
b1000 %
b1000 :
1'
1!
#197500
0!
#200000
0E
0'
15
18
b100 U
b100 Y
b10100 K
b10100 R
b10100 \
b0 Z
0S
b1 <
b1 N
b10000000000 I
b0 W
1!
#202500
0!
#205000
1!
#207500
0!
#210000
1=
1F
b100111 K
b100111 R
b100111 \
b100111 +
b100111 >
19
1*
1!
#212500
0!
#215000
0=
0F
09
0*
1#
1V
b1001110 K
b1001110 R
b1001110 \
b100111 Z
b10 <
b10 N
b10000010000000001 I
b1 W
1!
#217500
0!
#220000
1=
1F
b1011101 K
b1011101 R
b1011101 \
b110110 +
b110110 >
19
1*
1!
#222500
0!
#225000
0=
0F
09
0*
b10010011 K
b10010011 R
b10010011 \
b1011101 Z
b11 <
b11 N
b10000010000000010 I
b10 W
1!
#227500
0!
#230000
1=
1F
b1101011 K
b1101011 R
b1101011 \
b1110 +
b1110 >
19
1*
1!
#232500
0!
#235000
09
0*
0`
0F
0=
08
0A
b1111001 K
b1111001 R
b1111001 \
b1101011 Z
1S
b100 <
b100 N
b10000010000000011 I
b11 W
1!
#237500
0!
#240000
1`
1A
b1111010 K
b1111010 R
b1111010 \
b1111 +
b1111 >
19
1*
1!
#242500
0!
#245000
0`
0A
09
0*
05
b1111010 c
0-
0O
0e
b10000000011 I
0#
0V
1!
#247500
0!
#250000
1!
#252500
0!
#255000
0_
1]
1@
1,
1!
#257500
0!
#260000
1_
0]
1-
1O
1e
b1111010 3
b1111010 B
b1111010 Q
b1111010 a
b1111010 b
1!
#262500
0!
0@
0,
#265000
1@
1,
1!
#267500
0!
#270000
04
0P
0d
1!
#272500
0!
0@
0,
#275000
1E
b1 L
1J
b1 &
b1 ;
1'
1!
#277500
0!
#280000
0E
0'
b1 U
b1 Y
b1111 K
b1111 R
b1111 \
b0 Z
1S
b1 <
b1 N
b100000000 I
b0 W
1!
#282500
0!
#285000
1!
#287500
0!
#290000
b11 U
1D
1G
1H
b100 %
b100 :
1'
1!
#292500
0!
#295000
0D
0G
0H
0'
b1 U
0X
1!
