tests/waves.vcd
$date
	Tue Mar 21 12:58:04 2023
$end
$version
	Icarus Verilog
$end
$timescale
	1ps
$end
$scope module dut_test $end
$var wire 1 ! CLK $end
$var wire 1 " RST_N $end
$var wire 1 # busy $end
$var wire 1 $ busy_D_IN $end
$var wire 8 % cfg_address [7:0] $end
$var wire 32 & cfg_data_in [31:0] $end
$var wire 1 ' cfg_en $end
$var wire 1 ( cfg_op $end
$var wire 1 ) cfg_rdy $end
$var wire 1 * din_en $end
$var wire 8 + din_value [7:0] $end
$var wire 1 , dout_en $end
$var wire 1 - dout_ff_FULL_N $end
$var wire 1 . len_en $end
$var wire 8 / len_value [7:0] $end
$var wire 1 0 programmed_length_EN $end
$var wire 1 1 normal_mode_RESET_N $end
$var wire 1 2 len_rdy $end
$var wire 8 3 dout_value [7:0] $end
$var wire 1 4 dout_rdy $end
$var wire 1 5 din_rdy $end
$var wire 32 6 cfg_data_out [31:0] $end
$scope module dut $end
$var wire 1 ! CLK $end
$var wire 1 7 \MUX_programmed_length$write_1__SEL_1 $end
$var wire 1 " RST_N $end
$var wire 1 8 \busy$D_IN $end
$var wire 1 9 \busy$EN $end
$var wire 8 : cfg_address [7:0] $end
$var wire 32 ; cfg_data_in [31:0] $end
$var wire 1 ' cfg_en $end
$var wire 1 ( cfg_op $end
$var wire 1 ) cfg_rdy $end
$var wire 8 < \current_count$D_IN [7:0] $end
$var wire 1 = \current_count$EN $end
$var wire 1 * din_en $end
$var wire 1 5 din_rdy $end
$var wire 8 > din_value [7:0] $end
$var wire 1 , dout_en $end
$var wire 1 ? \dout_ff$CLR $end
$var wire 1 @ \dout_ff$DEQ $end
$var wire 1 A \dout_ff$ENQ $end
$var wire 1 4 dout_rdy $end
$var wire 8 B dout_value [7:0] $end
$var wire 1 . len_en $end
$var wire 1 2 len_rdy $end
$var wire 8 C len_value [7:0] $end
$var wire 1 D \pause$EN $end
$var wire 1 E \programmed_length$EN $end
$var wire 1 F \sum$EN $end
$var wire 1 G \sw_override$EN $end
$var wire 1 H \w_sw_override$whas $end
$var wire 17 I x__h969 [16:0] $end
$var wire 1 J \sw_override$D_IN $end
$var wire 8 K \sum$D_IN [7:0] $end
$var wire 8 L \programmed_length$D_IN [7:0] $end
$var wire 1 M \pause$D_IN $end
$var wire 8 N next_count__h523 [7:0] $end
$var wire 1 O \dout_ff$FULL_N $end
$var wire 1 P \dout_ff$EMPTY_N $end
$var wire 8 Q \dout_ff$D_OUT [7:0] $end
$var wire 8 R \dout_ff$D_IN [7:0] $end
$var wire 1 S current_count_PLUS_1_EQ_programmed_length___d8 $end
$var wire 32 T cfg_data_out [31:0] $end
$var reg 32 U CASE_cfg_address_0_0_CONCAT_x69_4_0_CONCAT_sw__ETC__q1 [31:0] $end
$var reg 1 V busy $end
$var reg 8 W current_count [7:0] $end
$var reg 1 X pause $end
$var reg 8 Y programmed_length [7:0] $end
$var reg 8 Z sum [7:0] $end
$var reg 1 [ sw_override $end
$scope module dout_ff $end
$var wire 1 ! CLK $end
$var wire 1 ? CLR $end
$var wire 1 @ DEQ $end
$var wire 8 \ D_IN [7:0] $end
$var wire 1 P EMPTY_N $end
$var wire 1 A ENQ $end
$var wire 1 O FULL_N $end
$var wire 1 " RST $end
$var wire 1 ] d0d1 $end
$var wire 1 ^ d0di $end
$var wire 1 _ d0h $end
$var wire 1 ` d1di $end
$var wire 8 a D_OUT [7:0] $end
$var reg 8 b data0_reg [7:0] $end
$var reg 8 c data1_reg [7:0] $end
$var reg 1 d empty_reg $end
$var reg 1 e full_reg $end
$scope begin error_checks $end
$var reg 1 f deqerror $end
$var reg 1 g enqerror $end
$upscope $end
$upscope $end
$upscope $end
$upscope $end
$enddefinitions $end
#0
$dumpvars
0g
0f
1e
0d
b10101010 c
b10101010 b
b10101010 a
0`
1_
0^
0]
bx \
0[
b10101010 Z
b10101010 Y
0X
b10101010 W
0V
b10101010 U
b0x0x0x0x0 T
0S
bx R
b10101010 Q
0P
1O
b10101011 N
zM
bz L
bx K
zJ
b1010101010101010 I
xH
xG
xF
xE
xD
bz C
b10101010 B
0A
z@
0?
bz >
x=
b10101011 <
bz ;
bz :
x9
18
x7
b0x0x0x0x0 6
15
04
b10101010 3
02
11
z0
bz /
z.
1-
z,
bz +
z*
1)
z(
z'
bz &
bz %
z$
0#
1"
1!
$end
#1000
05
x8
b0 6
b0 T
b0 U
b0 Z
b0 Y
b1 <
b1 N
b0 I
b0 W
0"
#2500
0!
#5000
08
09
0E
0D
0G
0H
07
0=
0F
0'
0@
0,
0.
0*
1"
1!
#7500
0!
#10000
b1 L
0M
1J
1D
1G
1H
b1 &
b1 ;
b100 %
b100 :
1(
1'
1!
#12500
0!
#15000
0D
0G
0H
0'
b1 U
1[
1!
#17500
0!
#20000
b11 L
1D
1G
1H
1M
b11 &
b11 ;
1'
1!
#22500
0!
#25000
0D
0G
0H
0'
b11 U
1X
1!
#27500
0!
#30000
18
19
1E
b111 L
b0 U
b111 &
b111 ;
b1000 %
b1000 :
1'
1!
#32500
0!
#35000
0E
1=
1F
b111111 K
b111111 R
b111111 \
b111111 +
b111111 >
1*
0'
15
b111 U
1#
1V
b10000011100000000 I
b111 Y
1!
#37500
0!
#40000
b10 L
0J
b11 U
1D
1G
1H
09
0=
0F
b10 &
b10 ;
b100 %
b100 :
1'
0*
b1111110 K
b1111110 R
b1111110 \
b111111 Z
b10 <
b10 N
b10000011100000001 I
b1 W
1!
#42500
0!
#45000
0D
0G
0H
19
1=
1F
b1000000 K
b1000000 R
b1000000 \
b1 +
b1 >
1*
0'
b10 U
0[
1!
#47500
0!
#50000
09
0=
0F
0*
b1000001 K
b1000001 R
b1000001 \
b1000000 Z
b11 <
b11 N
b10000011100000010 I
b10 W
1!
#52500
0!
#55000
19
1=
1F
b1000100 K
b1000100 R
b1000100 \
b100 +
b100 >
1*
1!
#57500
0!
#60000
b111 U
b111 6
b111 T
09
0=
0F
b1000 %
b1000 :
0(
1'
0*
b1001000 K
b1001000 R
b1001000 \
b1000100 Z
b100 <
b100 N
b10000011100000011 I
b11 W
1!
#62500
0!
#65000
19
1=
1F
b1010010 K
b1010010 R
b1010010 \
b1110 +
b1110 >
1*
0'
1!
#67500
0!
#70000
b10000011100000100 6
b10000011100000100 T
b10000011100000100 U
09
0=
0F
b0 %
b0 :
1'
0*
b1100000 K
b1100000 R
b1100000 \
b1010010 Z
b101 <
b101 N
b10000011100000100 I
b100 W
1!
#72500
0!
#75000
19
1=
1F
b10110011 K
b10110011 R
b10110011 \
b1100001 +
b1100001 >
1*
0'
1!
#77500
0!
#80000
09
0=
0F
0*
b10000011100000101 6
b10000011100000101 T
b10000011100000101 U
b10100 K
b10100 R
b10100 \
b10110011 Z
b110 <
b110 N
b10000011100000101 I
b101 W
1!
#82500
0!
#85000
19
1=
1F
b10111111 K
b10111111 R
b10111111 \
b1100 +
b1100 >
1*
1!
#87500
0!
#90000
09
b100 %
b100 :
1'
0*
1_
0^
08
b10 6
b10 T
0F
0=
0A
b10 U
b11001011 K
b11001011 R
b11001011 \
b10111111 Z
1S
b111 <
b111 N
b10000011100000110 I
b110 W
1!
#92500
0!
#95000
0_
1^
19
1A
b11100001 K
b11100001 R
b11100001 \
b100010 +
b100010 >
1*
0'
1!
#97500
0!
#100000
09
1@
1,
0*
12
1_
0^
05
18
0F
0=
0A
14
1P
1d
b11100001 3
b11100001 B
b11100001 Q
b11100001 a
b11100001 b
0#
0V
b100010 K
b100010 R
b100010 \
b0 Z
0S
b1 <
b1 N
b11100000000 I
b0 W
1!
#102500
0!
#105000
19
1E
b1001 L
1D
1G
1H
17
1J
b0 6
b0 T
b11 &
b11 ;
1(
1'
b1001 /
b1001 C
1.
04
0P
0d
1!
#107500
0!
0@
0,
#110000
0D
0G
0H
1=
1F
b1 K
b1 R
b1 \
b1 +
b1 >
1*
0'
0.
19
02
b11 L
0E
15
07
b11 U
1[
1#
1V
b10000100100000000 I
b1001 Y
1!
#112500
0!
#115000
b11 6
b11 T
09
0=
0F
0(
1'
0*
b10 K
b10 R
b10 \
b1 Z
b10 <
b10 N
b10000100100000001 I
b1 W
1!
#117500
0!
#120000
19
1=
1F
b11010 K
b11010 R
b11010 \
b11001 +
b11001 >
1*
0'
1!
#122500
0!
#125000
b10000100100000010 6
b10000100100000010 T
b10000100100000010 U
09
0=
0F
b0 %
b0 :
1'
0*
b110011 K
b110011 R
b110011 \
b11010 Z
b11 <
b11 N
b10000100100000010 I
b10 W
1!
#127500
0!
#130000
19
1=
1F
b11101 K
b11101 R
b11101 \
b11 +
b11 >
1*
0'
1!
#132500
0!
#135000
09
0=
0F
b100 %
b100 :
1'
0*
b11 6
b11 T
b11 U
b100000 K
b100000 R
b100000 \
b11101 Z
b100 <
b100 N
b10000100100000011 I
b11 W
1!
#137500
0!
#140000
19
1=
1F
b110111 K
b110111 R
b110111 \
b11010 +
b11010 >
1*
0'
1!
#142500
0!
#145000
09
0=
0F
0*
b1010001 K
b1010001 R
b1010001 \
b110111 Z
b101 <
b101 N
b10000100100000100 I
b100 W
1!
#147500
0!
#150000
19
1=
1F
b111110 K
b111110 R
b111110 \
b111 +
b111 >
1*
1'
1!
#152500
0!
#155000
09
0=
0F
0*
0'
b1000101 K
b1000101 R
b1000101 \
b111110 Z
b110 <
b110 N
b10000100100000101 I
b101 W
1!
#157500
0!
#160000
b1001 6
b1001 T
19
1=
1F
b1001 U
1*
b1000 %
b1000 :
1'
1!
#162500
0!
#165000
09
0=
0F
0*
0'
b1001100 K
b1001100 R
b1001100 \
b1000101 Z
b111 <
b111 N
b10000100100000110 I
b110 W
1!
#167500
0!
#170000
19
1=
1F
b1000110 K
b1000110 R
b1000110 \
b1 +
b1 >
1*
1'
1!
#172500
0!
#175000
09
0=
0F
0*
0'
b1000111 K
b1000111 R
b1000111 \
b1000110 Z
b1000 <
b1000 N
b10000100100000111 I
b111 W
1!
#177500
0!
#180000
19
1=
1F
b1010011 K
b1010011 R
b1010011 \
b1101 +
b1101 >
1*
1'
1!
#182500
0!
#185000
09
0*
0'
1_
0^
08
0F
0=
0A
b1100000 K
b1100000 R
b1100000 \
b1010011 Z
1S
b1001 <
b1001 N
b10000100100001000 I
b1000 W
1!
#187500
0!
#190000
0_
1^
19
1A
b1011001 K
b1011001 R
b1011001 \
b110 +
b110 >
1*
1!
#192500
0!
#195000
09
1@
1,
0*
1_
0^
05
18
0F
0=
0A
b1011001 3
b1011001 B
b1011001 Q
b1011001 a
b1011001 b
14
1P
1d
0#
0V
b110 K
b110 R
b110 \
b0 Z
0S
b1 <
b1 N
b100100000000 I
b0 W
1!
#197500
0!
#200000
19
1E
b0 6
b0 T
1(
1'
04
0P
0d
1!
#202500
0!
0@
0,
#205000
0E
1=
1F
b10001 K
b10001 R
b10001 \
b10001 +
b10001 >
1*
0'
15
b11 U
1#
1V
b10000001100000000 I
b11 Y
1!
#207500
0!
#210000
b10 L
0J
1D
1G
1H
09
0=
0F
b10 &
b10 ;
b100 %
b100 :
1'
0*
b100010 K
b100010 R
b100010 \
b10001 Z
b10 <
b10 N
b10000001100000001 I
b1 W
1!
#212500
0!
#215000
0D
0G
0H
19
1=
1F
b1011010 K
b1011010 R
b1011010 \
b1001001 +
b1001001 >
1*
0'
b10 U
0[
1!
#217500
0!
#220000
b10 6
b10 T
09
0(
1'
0*
1_
0^
08
0F
0=
0A
b10100011 K
b10100011 R
b10100011 \
b1011010 Z
1S
b11 <
b11 N
b10000001100000010 I
b10 W
1!
#222500
0!
#225000
0_
1^
19
1A
b10000010 K
b10000010 R
b10000010 \
b101000 +
b101000 >
1*
0'
1!
#227500
0!
#230000
09
1@
1,
0*
12
1_
0^
05
18
0F
0=
0A
14
1P
1d
b10000010 3
b10000010 B
b10000010 Q
b10000010 a
b10000010 b
0#
0V
b101000 K
b101000 R
b101000 \
b0 Z
0S
b1 <
b1 N
b1100000000 I
b0 W
1!
#232500
0!
#235000
19
1E
b11 L
1D
1G
1H
17
1J
b0 6
b0 T
b11 &
b11 ;
1(
1'
b11 /
b11 C
1.
04
0P
0d
1!
#237500
0!
0@
0,
#240000
0D
0G
0H
1=
1F
b1110101 K
b1110101 R
b1110101 \
b1110101 +
b1110101 >
1*
0'
0.
19
02
0E
15
07
b11 U
1[
b10000001100000000 I
1#
1V
1!
#242500
0!
#245000
09
0=
0F
0*
b11101010 K
b11101010 R
b11101010 \
b1110101 Z
b10 <
b10 N
b10000001100000001 I
b1 W
1!
#247500
0!
#250000
19
1=
1F
b11 6
b11 T
b10111010 K
b10111010 R
b10111010 \
b1000101 +
b1000101 >
1*
0(
1'
1!
#252500
0!
#255000
09
0*
0'
1_
0^
08
0F
0=
0A
b11111111 K
b11111111 R
b11111111 \
b10111010 Z
1S
b11 <
b11 N
b10000001100000010 I
b10 W
1!
#257500
0!
#260000
0_
1^
19
1A
b11000000 K
b11000000 R
b11000000 \
b110 +
b110 >
1*
1!
#262500
0!
#265000
09
1@
1,
0*
1_
0^
05
18
0F
0=
0A
b11000000 3
b11000000 B
b11000000 Q
b11000000 a
b11000000 b
14
1P
1d
0#
0V
b110 K
b110 R
b110 \
b0 Z
0S
b1 <
b1 N
b1100000000 I
b0 W
1!
#267500
0!
#270000
04
0P
0d
1!
