tests/waves.vcd
$date
	Wed Mar  8 10:21:02 2023
$end
$version
	Icarus Verilog
$end
$timescale
	1ps
$end
$scope module dut_test $end
$var wire 1 ! CLK $end
$var wire 1 " RST_N $end
$var wire 8 # cfg_address [7:0] $end
$var wire 32 $ cfg_data_in [31:0] $end
$var wire 1 % cfg_en $end
$var wire 1 & cfg_op $end
$var wire 1 ' cfg_rdy $end
$var wire 1 ( din_en $end
$var wire 8 ) din_value [7:0] $end
$var wire 1 * dout_en $end
$var wire 1 + len_en $end
$var wire 8 , len_value [7:0] $end
$var wire 1 - len_rdy $end
$var wire 8 . dout_value [7:0] $end
$var wire 1 / dout_rdy $end
$var wire 1 0 din_rdy $end
$var wire 32 1 cfg_data_out [31:0] $end
$scope module dut $end
$var wire 1 ! CLK $end
$var wire 1 " RST_N $end
$var wire 1 2 \busy$D_IN $end
$var wire 1 3 \busy$EN $end
$var wire 8 4 cfg_address [7:0] $end
$var wire 32 5 cfg_data_in [31:0] $end
$var wire 1 % cfg_en $end
$var wire 1 & cfg_op $end
$var wire 1 ' cfg_rdy $end
$var wire 8 6 \current_count$D_IN [7:0] $end
$var wire 1 7 \current_count$EN $end
$var wire 1 ( din_en $end
$var wire 1 0 din_rdy $end
$var wire 8 8 din_value [7:0] $end
$var wire 1 * dout_en $end
$var wire 1 9 \dout_ff$CLR $end
$var wire 1 : \dout_ff$DEQ $end
$var wire 1 ; \dout_ff$ENQ $end
$var wire 1 / dout_rdy $end
$var wire 8 < dout_value [7:0] $end
$var wire 1 + len_en $end
$var wire 1 - len_rdy $end
$var wire 8 = len_value [7:0] $end
$var wire 1 > \pause$EN $end
$var wire 1 ? \programmed_length$EN $end
$var wire 1 @ \sum$EN $end
$var wire 1 A \sw_override$EN $end
$var wire 1 B \w_sw_override$whas $end
$var wire 17 C x__h969 [16:0] $end
$var wire 1 D \sw_override$D_IN $end
$var wire 8 E \sum$D_IN [7:0] $end
$var wire 8 F \programmed_length$D_IN [7:0] $end
$var wire 1 G \pause$D_IN $end
$var wire 8 H next_count__h523 [7:0] $end
$var wire 1 I \dout_ff$FULL_N $end
$var wire 1 J \dout_ff$EMPTY_N $end
$var wire 8 K \dout_ff$D_OUT [7:0] $end
$var wire 8 L \dout_ff$D_IN [7:0] $end
$var wire 1 M current_count_PLUS_1_EQ_programmed_length___d8 $end
$var wire 32 N cfg_data_out [31:0] $end
$var wire 1 O \MUX_programmed_length$write_1__SEL_1 $end
$var reg 32 P CASE_cfg_address_0_0_CONCAT_x69_4_0_CONCAT_sw__ETC__q1 [31:0] $end
$var reg 1 Q busy $end
$var reg 8 R current_count [7:0] $end
$var reg 1 S pause $end
$var reg 8 T programmed_length [7:0] $end
$var reg 8 U sum [7:0] $end
$var reg 1 V sw_override $end
$scope module dout_ff $end
$var wire 1 ! CLK $end
$var wire 1 9 CLR $end
$var wire 1 : DEQ $end
$var wire 8 W D_IN [7:0] $end
$var wire 1 J EMPTY_N $end
$var wire 1 ; ENQ $end
$var wire 1 I FULL_N $end
$var wire 1 " RST $end
$var wire 1 X d0d1 $end
$var wire 1 Y d0di $end
$var wire 1 Z d0h $end
$var wire 1 [ d1di $end
$var wire 8 \ D_OUT [7:0] $end
$var reg 8 ] data0_reg [7:0] $end
$var reg 8 ^ data1_reg [7:0] $end
$var reg 1 _ empty_reg $end
$var reg 1 ` full_reg $end
$scope begin error_checks $end
$var reg 1 a deqerror $end
$var reg 1 b enqerror $end
$upscope $end
$upscope $end
$upscope $end
$upscope $end
$enddefinitions $end
#0
$dumpvars
0b
0a
1`
0_
b10101010 ^
b10101010 ]
b10101010 \
0[
1Z
0Y
0X
bx W
0V
b10101010 U
b10101010 T
0S
b10101010 R
0Q
b10101010 P
1O
b0x0x0x0x0 N
0M
bx L
b10101010 K
0J
1I
b10101011 H
zG
bz F
bx E
zD
b1010101010101010 C
xB
xA
x@
x?
x>
bz =
b10101010 <
0;
z:
09
bz 8
x7
b10101011 6
bz 5
bz 4
x3
12
b0x0x0x0x0 1
10
0/
b10101010 .
1-
bz ,
z+
z*
bz )
z(
1'
z&
z%
bz $
bz #
1"
1!
$end
#1000
00
b0 1
b0 N
b0 P
b0 U
b0 T
b1 6
b1 H
b0 C
b0 R
0"
#2500
0!
#5000
03
0?
0>
0A
0B
07
0@
0%
0:
0*
0+
0(
1"
1!
#7500
0!
#10000
13
1?
b111 F
b111 ,
b111 =
1+
1!
#12500
0!
#15000
17
1@
b1110 E
b1110 L
b1110 W
b1110 )
b1110 8
1(
0+
13
0?
10
0-
b0xxx 1
b0xxx N
b111 P
1Q
b10000011100000000 C
b111 T
1!
#17500
0!
#20000
03
07
0@
0(
b11100 E
b11100 L
b11100 W
b1110 U
b10 6
b10 H
b10000011100000001 C
b1 R
1!
#22500
0!
#25000
13
17
1@
b11111 E
b11111 L
b11111 W
b10001 )
b10001 8
1(
1!
#27500
0!
#30000
03
07
0@
0(
b110000 E
b110000 L
b110000 W
b11111 U
b11 6
b11 H
b10000011100000010 C
b10 R
1!
#32500
0!
#35000
13
17
1@
b100111 E
b100111 L
b100111 W
b1000 )
b1000 8
1(
1!
#37500
0!
#40000
03
07
0@
0(
b101111 E
b101111 L
b101111 W
b100111 U
b100 6
b100 H
b10000011100000011 C
b11 R
1!
#42500
0!
#45000
13
17
1@
b111010 E
b111010 L
b111010 W
b10011 )
b10011 8
1(
1!
#47500
0!
#50000
03
07
0@
0(
b1001101 E
b1001101 L
b1001101 W
b111010 U
b101 6
b101 H
b10000011100000100 C
b100 R
1!
#52500
0!
#55000
13
17
1@
b1000011 E
b1000011 L
b1000011 W
b1001 )
b1001 8
1(
1!
#57500
0!
#60000
03
07
0@
0(
b1001100 E
b1001100 L
b1001100 W
b1000011 U
b110 6
b110 H
b10000011100000101 C
b101 R
1!
#62500
0!
#65000
13
17
1@
b1001101 E
b1001101 L
b1001101 W
b1010 )
b1010 8
1(
1!
#67500
0!
#70000
03
0(
1Z
0Y
0@
07
02
0;
b1010111 E
b1010111 L
b1010111 W
b1001101 U
1M
b111 6
b111 H
b10000011100000110 C
b110 R
1!
#72500
0!
#75000
0Z
1Y
13
1;
b1011100 E
b1011100 L
b1011100 W
b1111 )
b1111 8
1(
1!
#77500
0!
#80000
03
1:
1*
0(
1Z
0Y
1-
0@
07
12
0;
1/
1J
1_
b1011100 .
b1011100 <
b1011100 K
b1011100 \
b1011100 ]
0Q
b1111 E
b1111 L
b1111 W
b0 U
0M
b1 6
b1 H
b11100000000 C
b0 R
1!
#82500
0!
#85000
13
17
1@
b1011 E
b1011 L
b1011 W
b1011 )
b1011 8
1(
0/
0J
0_
1!
#87000
0:
0*
#87500
0!
#90000
03
07
0@
0(
0-
1Q
b10110 E
b10110 L
b10110 W
b1011 U
b10 6
b10 H
b10000011100000001 C
b1 R
1!
#92500
0!
#95000
13
17
1@
b11001 E
b11001 L
b11001 W
b1110 )
b1110 8
1(
1!
#97500
0!
#100000
03
07
0@
0(
b100111 E
b100111 L
b100111 W
b11001 U
b11 6
b11 H
b10000011100000010 C
b10 R
1!
#102500
0!
#105000
13
17
1@
b101011 E
b101011 L
b101011 W
b10010 )
b10010 8
1(
1!
#107500
0!
#110000
03
07
0@
0(
b111101 E
b111101 L
b111101 W
b101011 U
b100 6
b100 H
b10000011100000011 C
b11 R
1!
#112500
0!
#115000
13
17
1@
b111010 E
b111010 L
b111010 W
b1111 )
b1111 8
1(
1!
#117500
0!
#120000
03
07
0@
0(
b1001001 E
b1001001 L
b1001001 W
b111010 U
b101 6
b101 H
b10000011100000100 C
b100 R
1!
#122500
0!
#125000
13
17
1@
b1000101 E
b1000101 L
b1000101 W
b1011 )
b1011 8
1(
1!
#127500
0!
#130000
03
07
0@
0(
b1010000 E
b1010000 L
b1010000 W
b1000101 U
b110 6
b110 H
b10000011100000101 C
b101 R
1!
#132500
0!
#135000
13
17
1@
b1001010 E
b1001010 L
b1001010 W
b101 )
b101 8
1(
1!
#137500
0!
#140000
03
0(
1Z
0Y
0@
07
02
0;
b1001111 E
b1001111 L
b1001111 W
b1001010 U
1M
b111 6
b111 H
b10000011100000110 C
b110 R
1!
#142500
0!
#145000
0Z
1Y
13
1;
b1011011 E
b1011011 L
b1011011 W
b10001 )
b10001 8
1(
1!
#147500
0!
#150000
03
1:
1*
0(
1Z
0Y
1-
0@
07
12
0;
1/
1J
1_
b1011011 .
b1011011 <
b1011011 K
b1011011 \
b1011011 ]
0Q
b10001 E
b10001 L
b10001 W
b0 U
0M
b1 6
b1 H
b11100000000 C
b0 R
1!
#152500
0!
#155000
13
17
1@
b10011 E
b10011 L
b10011 W
b10011 )
b10011 8
1(
0/
0J
0_
1!
#157000
0:
0*
#157500
0!
#160000
03
07
0@
0(
0-
1Q
b100110 E
b100110 L
b100110 W
b10011 U
b10 6
b10 H
b10000011100000001 C
b1 R
1!
#162500
0!
#165000
13
17
1@
b101100 E
b101100 L
b101100 W
b11001 )
b11001 8
1(
1!
#167500
0!
#170000
03
07
0@
0(
b1000101 E
b1000101 L
b1000101 W
b101100 U
b11 6
b11 H
b10000011100000010 C
b10 R
1!
#172500
0!
#175000
13
17
1@
b1001000 E
b1001000 L
b1001000 W
b11100 )
b11100 8
1(
1!
#177500
0!
#180000
03
07
0@
0(
b1100100 E
b1100100 L
b1100100 W
b1001000 U
b100 6
b100 H
b10000011100000011 C
b11 R
1!
#182500
0!
#185000
13
17
1@
b1100111 E
b1100111 L
b1100111 W
b11111 )
b11111 8
1(
1!
#187500
0!
#190000
03
07
0@
0(
b10000110 E
b10000110 L
b10000110 W
b1100111 U
b101 6
b101 H
b10000011100000100 C
b100 R
1!
#192500
0!
#195000
13
17
1@
b1101110 E
b1101110 L
b1101110 W
b111 )
b111 8
1(
1!
#197500
0!
#200000
03
07
0@
0(
b1110101 E
b1110101 L
b1110101 W
b1101110 U
b110 6
b110 H
b10000011100000101 C
b101 R
1!
#202500
0!
#205000
13
17
1@
b10001001 E
b10001001 L
b10001001 W
b11011 )
b11011 8
1(
1!
#207500
0!
#210000
03
0(
1Z
0Y
0@
07
02
0;
b10100100 E
b10100100 L
b10100100 W
b10001001 U
1M
b111 6
b111 H
b10000011100000110 C
b110 R
1!
#212500
0!
#215000
0Z
1Y
13
1;
b10010111 E
b10010111 L
b10010111 W
b1110 )
b1110 8
1(
1!
#217500
0!
#220000
03
1:
1*
0(
1Z
0Y
1-
0@
07
12
0;
1/
1J
1_
b10010111 .
b10010111 <
b10010111 K
b10010111 \
b10010111 ]
0Q
b1110 E
b1110 L
b1110 W
b0 U
0M
b1 6
b1 H
b11100000000 C
b0 R
1!
#222500
0!
#225000
13
17
1@
b1101 E
b1101 L
b1101 W
b1101 )
b1101 8
1(
0/
0J
0_
1!
#227000
0:
0*
#227500
0!
#230000
03
07
0@
0(
0-
1Q
b11010 E
b11010 L
b11010 W
b1101 U
b10 6
b10 H
b10000011100000001 C
b1 R
1!
#232500
0!
#235000
13
17
1@
b10111 E
b10111 L
b10111 W
b1010 )
b1010 8
1(
1!
#237500
0!
#240000
03
07
0@
0(
b100001 E
b100001 L
b100001 W
b10111 U
b11 6
b11 H
b10000011100000010 C
b10 R
1!
#242500
0!
#245000
13
17
1@
b11110 E
b11110 L
b11110 W
b111 )
b111 8
1(
1!
#247500
0!
#250000
03
07
0@
0(
b100101 E
b100101 L
b100101 W
b11110 U
b100 6
b100 H
b10000011100000011 C
b11 R
1!
#252500
0!
#255000
13
17
1@
b101101 E
b101101 L
b101101 W
b1111 )
b1111 8
1(
1!
#257500
0!
#260000
03
07
0@
0(
b111100 E
b111100 L
b111100 W
b101101 U
b101 6
b101 H
b10000011100000100 C
b100 R
1!
#262500
0!
#265000
13
17
1@
b1000000 E
b1000000 L
b1000000 W
b10011 )
b10011 8
1(
1!
#267500
0!
#270000
03
07
0@
0(
b1010011 E
b1010011 L
b1010011 W
b1000000 U
b110 6
b110 H
b10000011100000101 C
b101 R
1!
#272500
0!
#275000
13
17
1@
b1011000 E
b1011000 L
b1011000 W
b11000 )
b11000 8
1(
1!
#277500
0!
#280000
03
0(
1Z
0Y
0@
07
02
0;
b1110000 E
b1110000 L
b1110000 W
b1011000 U
1M
b111 6
b111 H
b10000011100000110 C
b110 R
1!
#282500
0!
#285000
0Z
1Y
13
1;
b1101100 E
b1101100 L
b1101100 W
b10100 )
b10100 8
1(
1!
#287500
0!
#290000
03
1:
1*
0(
1Z
0Y
1-
0@
07
12
0;
1/
1J
1_
b1101100 .
b1101100 <
b1101100 K
b1101100 \
b1101100 ]
0Q
b10100 E
b10100 L
b10100 W
b0 U
0M
b1 6
b1 H
b11100000000 C
b0 R
1!
#292500
0!
#295000
13
17
1@
b11001 E
b11001 L
b11001 W
b11001 )
b11001 8
1(
0/
0J
0_
1!
#297000
0:
0*
#297500
0!
#300000
03
07
0@
0(
0-
1Q
b110010 E
b110010 L
b110010 W
b11001 U
b10 6
b10 H
b10000011100000001 C
b1 R
1!
#302500
0!
#305000
13
17
1@
b101011 E
b101011 L
b101011 W
b10010 )
b10010 8
1(
1!
#307500
0!
#310000
03
07
0@
0(
b111101 E
b111101 L
b111101 W
b101011 U
b11 6
b11 H
b10000011100000010 C
b10 R
1!
#312500
0!
#315000
13
17
1@
b1001000 E
b1001000 L
b1001000 W
b11101 )
b11101 8
1(
1!
#317500
0!
#320000
03
07
0@
0(
b1100101 E
b1100101 L
b1100101 W
b1001000 U
b100 6
b100 H
b10000011100000011 C
b11 R
1!
#322500
0!
#325000
13
17
1@
b1100110 E
b1100110 L
b1100110 W
b11110 )
b11110 8
1(
1!
#327500
0!
#330000
03
07
0@
0(
b10000100 E
b10000100 L
b10000100 W
b1100110 U
b101 6
b101 H
b10000011100000100 C
b100 R
1!
#332500
0!
#335000
13
17
1@
1(
1!
#337500
0!
#340000
03
07
0@
0(
b10100010 E
b10100010 L
b10100010 W
b10000100 U
b110 6
b110 H
b10000011100000101 C
b101 R
1!
#342500
0!
#345000
13
17
1@
b10001101 E
b10001101 L
b10001101 W
b1001 )
b1001 8
1(
1!
#347500
0!
#350000
03
0(
1Z
0Y
0@
07
02
0;
b10010110 E
b10010110 L
b10010110 W
b10001101 U
1M
b111 6
b111 H
b10000011100000110 C
b110 R
1!
#352500
0!
#355000
0Z
1Y
13
1;
b10101100 E
b10101100 L
b10101100 W
b11111 )
b11111 8
1(
1!
#357500
0!
#360000
03
0(
1Z
0Y
1-
0@
07
12
0;
1/
1J
1_
b10101100 .
b10101100 <
b10101100 K
b10101100 \
b10101100 ]
0Q
b11111 E
b11111 L
b11111 W
b0 U
0M
b1 6
b1 H
b11100000000 C
b0 R
1!
#362500
0!
#365000
1!
#367500
0!
#370000
1:
1*
1!
